 0x000000000000000e (SONAME)             Library soname: [libhidl-gen-utils.so]
  
Symbol   contains 753 entries:
Num:   Type Bind Vis Ndx Name
0:   NOTYPE LOCAL DEFAULT UND
1:   NOTYPE WEAK DEFAULT UND __gmon_start__
2:   NOTYPE WEAK DEFAULT UND _ITM_deregisterTMCloneTab
3:   NOTYPE WEAK DEFAULT UND _ITM_registerTMCloneTable
4:   FUNC WEAK DEFAULT UND __cxa_finalize@GLIBC_2.2.5 (2)
5:   NOTYPE WEAK DEFAULT UND _Jv_RegisterClasses
6:   FUNC GLOBAL DEFAULT UND _ZN7android4base10LogMess
7:   FUNC GLOBAL DEFAULT UND _ZN7android4base10LogMess
8:   FUNC GLOBAL DEFAULT UND _ZN7android4base10LogMess
9:   FUNC GLOBAL DEFAULT UND _ZN7android4base21GetMini
10:   FUNC GLOBAL DEFAULT UND _ZN7android4base5SplitERK
11:   FUNC GLOBAL DEFAULT UND _ZNKSt3__112basic_stringI
12:   FUNC GLOBAL DEFAULT UND _ZNKSt3__112basic_stringI
13:   FUNC GLOBAL DEFAULT UND _ZNKSt3__120__vector_base
14:   FUNC GLOBAL DEFAULT UND _ZNKSt3__121__basic_strin
15:   FUNC GLOBAL DEFAULT UND _ZNKSt3__123__match_any_b
16:   FUNC GLOBAL DEFAULT UND _ZNKSt3__16locale4nameEv
17:   FUNC GLOBAL DEFAULT UND _ZNKSt3__16locale9use_fac
18:   FUNC GLOBAL DEFAULT UND _ZNKSt3__18ios_base6getlo
19:   FUNC GLOBAL DEFAULT UND _ZNSt3__112basic_stringIc
20:   FUNC GLOBAL DEFAULT UND _ZNSt3__112basic_stringIc
21:   FUNC GLOBAL DEFAULT UND _ZNSt3__112basic_stringIc
22:   FUNC GLOBAL DEFAULT UND _ZNSt3__112basic_stringIc
23:   FUNC GLOBAL DEFAULT UND _ZNSt3__112basic_stringIc
24:   FUNC GLOBAL DEFAULT UND _ZNSt3__112basic_stringIc
25:   FUNC GLOBAL DEFAULT UND _ZNSt3__112basic_stringIc
26:   FUNC GLOBAL DEFAULT UND _ZNSt3__112basic_stringIc
27:   FUNC GLOBAL DEFAULT UND _ZNSt3__112basic_stringIc
28:   FUNC GLOBAL DEFAULT UND _ZNSt3__112basic_stringIc
29:   FUNC GLOBAL DEFAULT UND _ZNSt3__112basic_stringIc
30:   FUNC GLOBAL DEFAULT UND _ZNSt3__112basic_stringIc
31:   FUNC GLOBAL DEFAULT UND _ZNSt3__113basic_istreamI
32:   FUNC GLOBAL DEFAULT UND _ZNSt3__113basic_istreamI
33:   FUNC GLOBAL DEFAULT UND _ZNSt3__113basic_istreamI
34:   FUNC GLOBAL DEFAULT UND _ZNSt3__113basic_istreamI
35:   FUNC GLOBAL DEFAULT UND _ZNSt3__113basic_ostreamI
36:   FUNC GLOBAL DEFAULT UND _ZNSt3__113basic_ostreamI
37:   FUNC GLOBAL DEFAULT UND _ZNSt3__113basic_ostreamI
38:   FUNC GLOBAL DEFAULT UND _ZNSt3__113basic_ostreamI
39:   FUNC GLOBAL DEFAULT UND _ZNSt3__113basic_ostreamI
40:   FUNC GLOBAL DEFAULT UND _ZNSt3__113basic_ostreamI
41:   FUNC GLOBAL DEFAULT UND _ZNSt3__113basic_ostreamI
42:   FUNC GLOBAL DEFAULT UND _ZNSt3__115__get_classnam
43:   FUNC GLOBAL DEFAULT UND _ZNSt3__115basic_streambu
44:   FUNC GLOBAL DEFAULT UND _ZNSt3__115basic_streambu
45:   FUNC GLOBAL DEFAULT UND _ZNSt3__115basic_streambu
46:   FUNC GLOBAL DEFAULT UND _ZNSt3__115basic_streambu
47:   FUNC GLOBAL DEFAULT UND _ZNSt3__115basic_streambu
48:   FUNC GLOBAL DEFAULT UND _ZNSt3__115basic_streambu
49:   FUNC GLOBAL DEFAULT UND _ZNSt3__115basic_streambu
50:   FUNC GLOBAL DEFAULT UND _ZNSt3__115basic_streambu
51:   FUNC GLOBAL DEFAULT UND _ZNSt3__115basic_streambu
52:   FUNC GLOBAL DEFAULT UND _ZNSt3__119__shared_weak_
53:   FUNC GLOBAL DEFAULT UND _ZNSt3__119__shared_weak_
54:   FUNC GLOBAL DEFAULT UND _ZNSt3__120__get_collatio
55:   OBJECT GLOBAL DEFAULT UND _ZNSt3__15ctypeIcE2idE
56:   FUNC GLOBAL DEFAULT UND _ZNSt3__16localeC1ERKS0_
57:   FUNC GLOBAL DEFAULT UND _ZNSt3__16localeC1Ev
58:   FUNC GLOBAL DEFAULT UND _ZNSt3__16localeD1Ev
59:   OBJECT GLOBAL DEFAULT UND _ZNSt3__17collateIcE2idE
60:   FUNC GLOBAL DEFAULT UND _ZNSt3__18ios_base4initEP
61:   FUNC GLOBAL DEFAULT UND _ZNSt3__18ios_base5clearE
62:   FUNC GLOBAL DEFAULT UND _ZNSt3__19basic_iosIcNS_1
63:   FUNC GLOBAL DEFAULT UND _ZNSt3__19to_stringEm
64:   FUNC GLOBAL DEFAULT UND _ZNSt3__1plIcNS_11char_tr
65:   OBJECT GLOBAL DEFAULT UND _ZTINSt3__113basic_istrea
66:   OBJECT GLOBAL DEFAULT UND _ZTINSt3__113basic_ostrea
67:   OBJECT GLOBAL DEFAULT UND _ZTINSt3__115basic_stream
68:   OBJECT GLOBAL DEFAULT UND _ZTINSt3__119__shared_wea
69:   OBJECT GLOBAL DEFAULT UND _ZTVN10__cxxabiv117__clas
70:   OBJECT GLOBAL DEFAULT UND _ZTVN10__cxxabiv120__si_c
71:   OBJECT GLOBAL DEFAULT UND _ZTVNSt3__114__shared_cou
72:   OBJECT GLOBAL DEFAULT UND _ZTVNSt3__119__shared_wea
73:   OBJECT GLOBAL DEFAULT UND _ZTVNSt3__18ios_baseE
74:   OBJECT GLOBAL DEFAULT UND _ZTVNSt3__19basic_iosIcNS
75:   FUNC GLOBAL DEFAULT UND _ZTv0_n24_NSt3__113basic_
76:   FUNC GLOBAL DEFAULT UND _ZTv0_n24_NSt3__113basic_
77:   FUNC GLOBAL DEFAULT UND _ZTv0_n24_NSt3__113basic_
78:   FUNC GLOBAL DEFAULT UND _ZTv0_n24_NSt3__113basic_
79:   FUNC GLOBAL DEFAULT UND _ZdlPv
80:   FUNC GLOBAL DEFAULT UND _ZdlPvSt11align_val_t
81:   FUNC GLOBAL DEFAULT UND _Znwm
82:   FUNC GLOBAL DEFAULT UND _ZnwmSt11align_val_t
83:   FUNC GLOBAL DEFAULT UND __cxa_atexit@GLIBC_2.2.5 (2)
84:   FUNC GLOBAL DEFAULT UND __cxa_guard_acquire
85:   FUNC GLOBAL DEFAULT UND __cxa_guard_release
86:   FUNC GLOBAL DEFAULT UND __errno_location@GLIBC_2.2.5 (3)
87:   FUNC GLOBAL DEFAULT UND __stack_chk_fail@GLIBC_2.4 (4)
88:   FUNC GLOBAL DEFAULT UND abort@GLIBC_2.2.5 (2)
89:   FUNC GLOBAL DEFAULT UND isspace@GLIBC_2.2.5 (2)
90:   FUNC GLOBAL DEFAULT UND memcmp@GLIBC_2.2.5 (2)
91:   FUNC GLOBAL DEFAULT UND memcpy@GLIBC_2.14 (5)
92:   FUNC GLOBAL DEFAULT UND memmove@GLIBC_2.2.5 (2)
93:   FUNC GLOBAL DEFAULT UND memset@GLIBC_2.2.5 (2)
94:   FUNC GLOBAL DEFAULT UND strchr@GLIBC_2.2.5 (2)
95:   FUNC GLOBAL DEFAULT UND strlen@GLIBC_2.2.5 (2)
96:   FUNC GLOBAL DEFAULT UND strtoull@GLIBC_2.2.5 (2)
97:   FUNC GLOBAL DEFAULT UND tolower@GLIBC_2.2.5 (2)
98:   FUNC GLOBAL DEFAULT UND _ZNSt3__112basic_stringIc
99:   FUNC WEAK DEFAULT 12 _ZNSt3__111basic_regexIcN
100:   FUNC WEAK DEFAULT 12 _ZNSt3__112basic_stringIc
101:   FUNC WEAK DEFAULT 12 _ZNSt3__116allocator_trai
102:   FUNC WEAK DEFAULT 12 _ZNSt3__122__compressed_p
103:   FUNC GLOBAL DEFAULT 12 _ZNK7android6FQName9value
104:   FUNC GLOBAL DEFAULT 12 _ZNK7android6FQNameltERKS
105:   FUNC WEAK DEFAULT 12 _ZNSt3__114__split_buffer
106:   FUNC WEAK DEFAULT 12 _ZNSt3__117__compressed_p
107:   OBJECT WEAK DEFAULT 21 _ZTVNSt3__115__has_one_st
108:   FUNC WEAK DEFAULT 12 _ZNKSt3__111basic_regexIc
109:   FUNC WEAK DEFAULT 12 _ZNKSt3__16vectorINS_4pai
110:   FUNC WEAK DEFAULT 12 _ZNSt3__119basic_istrings
111:   FUNC GLOBAL DEFAULT 12 _ZNK7android6FQName7packa
112:   FUNC WEAK DEFAULT 12 _ZNSt3__112__deque_baseIN
113:   FUNC WEAK DEFAULT 12 _ZNSt3__120__shared_ptr_p
114:   FUNC GLOBAL DEFAULT 12 _ZNK7android6FQName21getI
115:   FUNC GLOBAL DEFAULT 12 _ZNK7android6FQName30getP
116:   FUNC WEAK DEFAULT 12 _ZNSt3__110__back_refIcED
117:   FUNC WEAK DEFAULT 12 _ZNSt3__114__split_buffer
118:   FUNC WEAK DEFAULT 12 _ZNSt3__116allocator_trai
119:   FUNC WEAK DEFAULT 12 _ZNSt3__118__match_char_i
120:   FUNC WEAK DEFAULT 12 _ZNSt3__122__compressed_p
121:   FUNC GLOBAL DEFAULT 12 _ZNK7android6FQName25getI
122:   FUNC GLOBAL DEFAULT 12 _ZNK7android10FqInstancen
123:   FUNC WEAK DEFAULT 12 _ZNSt3__111basic_regexIcN
124:   FUNC WEAK DEFAULT 12 _ZNSt3__116__back_ref_ica
125:   FUNC WEAK DEFAULT 12 _ZNSt3__117__compressed_p
126:   FUNC WEAK DEFAULT 12 _ZNSt3__117__compressed_p
127:   FUNC WEAK DEFAULT 12 _ZNSt3__117__compressed_p
128:   OBJECT WEAK DEFAULT 21 _ZTVNSt3__118__match_char
129:   FUNC WEAK DEFAULT 12 _ZNSt3__110shared_ptrINS_
130:   FUNC WEAK DEFAULT 12 _ZNSt3__111__match_anyIcE
131:   FUNC WEAK DEFAULT 12 _ZNSt3__112regex_traitsIc
132:   FUNC WEAK DEFAULT 12 _ZNSt3__117__compressed_p
133:   OBJECT WEAK DEFAULT 21 _ZTVNSt3__117__owns_two_s
134:   OBJECT WEAK DEFAULT 21 _ZTVNSt3__126__end_marked
135:   FUNC GLOBAL DEFAULT 12 _ZNK7android10FqInstance1
136:   FUNC WEAK DEFAULT 12 _ZNSt3__111basic_regexIcN
137:   FUNC WEAK DEFAULT 12 _ZNSt3__14pairINS_12basic
138:   FUNC WEAK DEFAULT 12 _ZNSt3__16vectorINS_9sub_
139:   FUNC WEAK DEFAULT 12 _ZNKSt3__121__empty_non_o
140:   FUNC WEAK DEFAULT 12 _ZNSt3__111basic_regexIcN
141:   FUNC WEAK DEFAULT 12 _ZNSt3__112basic_stringIc
142:   FUNC WEAK DEFAULT 12 _ZNSt3__111basic_regexIcN
143:   FUNC WEAK DEFAULT 12 _ZNSt3__116allocator_trai
144:   OBJECT WEAK DEFAULT 21 _ZTTNSt3__119basic_ostrin
145:   FUNC GLOBAL DEFAULT 12 _ZNK7android6FQName16isVa
146:   FUNC WEAK DEFAULT 12 _ZNSt3__110shared_ptrINS_
147:   FUNC WEAK DEFAULT 12 _ZNSt3__114__split_buffer
148:   FUNC WEAK DEFAULT 12 _ZNSt3__121__empty_non_ow
149:   FUNC WEAK DEFAULT 12 _ZNSt3__1lsINS_11char_tra
150:   OBJECT WEAK DEFAULT 21 _ZTINSt3__117__owns_two_s
151:   FUNC WEAK DEFAULT 12 _ZNKSt3__16__loopIcE6__ex
152:   FUNC WEAK DEFAULT 12 _ZNSt3__111basic_regexIcN
153:   FUNC WEAK DEFAULT 12 _ZNSt3__111char_traitsIcE
154:   FUNC WEAK DEFAULT 12 _ZNSt3__116allocator_trai
155:   FUNC WEAK DEFAULT 12 _ZNSt3__116allocator_trai
156:   FUNC WEAK DEFAULT 12 _ZNSt3__16vectorINS_4pair
157:   FUNC WEAK DEFAULT 12 _ZNSt3__114__split_buffer
158:   FUNC WEAK DEFAULT 12 _ZNSt3__114__split_buffer
159:   FUNC WEAK DEFAULT 12 _ZNSt3__117__owns_two_sta
160:   OBJECT WEAK DEFAULT 9 _ZTSNSt3__118__back_ref_c
161:   OBJECT WEAK DEFAULT 9 _ZTSNSt3__119basic_istrin
162:   OBJECT GLOBAL DEFAULT 26 _ZN7android15gIManagerFqN
163:   FUNC WEAK DEFAULT 12 _ZNSt3__111__end_stateIcE
164:   OBJECT WEAK DEFAULT 21 _ZTVNSt3__111__lookaheadI
165:   FUNC GLOBAL DEFAULT 12 _ZNK7android6FQName7cppNa
166:   OBJECT WEAK DEFAULT 21 _ZTINSt3__111__end_stateI
167:   FUNC WEAK DEFAULT 12 _ZNSt3__112basic_stringIc
168:   FUNC WEAK DEFAULT 12 _ZNSt3__114__split_buffer
169:   FUNC WEAK DEFAULT 12 _ZNSt3__123__match_any_bu
170:   FUNC GLOBAL DEFAULT 12 _ZNK7android6FQName12isId
171:   FUNC WEAK DEFAULT 12 _ZNKSt3__113__empty_state
172:   FUNC WEAK DEFAULT 12 _ZNSt3__122__compressed_p
173:   FUNC WEAK DEFAULT 12 _ZNSt3__19allocatorINS_12
174:   OBJECT WEAK DEFAULT 21 _ZTINSt3__115__has_one_st
175:   FUNC WEAK DEFAULT 12 _ZNSt3__116allocator_trai
176:   FUNC WEAK DEFAULT 12 _ZNSt3__117__compressed_p
177:   FUNC WEAK DEFAULT 12 _ZNSt3__16vectorINS_4pair
178:   FUNC GLOBAL DEFAULT 12 _ZN7android6FQName5clearE
179:   FUNC WEAK DEFAULT 12 _ZNKSt3__120__shared_ptr_
180:   FUNC WEAK DEFAULT 12 _ZNSt3__117__compressed_p
181:   OBJECT WEAK DEFAULT 9 _ZTSNSt3__128__begin_mark
182:   FUNC GLOBAL DEFAULT 12 _ZN7android6FQNameC1ERKNS
183:   FUNC GLOBAL DEFAULT 12 _ZNK7android10FqInstance1
184:   FUNC GLOBAL DEFAULT 12 _ZNK7android6FQName9inPac
185:   FUNC WEAK DEFAULT 12 _ZNSt3__117__compressed_p
186:   FUNC WEAK DEFAULT 12 _ZNSt3__15dequeINS_7__sta
187:   FUNC GLOBAL DEFAULT 12 _ZNK7android10FqInstancel
188:   FUNC GLOBAL DEFAULT 12 _ZNK7android6FQName22getI
189:   FUNC WEAK DEFAULT 12 _ZNSt3__111basic_regexIcN
190:   FUNC WEAK DEFAULT 12 _ZNSt3__111basic_regexIcN
191:   FUNC WEAK DEFAULT 12 _ZNSt3__113match_resultsI
192:   OBJECT WEAK DEFAULT 21 _ZTINSt3__123__match_any_
193:   FUNC WEAK DEFAULT 12 _ZNKSt3__112regex_traitsI
194:   FUNC WEAK DEFAULT 12 _ZNSt3__117_DeallocateCal
195:   FUNC GLOBAL DEFAULT 12 _ZN7android6FQName10setVe
196:   FUNC WEAK DEFAULT 12 _ZNKSt3__112regex_traitsI
197:   FUNC WEAK DEFAULT 12 _ZNSt3__114__split_buffer
198:   FUNC WEAK DEFAULT 12 _ZNSt3__116allocator_trai
199:   FUNC WEAK DEFAULT 12 _ZNSt3__14pairImPKcEC2ILb
200:   FUNC GLOBAL DEFAULT 12 _ZNK7android10FqInstance6
201:   FUNC GLOBAL DEFAULT 12 _ZN7android6FQNameC1ERKS0
202:   FUNC WEAK DEFAULT 12 _ZNSt3__111basic_regexIcN
203:   FUNC WEAK DEFAULT 12 _ZNSt3__111basic_regexIcN
204:   FUNC WEAK DEFAULT 12 _ZNSt3__113__vector_baseI
205:   FUNC WEAK DEFAULT 12 _ZNSt3__116allocator_trai
206:   FUNC WEAK DEFAULT 12 _ZNSt3__128__begin_marked
207:   FUNC GLOBAL DEFAULT 12 _ZNK7android6FQName16isFu
208:   FUNC WEAK DEFAULT 12 _ZNKSt3__110__back_refIcE
209:   FUNC WEAK DEFAULT 12 _ZNSt3__111basic_regexIcN
210:   FUNC WEAK DEFAULT 12 _ZNSt3__111basic_regexIcN
211:   FUNC WEAK DEFAULT 12 _ZNSt3__112basic_stringIc
212:   FUNC WEAK DEFAULT 12 _ZNSt3__115basic_stringbu
213:   FUNC GLOBAL DEFAULT 12 _ZNK7android6FQName22getP
214:   FUNC GLOBAL DEFAULT 12 _ZNK7android6FQName8endsW
215:   FUNC WEAK DEFAULT 12 _ZNSt3__111basic_regexIcN
216:   FUNC WEAK DEFAULT 12 _ZNSt3__117_DeallocateCal
217:   FUNC WEAK DEFAULT 12 _ZNSt3__126__end_marked_s
218:   FUNC WEAK DEFAULT 12 _ZNSt3__111basic_regexIcN
219:   FUNC WEAK DEFAULT 12 _ZNSt3__116allocator_trai
220:   FUNC WEAK DEFAULT 12 _ZNSt3__16vectorINS_4pair
221:   FUNC WEAK DEFAULT 12 _ZNSt3__16vectorINS_9sub_
222:   FUNC WEAK DEFAULT 12 _ZNSt3__16vectorINS_9sub_
223:   OBJECT WEAK DEFAULT 21 _ZTINSt3__114default_dele
224:   FUNC WEAK DEFAULT 12 _ZNSt3__111basic_regexIcN
225:   FUNC WEAK DEFAULT 12 _ZNSt3__116allocator_trai
226:   FUNC GLOBAL DEFAULT 12 _ZNK7android6FQName10getV
227:   FUNC GLOBAL DEFAULT 12 _ZNK7android6FQName27getI
228:   FUNC WEAK DEFAULT 12 _ZNSt3__111basic_regexIcN
229:   FUNC WEAK DEFAULT 12 _ZNSt3__117__repeat_one_l
230:   OBJECT WEAK DEFAULT 21 _ZTTNSt3__119basic_istrin
231:   OBJECT WEAK DEFAULT 21 _ZTVNSt3__111__alternateI
232:   FUNC WEAK DEFAULT 12 _ZNSt3__111__lookaheadIcN
233:   FUNC WEAK DEFAULT 12 _ZNSt3__115basic_stringbu
234:   FUNC WEAK DEFAULT 12 _ZNSt3__122__compressed_p
235:   FUNC WEAK DEFAULT 12 _ZNSt3__19allocatorINS_4p
236:   FUNC WEAK DEFAULT 12 _ZTv0_n24_NSt3__119basic_
237:   FUNC GLOBAL DEFAULT 13 _init
238:   FUNC GLOBAL DEFAULT 12 _ZNK7android6FQName15getT
239:   FUNC WEAK DEFAULT 12 _ZNSt3__111basic_regexIcN
240:   FUNC WEAK DEFAULT 12 _ZNSt3__16vectorINS_4pair
241:   OBJECT WEAK DEFAULT 9 _ZTSNSt3__111__match_anyI
242:   FUNC WEAK DEFAULT 12 _ZNSt3__116allocator_trai
243:   FUNC WEAK DEFAULT 12 _ZNSt3__15dequeINS_7__sta
244:   OBJECT WEAK DEFAULT 21 _ZTINSt3__110__back_refIc
245:   FUNC WEAK DEFAULT 12 _ZNSt3__116allocator_trai
246:   FUNC WEAK DEFAULT 12 _ZNSt3__16vectorINS_9sub_
247:   FUNC WEAK DEFAULT 12 _ZNKSt3__112regex_traitsI
248:   FUNC WEAK DEFAULT 12 _ZNSt3__111basic_regexIcN
249:   FUNC WEAK DEFAULT 12 _ZNSt3__111char_traitsIcE
250:   FUNC WEAK DEFAULT 12 _ZNSt3__113__vector_baseI
251:   FUNC WEAK DEFAULT 12 _ZNSt3__116__owns_one_sta
252:   FUNC WEAK DEFAULT 12 _ZNSt3__119basic_ostrings
253:   FUNC WEAK DEFAULT 12 _ZNSt3__19allocatorINS_12
254:   FUNC GLOBAL DEFAULT 12 _ZN7android6FQNameC2Ev
255:   FUNC WEAK DEFAULT 12 _ZNKSt3__111basic_regexIc
256:   FUNC WEAK DEFAULT 12 _ZNKSt3__112regex_traitsI
257:   FUNC WEAK DEFAULT 12 _ZNSt3__112basic_stringIc
258:   FUNC WEAK DEFAULT 12 _ZNSt3__116allocator_trai
259:   FUNC WEAK DEFAULT 12 _ZNSt3__116allocator_trai
260:   FUNC WEAK DEFAULT 12 _ZNSt3__16vectorINS_4pair
261:   OBJECT WEAK DEFAULT 21 _ZTINSt3__119basic_ostrin
262:   FUNC WEAK DEFAULT 12 _ZN7android4base13ErrnoRe
263:   FUNC WEAK DEFAULT 12 _ZNKSt3__115basic_stringb
264:   OBJECT WEAK DEFAULT 21 _ZTINSt3__117__repeat_one
265:   FUNC GLOBAL DEFAULT 12 _ZNK7android6FQName23getI
266:   FUNC WEAK DEFAULT 12 _ZNSt3__116allocator_trai
267:   FUNC WEAK DEFAULT 12 _ZNSt3__117__compressed_p
268:   FUNC WEAK DEFAULT 12 _ZNSt3__122__compressed_p
269:   FUNC WEAK DEFAULT 12 _ZNSt3__17__stateIcEaSERK
270:   FUNC WEAK DEFAULT 12 _ZNSt3__112__match_charIc
271:   FUNC WEAK DEFAULT 12 _ZNSt3__114__split_buffer
272:   FUNC WEAK DEFAULT 12 _ZNSt3__117__compressed_p
273:   FUNC WEAK DEFAULT 12 _ZNSt3__19allocatorINS_4p
274:   OBJECT WEAK DEFAULT 21 _ZTINSt3__126__end_marked
275:   FUNC GLOBAL DEFAULT 12 _ZNK7android6FQName15isIn
276:   FUNC WEAK DEFAULT 12 _ZNSt3__16vectorIcNS_9all
277:   FUNC WEAK DEFAULT 12 _ZNSt3__114__split_buffer
278:   FUNC WEAK DEFAULT 12 _ZNSt3__115basic_stringbu
279:   FUNC WEAK DEFAULT 12 _ZNSt3__111basic_regexIcN
280:   FUNC WEAK DEFAULT 12 _ZNSt3__116allocator_trai
281:   FUNC WEAK DEFAULT 12 _ZNSt3__122__compressed_p
282:   FUNC WEAK DEFAULT 12 _ZNKSt3__110__r_anchorIcE
283:   FUNC WEAK DEFAULT 12 _ZNSt3__112basic_stringIc
284:   FUNC WEAK DEFAULT 12 _ZNSt3__113__vector_baseI
285:   FUNC WEAK DEFAULT 12 _ZNSt3__16vectorINS_7__st
286:   FUNC GLOBAL DEFAULT 12 _ZN7android6FQName12parse
287:   FUNC WEAK DEFAULT 12 _ZNSt3__111char_traitsIcE
288:   FUNC WEAK DEFAULT 12 _ZNSt3__115__has_one_stat
289:   FUNC GLOBAL DEFAULT 12 _ZN7android6FQNameC2ERKNS
290:   FUNC WEAK DEFAULT 12 _ZNSt3__113__vector_baseI
291:   OBJECT WEAK DEFAULT 9 _ZTSNSt3__115__has_one_st
292:   OBJECT WEAK DEFAULT 9 _ZTSNSt3__121__empty_non_
293:   FUNC GLOBAL DEFAULT 12 _ZNK7android6FQName20getP
294:   FUNC WEAK DEFAULT 12 _ZNSt3__14pairINS_11__wra
295:   FUNC WEAK DEFAULT 12 _ZNSt3__14pairIccEC2IccLb
296:   OBJECT WEAK DEFAULT 21 _ZTINSt3__118__back_ref_c
297:   FUNC WEAK DEFAULT 12 _ZNSt3__114__split_buffer
298:   FUNC WEAK DEFAULT 12 _ZNSt3__119basic_istrings
299:   FUNC WEAK DEFAULT 12 _ZNSt3__16vectorINS_9sub_
300:   OBJECT WEAK DEFAULT 9 _ZTSNSt3__116__back_ref_i
301:   OBJECT WEAK DEFAULT 21 _ZTVNSt3__115__word_bound
302:   FUNC WEAK DEFAULT 12 _ZNSt3__118__back_ref_col
303:   FUNC WEAK DEFAULT 12 _ZNSt3__122__compressed_p
304:   FUNC WEAK DEFAULT 12 _ZN7android4base9ParseUin
305:   FUNC WEAK DEFAULT 12 _ZNSt3__110__find_endIPDo
306:   FUNC WEAK DEFAULT 12 _ZNSt3__111basic_regexIcN
307:   FUNC WEAK DEFAULT 12 _ZNSt3__111basic_regexIcN
308:   FUNC WEAK DEFAULT 12 _ZNSt3__117__compressed_p
309:   FUNC WEAK DEFAULT 12 _ZNSt3__120__match_char_c
310:   OBJECT WEAK DEFAULT 21 _ZTINSt3__16__loopIcEE
311:   FUNC WEAK DEFAULT 12 _ZNSt3__112regex_traitsIc
312:   FUNC WEAK DEFAULT 12 _ZNSt3__113__vector_baseI
313:   FUNC WEAK DEFAULT 12 _ZNSt3__117_DeallocateCal
314:   FUNC WEAK DEFAULT 12 _ZNSt3__117__compressed_p
315:   FUNC GLOBAL DEFAULT 12 _ZN7android10FqInstance5s
316:   FUNC WEAK DEFAULT 12 _ZNKSt3__16vectorINS_4pai
317:   FUNC WEAK DEFAULT 12 _ZNSt3__111basic_regexIcN
318:   OBJECT WEAK DEFAULT 21 _ZTINSt3__111__alternateI
319:   OBJECT WEAK DEFAULT 9 _ZTSNSt3__120__shared_ptr
320:   FUNC GLOBAL DEFAULT 14 _fini
321:   FUNC WEAK DEFAULT 12 _ZNSt3__116allocator_trai
322:   FUNC WEAK DEFAULT 12 _ZNSt3__120__bracket_expr
323:   FUNC WEAK DEFAULT 12 _ZNSt3__122__compressed_p
324:   FUNC WEAK DEFAULT 12 _ZNSt3__116allocator_trai
325:   FUNC WEAK DEFAULT 12 _ZNSt3__116allocator_trai
326:   FUNC WEAK DEFAULT 12 _ZNSt3__122__compressed_p
327:   FUNC WEAK DEFAULT 12 _ZNSt3__16vectorINS_4pair
328:   OBJECT WEAK DEFAULT 21 _ZTVNSt3__116__back_ref_i
329:   FUNC GLOBAL DEFAULT 12 _ZNK7android6FQName29getI
330:   FUNC WEAK DEFAULT 12 _ZNSt3__112regex_traitsIc
331:   FUNC WEAK DEFAULT 12 _ZNSt3__16vectorINS_9sub_
332:   FUNC WEAK DEFAULT 12 _ZNSt3__19allocatorIPNS_7
333:   FUNC WEAK DEFAULT 12 _ZNKSt3__112regex_traitsI
334:   FUNC WEAK DEFAULT 12 _ZNSt3__116allocator_trai
335:   FUNC WEAK DEFAULT 12 _ZNSt3__116allocator_trai
336:   FUNC WEAK DEFAULT 12 _ZNSt3__124__put_characte
337:   FUNC WEAK DEFAULT 12 _ZNSt3__15dequeINS_7__sta
338:   OBJECT WEAK DEFAULT 21 _ZTINSt3__120__match_char
339:   FUNC WEAK DEFAULT 12 _ZNSt3__111basic_regexIcN
340:   FUNC WEAK DEFAULT 12 _ZNSt3__116allocator_trai
341:   FUNC WEAK DEFAULT 12 _ZNSt3__116allocator_trai
342:   FUNC WEAK DEFAULT 12 _ZNSt3__17__stateIcEC2ERK
343:   FUNC GLOBAL DEFAULT 12 _ZNK7android6FQName8javaN
344:   FUNC WEAK DEFAULT 12 _ZNKSt3__117__repeat_one_
345:   FUNC WEAK DEFAULT 12 _ZNSt3__114__split_buffer
346:   FUNC WEAK DEFAULT 12 _ZNSt3__19sub_matchIPKcEa
347:   FUNC GLOBAL DEFAULT 12 _ZN7android6FQName13apply
348:   FUNC GLOBAL DEFAULT 12 _ZNK7android6FQName22getP
349:   FUNC WEAK DEFAULT 12 _ZNSt3__110__back_refIcED
350:   FUNC WEAK DEFAULT 12 _ZNSt3__114__split_buffer
351:   FUNC WEAK DEFAULT 12 _ZNSt3__114__split_buffer
352:   FUNC WEAK DEFAULT 12 _ZNSt3__118__match_char_i
353:   FUNC WEAK DEFAULT 12 _ZNSt3__16vectorINS_4pair
354:   OBJECT WEAK DEFAULT 21 _ZTINSt3__110__r_anchorIc
355:   FUNC WEAK DEFAULT 12 _ZNKSt3__110__l_anchorIcE
356:   FUNC WEAK DEFAULT 12 _ZNSt3__111__wrap_iterIPK
357:   FUNC WEAK DEFAULT 12 _ZNSt3__111basic_regexIcN
358:   FUNC WEAK DEFAULT 12 _ZNSt3__16vectorINS_12bas
359:   FUNC WEAK DEFAULT 12 _ZNSt3__110unique_ptrINS_
360:   FUNC WEAK DEFAULT 12 _ZNSt3__111basic_regexIcN
361:   FUNC WEAK DEFAULT 12 _ZNSt3__115basic_stringbu
362:   FUNC WEAK DEFAULT 12 _ZNSt3__116__back_ref_ica
363:   OBJECT WEAK DEFAULT 21 _ZTINSt3__112__match_char
364:   FUNC WEAK DEFAULT 12 _ZNSt3__117__compressed_p
365:   OBJECT WEAK DEFAULT 9 _ZTSNSt3__120__bracket_ex
366:   FUNC WEAK DEFAULT 12 _ZNSt3__111__match_anyIcE
367:   FUNC WEAK DEFAULT 12 _ZNSt3__16vectorINS_9sub_
368:   OBJECT WEAK DEFAULT 9 _ZTSNSt3__111__lookaheadI
369:   OBJECT WEAK DEFAULT 9 _ZTSNSt3__126__end_marked
370:   FUNC WEAK DEFAULT 12 _ZNKSt3__16vectorINS_12ba
371:   FUNC WEAK DEFAULT 12 _ZNSt3__116allocator_trai
372:   FUNC WEAK DEFAULT 12 _ZNSt3__16vectorINS_4pair
373:   FUNC GLOBAL DEFAULT 12 _ZN7android10FqInstance5s
374:   FUNC GLOBAL DEFAULT 12 _ZN7android6FQName5setToE
375:   FUNC WEAK DEFAULT 12 _ZNKSt3__111__lookaheadIc
376:   FUNC WEAK DEFAULT 12 _ZNSt3__120__shared_ptr_p
377:   OBJECT WEAK DEFAULT 21 _ZTINSt3__110__l_anchorIc
378:   FUNC GLOBAL DEFAULT 12 _ZNK7android10FqInstance1
379:   FUNC WEAK DEFAULT 12 _ZNSt3__111basic_regexIcN
380:   FUNC WEAK DEFAULT 12 _ZNSt3__111basic_regexIcN
381:   FUNC WEAK DEFAULT 12 _ZNSt3__113match_resultsI
382:   FUNC WEAK DEFAULT 12 _ZNSt3__122__compressed_p
383:   FUNC WEAK DEFAULT 12 _ZNSt3__19allocatorINS_12
384:   FUNC GLOBAL DEFAULT 12 _ZNK7android10FqInstance1
385:   FUNC WEAK DEFAULT 12 _ZNSt3__110__r_anchorIcED
386:   FUNC WEAK DEFAULT 12 _ZNSt3__116allocator_trai
387:   FUNC GLOBAL DEFAULT 12 _ZN7android6FQName12parse
388:   FUNC WEAK DEFAULT 12 _ZNSt3__111__alternateIcE
389:   FUNC WEAK DEFAULT 12 _ZNSt3__117__compressed_p
390:   FUNC WEAK DEFAULT 12 _ZNSt3__121__empty_non_ow
391:   FUNC WEAK DEFAULT 12 _ZNSt3__122__compressed_p
392:   OBJECT WEAK DEFAULT 9 _ZTSNSt3__16__loopIcEE
393:   FUNC WEAK DEFAULT 12 _ZNSt3__116allocator_trai
394:   FUNC WEAK DEFAULT 12 _ZNSt3__122__compressed_p
395:   FUNC WEAK DEFAULT 12 _ZNSt3__114__split_buffer
396:   FUNC WEAK DEFAULT 12 _ZNSt3__117__owns_two_sta
397:   FUNC WEAK DEFAULT 12 _ZNSt3__14pairImmEC2ILb1E
398:   FUNC GLOBAL DEFAULT 12 _ZNK7android10FqInstance9
399:   FUNC GLOBAL DEFAULT 12 _ZNK7android6FQName20getP
400:   FUNC WEAK DEFAULT 12 _ZNSt3__111char_traitsIcE
401:   FUNC WEAK DEFAULT 12 _ZNSt3__112basic_stringIc
402:   FUNC WEAK DEFAULT 12 _ZNSt3__113__vector_baseI
403:   FUNC WEAK DEFAULT 12 _ZNSt3__114__split_buffer
404:   FUNC WEAK DEFAULT 12 _ZNSt3__116allocator_trai
405:   OBJECT WEAK DEFAULT 9 _ZTSNSt3__116__owns_one_s
406:   FUNC WEAK DEFAULT 12 _ZNKSt3__112basic_stringI
407:   FUNC WEAK DEFAULT 12 _ZNSt3__114__split_buffer
408:   FUNC WEAK DEFAULT 12 _ZNSt3__116allocator_trai
409:   FUNC WEAK DEFAULT 12 _ZNSt3__116allocator_trai
410:   FUNC WEAK DEFAULT 12 _ZNSt3__120__shared_ptr_p
411:   OBJECT WEAK DEFAULT 21 _ZTINSt3__115__word_bound
412:   FUNC WEAK DEFAULT 12 _ZNSt3__111char_traitsIcE
413:   FUNC WEAK DEFAULT 12 _ZNSt3__122__compressed_p
414:   FUNC WEAK DEFAULT 12 _ZNSt3__19allocatorINS_20
415:   OBJECT GLOBAL DEFAULT 26 _ZN7android12gIBaseFqName
416:   FUNC GLOBAL DEFAULT 12 _ZNK7android6FQName11java
417:   FUNC WEAK DEFAULT 12 _ZNKSt3__118__match_char_
418:   FUNC WEAK DEFAULT 12 _ZNSt3__117__compressed_p
419:   FUNC WEAK DEFAULT 12 _ZNSt3__19allocatorIPNS_7
420:   OBJECT WEAK DEFAULT 21 _ZTVNSt3__110__back_refIc
421:   FUNC WEAK DEFAULT 12 _ZNKSt3__115__word_bounda
422:   FUNC WEAK DEFAULT 12 _ZNKSt3__118__back_ref_co
423:   FUNC WEAK DEFAULT 12 _ZNSt3__114__split_buffer
424:   FUNC WEAK DEFAULT 12 _ZNSt3__1lsIcNS_11char_tr
425:   OBJECT WEAK DEFAULT 21 _ZTINSt3__16__nodeIcEE
426:   OBJECT WEAK DEFAULT 9 _ZTSNSt3__115__word_bound
427:   FUNC WEAK DEFAULT 12 _ZNSt3__111basic_regexIcN
428:   FUNC WEAK DEFAULT 12 _ZNSt3__16__loopIcED0Ev
429:   OBJECT WEAK DEFAULT 21 _ZTVNSt3__120__match_char
430:   FUNC GLOBAL DEFAULT 12 _ZNK7android6FQName7downR
431:   FUNC WEAK DEFAULT 12 _ZNSt3__113match_resultsI
432:   FUNC WEAK DEFAULT 12 _ZNSt3__116allocator_trai
433:   FUNC WEAK DEFAULT 12 _ZNSt3__117__compressed_p
434:   FUNC WEAK DEFAULT 12 _ZNKSt3__111__alternateIc
435:   OBJECT WEAK DEFAULT 9 _ZTSNSt3__120__match_char
436:   FUNC WEAK DEFAULT 12 _ZNSt3__110__l_anchorIcED
437:   FUNC WEAK DEFAULT 12 _ZNSt3__117__compressed_p
438:   FUNC WEAK DEFAULT 12 _ZNSt3__16vectorINS_12bas
439:   OBJECT WEAK DEFAULT 21 _ZTINSt3__128__begin_mark
440:   FUNC WEAK DEFAULT 12 _ZNSt3__116allocator_trai
441:   FUNC GLOBAL DEFAULT 12 _ZNK7android10FqInstancee
442:   FUNC GLOBAL DEFAULT 12 _ZNK7android6FQName8typeN
443:   FUNC WEAK DEFAULT 12 _ZNSt3__116allocator_trai
444:   FUNC WEAK DEFAULT 12 _ZNSt3__14pairIccEC2IRcS3
445:   FUNC WEAK DEFAULT 12 _ZNKSt3__112regex_traitsI
446:   FUNC WEAK DEFAULT 12 _ZNSt3__114__split_buffer
447:   FUNC WEAK DEFAULT 12 _ZNSt3__116allocator_trai
448:   FUNC WEAK DEFAULT 12 _ZTv0_n24_NSt3__119basic_
449:   FUNC WEAK DEFAULT 12 _ZNSt3__122__compressed_p
450:   FUNC GLOBAL DEFAULT 12 _ZN7android6FQNameC2ERKS0
451:   FUNC WEAK DEFAULT 12 _ZNSt3__116allocator_trai
452:   FUNC WEAK DEFAULT 12 _ZNSt3__122__compressed_p
453:   FUNC WEAK DEFAULT 12 _ZNSt3__16vectorINS_4pair
454:   OBJECT WEAK DEFAULT 9 _ZTSNSt3__118__match_char
455:   OBJECT WEAK DEFAULT 21 _ZTVNSt3__111__match_anyI
456:   FUNC WEAK DEFAULT 12 _ZNSt3__111basic_regexIcN
457:   FUNC WEAK DEFAULT 12 _ZNSt3__112basic_stringIc
458:   FUNC WEAK DEFAULT 12 _ZNSt3__119basic_ostrings
459:   FUNC WEAK DEFAULT 12 _ZNSt3__16vectorINS_12bas
460:   FUNC GLOBAL DEFAULT 12 _ZN7android6FQName12clear
461:   FUNC GLOBAL DEFAULT 12 _ZN7android6FQNameC1Ev
462:   FUNC WEAK DEFAULT 12 _ZNSt3__16vectorINS_7__st
463:   FUNC WEAK DEFAULT 12 _ZNSt3__19allocatorINS_7_
464:   OBJECT WEAK DEFAULT 9 _ZTSNSt3__117__owns_two_s
465:   FUNC WEAK DEFAULT 12 _ZNKSt3__16vectorINS_9sub
466:   FUNC WEAK DEFAULT 12 _ZNSt3__117__repeat_one_l
467:   OBJECT WEAK DEFAULT 9 _ZTSNSt3__119basic_ostrin
468:   FUNC WEAK DEFAULT 12 _ZNSt3__111__lookaheadIcN
469:   FUNC WEAK DEFAULT 12 _ZNSt3__112regex_traitsIc
470:   FUNC WEAK DEFAULT 12 _ZNSt3__113__empty_stateI
471:   OBJECT WEAK DEFAULT 9 _ZTSNSt3__115basic_string
472:   FUNC WEAK DEFAULT 12 _ZNSt3__111basic_regexIcN
473:   FUNC WEAK DEFAULT 12 _ZNSt3__117__compressed_p
474:   OBJECT WEAK DEFAULT 21 _ZTVNSt3__115basic_string
475:   FUNC WEAK DEFAULT 12 _ZNKSt3__112regex_traitsI
476:   FUNC WEAK DEFAULT 12 _ZNSt3__122__compressed_p
477:   OBJECT WEAK DEFAULT 21 _ZTVNSt3__118__back_ref_c
478:   FUNC GLOBAL DEFAULT 12 _ZNK7android6FQName12cppN
479:   FUNC GLOBAL DEFAULT 12 _ZNK7android6FQName18getT
480:   FUNC WEAK DEFAULT 12 _ZNSt3__112__deque_baseIN
481:   FUNC WEAK DEFAULT 12 _ZNSt3__14pairINS_12basic
482:   FUNC WEAK DEFAULT 12 _ZNSt3__16vectorINS_12bas
483:   FUNC GLOBAL DEFAULT 12 _ZNK7android10FqInstance1
484:   FUNC WEAK DEFAULT 12 _ZNKSt3__112regex_traitsI
485:   FUNC WEAK DEFAULT 12 _ZNSt3__116__owns_one_sta
486:   OBJECT WEAK DEFAULT 9 _ZTSNSt3__16__nodeIcEE
487:   FUNC WEAK DEFAULT 12 _ZNSt3__111char_traitsIcE
488:   FUNC WEAK DEFAULT 12 _ZNSt3__117__compressed_p
489:   FUNC WEAK DEFAULT 12 _ZNSt3__14pairIccEC2ILb1E
490:   FUNC WEAK DEFAULT 12 _ZNSt3__16vectorINS_12bas
491:   FUNC WEAK DEFAULT 12 _ZNKSt3__126__end_marked_
492:   FUNC WEAK DEFAULT 12 _ZNSt3__111basic_regexIcN
493:   FUNC WEAK DEFAULT 12 _ZNSt3__115__word_boundar
494:   FUNC WEAK DEFAULT 12 _ZNSt3__122__compressed_p
495:   FUNC WEAK DEFAULT 12 _ZNSt3__14pairIPKcS2_EC2I
496:   OBJECT WEAK DEFAULT 21 _ZTVNSt3__117__repeat_one
497:   FUNC WEAK DEFAULT 12 _ZNKSt3__111__end_stateIc
498:   FUNC WEAK DEFAULT 12 _ZNSt3__110unique_ptrINS_
499:   FUNC WEAK DEFAULT 12 _ZNSt3__122__compressed_p
500:   FUNC WEAK DEFAULT 12 _ZNSt3__122__compressed_p
501:   OBJECT WEAK DEFAULT 21 _ZTVNSt3__123__match_any_
502:   FUNC GLOBAL DEFAULT 12 _ZNK7android6FQName9token
503:   FUNC WEAK DEFAULT 12 _ZNSt3__111basic_regexIcN
504:   FUNC WEAK DEFAULT 12 _ZNSt3__113__vector_baseI
505:   FUNC WEAK DEFAULT 12 _ZNSt3__114__split_buffer
506:   FUNC WEAK DEFAULT 12 _ZNSt3__114__split_buffer
507:   FUNC WEAK DEFAULT 12 _ZNSt3__1plIcNS_11char_tr
508:   FUNC WEAK DEFAULT 12 _ZNSt3__111basic_regexIcN
509:   FUNC WEAK DEFAULT 12 _ZNSt3__112basic_stringIc
510:   OBJECT WEAK DEFAULT 21 _ZTVNSt3__110__r_anchorIc
511:   OBJECT WEAK DEFAULT 21 _ZTVNSt3__16__loopIcEE
512:   FUNC WEAK DEFAULT 12 _ZNSt3__111basic_regexIcN
513:   FUNC WEAK DEFAULT 12 _ZNSt3__17__stateIcEC2EOS
514:   FUNC WEAK DEFAULT 12 _ZNKSt3__112regex_traitsI
515:   FUNC WEAK DEFAULT 12 _ZNSt3__117__compressed_p
516:   FUNC WEAK DEFAULT 12 _ZNSt3__14pairIPKcS2_EC2I
517:   FUNC WEAK DEFAULT 12 _ZNSt3__16vectorINS_12bas
518:   FUNC WEAK DEFAULT 12 _ZNSt3__19allocatorINS_4p
519:   OBJECT WEAK DEFAULT 21 _ZTINSt3__120__bracket_ex
520:   OBJECT WEAK DEFAULT 9 _ZTSNSt3__111__end_stateI
521:   FUNC WEAK DEFAULT 12 _ZTv0_n24_NSt3__119basic_
522:   FUNC GLOBAL DEFAULT 12 _ZNK7android6FQName5names
523:   FUNC GLOBAL DEFAULT 12 _ZNK7android6FQName9atVer
524:   FUNC WEAK DEFAULT 12 _ZNSt3__111basic_regexIcN
525:   FUNC WEAK DEFAULT 12 _ZNSt3__115basic_stringbu
526:   FUNC WEAK DEFAULT 12 _ZNSt3__116allocator_trai
527:   FUNC WEAK DEFAULT 12 _ZNSt3__15dequeINS_7__sta
528:   OBJECT WEAK DEFAULT 21 _ZTCNSt3__119basic_istrin
529:   OBJECT WEAK DEFAULT 21 _ZTINSt3__121__empty_non_
530:   FUNC WEAK DEFAULT 12 _ZNSt3__114__split_buffer
531:   FUNC GLOBAL DEFAULT 12 _ZN7android10FqInstance5s
532:   FUNC WEAK DEFAULT 12 _ZNKSt3__16vectorIcNS_9al
533:   FUNC WEAK DEFAULT 12 _ZNSt3__122__compressed_p
534:   OBJECT WEAK DEFAULT 21 _ZTVNSt3__112__match_char
535:   FUNC GLOBAL DEFAULT 12 _ZNK7android10FqInstance1
536:   FUNC WEAK DEFAULT 12 _ZNSt3__114__split_buffer
537:   FUNC WEAK DEFAULT 12 _ZNSt3__116allocator_trai
538:   FUNC WEAK DEFAULT 12 _ZNSt3__119basic_istrings
539:   OBJECT WEAK DEFAULT 21 _ZTINSt3__111__match_anyI
540:   OBJECT WEAK DEFAULT 21 _ZTVNSt3__110__l_anchorIc
541:   FUNC WEAK DEFAULT 12 _ZNKSt3__112__match_charI
542:   FUNC GLOBAL DEFAULT 12 _ZNK7android6FQName16getI
543:   FUNC WEAK DEFAULT 12 _ZNSt3__110unique_ptrINS_
544:   FUNC WEAK DEFAULT 12 _ZNSt3__111basic_regexIcN
545:   FUNC WEAK DEFAULT 12 _ZNSt3__120__match_char_c
546:   FUNC WEAK DEFAULT 12 _ZNSt3__111basic_regexIcN
547:   FUNC WEAK DEFAULT 12 _ZNSt3__111basic_regexIcN
548:   FUNC WEAK DEFAULT 12 _ZNSt3__19allocatorIcE9co
549:   OBJECT WEAK DEFAULT 9 _ZTSNSt3__110__back_refIc
550:   OBJECT WEAK DEFAULT 21 _ZTVNSt3__119basic_ostrin
551:   FUNC WEAK DEFAULT 12 _ZNKSt3__111__alternateIc
552:   FUNC WEAK DEFAULT 12 _ZNSt3__111basic_regexIcN
553:   FUNC WEAK DEFAULT 12 _ZNSt3__122__compressed_p
554:   FUNC WEAK DEFAULT 12 _ZNSt3__16vectorINS_4pair
555:   FUNC WEAK DEFAULT 12 _ZNSt3__120__bracket_expr
556:   FUNC WEAK DEFAULT 12 _ZNSt3__16vectorIcNS_9all
557:   FUNC WEAK DEFAULT 12 _ZNSt3__19allocatorIcE9co
558:   OBJECT WEAK DEFAULT 21 _ZTINSt3__116__back_ref_i
559:   FUNC WEAK DEFAULT 12 _ZNSt3__111regex_matchINS
560:   FUNC WEAK DEFAULT 12 _ZNSt3__114__split_buffer
561:   FUNC WEAK DEFAULT 12 _ZNSt3__116allocator_trai
562:   FUNC WEAK DEFAULT 12 _ZNSt3__122__compressed_p
563:   FUNC WEAK DEFAULT 12 _ZNSt3__16vectorINS_9sub_
564:   FUNC WEAK DEFAULT 12 _ZNSt3__17getlineIcNS_11c
565:   FUNC WEAK DEFAULT 12 _ZN7android6FQNameD2Ev
566:   FUNC GLOBAL DEFAULT 12 _ZNK7android6FQName16sani
567:   FUNC WEAK DEFAULT 12 _ZNSt3__111basic_regexIcN
568:   FUNC WEAK DEFAULT 12 _ZNSt3__114__split_buffer
569:   FUNC WEAK DEFAULT 12 _ZNSt3__117__compressed_p
570:   FUNC WEAK DEFAULT 12 _ZN7android4base13ErrnoRe
571:   FUNC WEAK DEFAULT 12 _ZNSt3__116allocator_trai
572:   FUNC WEAK DEFAULT 12 _ZNSt3__114__split_buffer
573:   OBJECT WEAK DEFAULT 21 _ZTVNSt3__128__begin_mark
574:   FUNC WEAK DEFAULT 12 _ZN7android4base4JoinINSt
575:   FUNC WEAK DEFAULT 12 _ZNSt3__111__end_stateIcE
576:   FUNC WEAK DEFAULT 12 _ZNSt3__16vectorINS_4pair
577:   OBJECT WEAK DEFAULT 9 _ZTSNSt3__117__repeat_one
578:   FUNC WEAK DEFAULT 12 _ZNSt3__116allocator_trai
579:   FUNC WEAK DEFAULT 12 _ZNSt3__117_DeallocateCal
580:   OBJECT WEAK DEFAULT 21 _ZTCNSt3__119basic_ostrin
581:   FUNC GLOBAL DEFAULT 12 _ZN7android6FQName12parse
582:   FUNC WEAK DEFAULT 12 _ZNKSt3__111basic_regexIc
583:   FUNC WEAK DEFAULT 12 _ZNSt3__112__deque_baseIN
584:   FUNC WEAK DEFAULT 12 _ZNSt3__116allocator_trai
585:   FUNC WEAK DEFAULT 12 _ZNSt3__116allocator_trai
586:   FUNC WEAK DEFAULT 12 _ZNSt3__123__match_any_bu
587:   FUNC WEAK DEFAULT 12 _ZNSt3__19allocatorINS_9s
588:   FUNC WEAK DEFAULT 12 _ZNSt3__19allocatorINS_9s
589:   OBJECT WEAK DEFAULT 21 _ZTINSt3__116__owns_one_s
590:   OBJECT WEAK DEFAULT 21 _ZTVNSt3__121__empty_non_
591:   FUNC WEAK DEFAULT 12 _ZNSt3__116allocator_trai
592:   FUNC GLOBAL DEFAULT 12 _ZNK7android10FqInstance1
593:   FUNC WEAK DEFAULT 12 _ZNSt3__117__compressed_p
594:   FUNC WEAK DEFAULT 12 _ZNSt3__122__compressed_p
595:   OBJECT WEAK DEFAULT 21 _ZTINSt3__118__match_char
596:   FUNC WEAK DEFAULT 12 _ZNSt3__110shared_ptrINS_
597:   FUNC WEAK DEFAULT 12 _ZNSt3__117__compressed_p
598:   FUNC WEAK DEFAULT 12 _ZNSt3__117__compressed_p
599:   OBJECT WEAK DEFAULT 21 _ZTINSt3__119basic_istrin
600:   FUNC GLOBAL DEFAULT 12 _ZNK7android10FqInstance1
601:   FUNC WEAK DEFAULT 12 _ZNSt3__111char_traitsIcE
602:   FUNC WEAK DEFAULT 12 _ZNSt3__116allocator_trai
603:   OBJECT WEAK DEFAULT 9 _ZTSNSt3__113__empty_stat
604:   FUNC GLOBAL DEFAULT 12 _ZN7android10FqInstance5s
605:   FUNC WEAK DEFAULT 12 _ZNKSt3__16vectorINS_9sub
606:   FUNC WEAK DEFAULT 12 _ZNSt3__111char_traitsIcE
607:   FUNC WEAK DEFAULT 12 _ZNSt3__116allocator_trai
608:   OBJECT WEAK DEFAULT 21 _ZTVNSt3__120__bracket_ex
609:   FUNC WEAK DEFAULT 12 _ZNK7android4base13ErrnoR
610:   FUNC GLOBAL DEFAULT 12 _ZNK7android6FQName20getI
611:   FUNC WEAK DEFAULT 12 _ZNSt3__117__compressed_p
612:   FUNC WEAK DEFAULT 12 _ZNSt3__110__r_anchorIcED
613:   FUNC WEAK DEFAULT 12 _ZNSt3__115basic_stringbu
614:   OBJECT WEAK DEFAULT 21 _ZTVNSt3__16__nodeIcEE
615:   FUNC WEAK DEFAULT 12 _ZNSt3__111__alternateIcE
616:   FUNC WEAK DEFAULT 12 _ZNSt3__113match_resultsI
617:   FUNC WEAK DEFAULT 12 _ZNSt3__14pairINS_12basic
618:   FUNC WEAK DEFAULT 12 _ZNSt3__16vectorINS_9sub_
619:   FUNC GLOBAL DEFAULT 12 _ZNK7android6FQName6strin
620:   FUNC WEAK DEFAULT 12 _ZNSt3__111basic_regexIcN
621:   FUNC WEAK DEFAULT 12 _ZNSt3__111basic_regexIcN
622:   FUNC WEAK DEFAULT 12 _ZNSt3__116allocator_trai
623:   FUNC WEAK DEFAULT 12 _ZNSt3__122__compressed_p
624:   FUNC WEAK DEFAULT 12 _ZNSt3__128__begin_marked
625:   OBJECT WEAK DEFAULT 21 _ZTINSt3__111__lookaheadI
626:   FUNC GLOBAL DEFAULT 12 _ZNK7android6FQName11with
627:   FUNC WEAK DEFAULT 12 _ZNSt3__112basic_stringIc
628:   FUNC WEAK DEFAULT 12 _ZNSt3__113__vector_baseI
629:   FUNC WEAK DEFAULT 12 _ZNSt3__114__split_buffer
630:   FUNC WEAK DEFAULT 12 _ZNSt3__116allocator_trai
631:   FUNC WEAK DEFAULT 12 _ZNSt3__116allocator_trai
632:   FUNC WEAK DEFAULT 12 _ZNKSt3__116__back_ref_ic
633:   FUNC WEAK DEFAULT 12 _ZNKSt3__120__match_char_
634:   FUNC WEAK DEFAULT 12 _ZNSt3__110unique_ptrIPNS
635:   FUNC WEAK DEFAULT 12 _ZNSt3__111basic_regexIcN
636:   FUNC WEAK DEFAULT 12 _ZNSt3__113match_resultsI
637:   FUNC WEAK DEFAULT 12 _ZNSt3__15dequeINS_7__sta
638:   FUNC WEAK DEFAULT 12 _ZNSt3__16vectorINS_12bas
639:   OBJECT WEAK DEFAULT 21 _ZTVNSt3__113__empty_stat
640:   FUNC GLOBAL DEFAULT 12 _ZNK7android10FqInstance7
641:   FUNC WEAK DEFAULT 12 _ZNSt3__112__deque_baseIN
642:   FUNC WEAK DEFAULT 12 _ZNSt3__120__shared_ptr_p
643:   FUNC WEAK DEFAULT 12 _ZNSt3__126__end_marked_s
644:   FUNC WEAK DEFAULT 12 _ZNSt3__16vectorINS_4pair
645:   OBJECT WEAK DEFAULT 21 _ZTVNSt3__119basic_istrin
646:   FUNC WEAK DEFAULT 12 _ZN7android4base18MakeEag
647:   FUNC WEAK DEFAULT 12 _ZNSt3__116allocator_trai
648:   FUNC WEAK DEFAULT 12 _ZNSt3__122__compressed_p
649:   FUNC WEAK DEFAULT 12 _ZNSt3__16vectorINS_9sub_
650:   FUNC WEAK DEFAULT 12 _ZNKSt3__112regex_traitsI
651:   FUNC WEAK DEFAULT 12 _ZNKSt3__16__loopIcE12__e
652:   FUNC WEAK DEFAULT 12 _ZNSt3__16vectorINS_9sub_
653:   FUNC GLOBAL DEFAULT 12 _ZN7android6FQName5setToE
654:   FUNC WEAK DEFAULT 12 _ZNSt3__112basic_stringIc
655:   FUNC WEAK DEFAULT 12 _ZNSt3__114__split_buffer
656:   FUNC WEAK DEFAULT 12 _ZNSt3__16vectorIcNS_9all
657:   FUNC WEAK DEFAULT 12 _ZNSt3__18__searchIRNS_10
658:   FUNC WEAK DEFAULT 12 _ZN7android4base9ParseUin
659:   FUNC WEAK DEFAULT 12 _ZNKSt3__112regex_traitsI
660:   FUNC WEAK DEFAULT 12 _ZNSt3__111basic_regexIcN
661:   FUNC WEAK DEFAULT 12 _ZNSt3__16__loopIcED2Ev
662:   OBJECT WEAK DEFAULT 9 _ZTSNSt3__110__r_anchorIc
663:   FUNC GLOBAL DEFAULT 12 _ZNK7android6FQName7versi
664:   FUNC WEAK DEFAULT 12 _ZNSt3__111basic_regexIcN
665:   FUNC WEAK DEFAULT 12 _ZNSt3__112regex_traitsIc
666:   FUNC WEAK DEFAULT 12 _ZNSt3__117__compressed_p
667:   FUNC WEAK DEFAULT 12 _ZNSt3__117__compressed_p
668:   OBJECT WEAK DEFAULT 21 _ZTINSt3__120__shared_ptr
669:   FUNC WEAK DEFAULT 12 _ZNSt3__111basic_regexIcN
670:   FUNC WEAK DEFAULT 12 _ZNSt3__116allocator_trai
671:   FUNC WEAK DEFAULT 12 _ZNSt3__16vectorINS_4pair
672:   FUNC WEAK DEFAULT 12 _ZNSt3__16vectorINS_9sub_
673:   FUNC GLOBAL DEFAULT 12 _ZNK7android6FQNameneERKS
674:   FUNC WEAK DEFAULT 12 _ZNSt3__110__l_anchorIcED
675:   FUNC WEAK DEFAULT 12 _ZNSt3__116allocator_trai
676:   FUNC WEAK DEFAULT 12 _ZNSt3__111basic_regexIcN
677:   FUNC WEAK DEFAULT 12 _ZNSt3__114__split_buffer
678:   FUNC WEAK DEFAULT 12 _ZNSt3__116allocator_trai
679:   FUNC WEAK DEFAULT 12 _ZNSt3__119basic_ostrings
680:   FUNC WEAK DEFAULT 12 _ZNSt3__122__compressed_p
681:   FUNC WEAK DEFAULT 12 _ZNSt3__16vectorINS_12bas
682:   OBJECT WEAK DEFAULT 9 _ZTSNSt3__114default_dele
683:   FUNC WEAK DEFAULT 12 _ZNKSt3__111__match_anyIc
684:   FUNC WEAK DEFAULT 12 _ZNSt3__111basic_regexIcN
685:   FUNC WEAK DEFAULT 12 _ZNSt3__111basic_regexIcN
686:   FUNC WEAK DEFAULT 12 _ZNSt3__117__compressed_p
687:   OBJECT WEAK DEFAULT 9 _ZTSNSt3__111__alternateI
688:   FUNC GLOBAL DEFAULT 12 _ZNK7android6FQName4nameE
689:   FUNC WEAK DEFAULT 12 _ZNKSt3__112regex_traitsI
690:   FUNC WEAK DEFAULT 12 _ZNSt3__122__compressed_p
691:   FUNC WEAK DEFAULT 12 _ZNSt3__122__compressed_p
692:   OBJECT WEAK DEFAULT 21 _ZTINSt3__113__empty_stat
693:   OBJECT WEAK DEFAULT 21 _ZTINSt3__115basic_string
694:   OBJECT WEAK DEFAULT 9 _ZTSNSt3__110__l_anchorIc
695:   FUNC WEAK DEFAULT 12 _ZNKSt3__112regex_traitsI
696:   FUNC WEAK DEFAULT 12 _ZNSt3__111basic_regexIcN
697:   FUNC GLOBAL DEFAULT 12 _ZNK7android10FqInstance1
698:   FUNC WEAK DEFAULT 12 _ZNSt3__112__match_charIc
699:   FUNC GLOBAL DEFAULT 12 _ZN7android6FQName5parseE
700:   FUNC GLOBAL DEFAULT 12 _ZNK7android6FQName10hasV
701:   FUNC WEAK DEFAULT 12 _ZNSt3__111basic_regexIcN
702:   FUNC WEAK DEFAULT 12 _ZNSt3__111basic_regexIcN
703:   FUNC WEAK DEFAULT 12 _ZNSt3__111basic_regexIcN
704:   FUNC WEAK DEFAULT 12 _ZNSt3__117__compressed_p
705:   FUNC WEAK DEFAULT 12 _ZNSt3__122__compressed_p
706:   FUNC WEAK DEFAULT 12 _ZNSt3__15dequeINS_7__sta
707:   FUNC GLOBAL DEFAULT 12 _ZNK7android6FQName20getI
708:   FUNC WEAK DEFAULT 12 _ZNKSt3__120__bracket_exp
709:   FUNC WEAK DEFAULT 12 _ZNSt3__113match_resultsI
710:   FUNC WEAK DEFAULT 12 _ZNSt3__115basic_stringbu
711:   FUNC WEAK DEFAULT 12 _ZNSt3__116allocator_trai
712:   FUNC GLOBAL DEFAULT 12 _ZNK7android6FQName12cppL
713:   FUNC WEAK DEFAULT 12 _ZNSt3__116allocator_trai
714:   FUNC WEAK DEFAULT 12 _ZNSt3__17__stateIcED2Ev
715:   OBJECT WEAK DEFAULT 9 _ZTSNSt3__123__match_any_
716:   OBJECT WEAK DEFAULT 21 _ZTVNSt3__120__shared_ptr
717:   FUNC GLOBAL DEFAULT 12 _ZNK7android6FQName23getI
718:   FUNC WEAK DEFAULT 12 _ZNKSt3__16vectorINS_7__s
719:   FUNC WEAK DEFAULT 12 _ZNSt3__111basic_regexIcN
720:   FUNC WEAK DEFAULT 12 _ZNSt3__115__has_one_stat
721:   FUNC WEAK DEFAULT 12 _ZNSt3__122__compressed_p
722:   FUNC WEAK DEFAULT 12 _ZNSt3__122__compressed_p
723:   FUNC WEAK DEFAULT 12 _ZN7android4base14EagerEv
724:   FUNC WEAK DEFAULT 12 _ZNSt3__111basic_regexIcN
725:   FUNC WEAK DEFAULT 12 _ZNSt3__113__empty_stateI
726:   FUNC WEAK DEFAULT 12 _ZNSt3__116allocator_trai
727:   OBJECT WEAK DEFAULT 9 _ZTSNSt3__112__match_char
728:   FUNC GLOBAL DEFAULT 12 _ZNK7android6FQName18getI
729:   FUNC WEAK DEFAULT 12 _ZNKSt3__111basic_regexIc
730:   FUNC WEAK DEFAULT 12 _ZNSt3__122__compressed_p
731:   FUNC WEAK DEFAULT 12 _ZNSt3__16vectorINS_12bas
732:   FUNC WEAK DEFAULT 12 _ZNSt3__111basic_regexIcN
733:   FUNC WEAK DEFAULT 12 _ZNSt3__111char_traitsIcE
734:   FUNC WEAK DEFAULT 12 _ZNSt3__116allocator_trai
735:   FUNC WEAK DEFAULT 12 _ZNSt3__16vectorINS_9sub_
736:   OBJECT WEAK DEFAULT 21 _ZTVNSt3__116__owns_one_s
737:   FUNC GLOBAL DEFAULT 12 _ZN7android6FQName12clear
738:   FUNC WEAK DEFAULT 12 _ZNKSt3__111basic_regexIc
739:   FUNC WEAK DEFAULT 12 _ZNSt3__111basic_regexIcN
740:   FUNC WEAK DEFAULT 12 _ZNSt3__116allocator_trai
741:   FUNC WEAK DEFAULT 12 _ZNSt3__117__compressed_p
742:   FUNC WEAK DEFAULT 12 _ZNSt3__118__back_ref_col
743:   FUNC WEAK DEFAULT 12 _ZNKSt3__112regex_traitsI
744:   FUNC WEAK DEFAULT 12 _ZNSt3__14pairIPKcS2_EC2I
745:   FUNC GLOBAL DEFAULT 12 _ZNK7android10FqInstance1
746:   FUNC WEAK DEFAULT 12 _ZNKSt3__16vectorINS_4pai
747:   FUNC WEAK DEFAULT 12 _ZTv0_n24_NSt3__119basic_
748:   FUNC GLOBAL DEFAULT 12 _ZNK7android6FQNameeqERKS
749:   FUNC WEAK DEFAULT 12 _ZNKSt3__128__begin_marke
750:   FUNC WEAK DEFAULT 12 _ZNSt3__114__split_buffer
751:   FUNC WEAK DEFAULT 12 _ZNSt3__115__word_boundar
752:   OBJECT WEAK DEFAULT 21 _ZTVNSt3__111__end_stateI
