 0x000000000000000e (SONAME)             Library soname: [libhidlbase.so]
  
Symbol   contains 1529 entries:
Num:   Type Bind Vis Ndx Name
0:   NOTYPE LOCAL DEFAULT UND
1:   FUNC GLOBAL DEFAULT UND __cxa_finalize@LIBC (2)
2:   FUNC GLOBAL DEFAULT UND __cxa_atexit@LIBC (2)
3:   FUNC GLOBAL DEFAULT UND _ZN7android27add_sysprop_
4:   FUNC GLOBAL DEFAULT UND _ZN7android4base10LogMess
5:   FUNC GLOBAL DEFAULT UND _ZN7android4base10LogMess
6:   FUNC GLOBAL DEFAULT UND _ZN7android4base10LogMess
7:   FUNC GLOBAL DEFAULT UND _ZN7android4base11GetProp
8:   FUNC GLOBAL DEFAULT UND _ZN7android4base12StringP
9:   FUNC GLOBAL DEFAULT UND _ZN7android4base21GetMini
10:   FUNC GLOBAL DEFAULT UND _ZNKSt3__112basic_stringI
11:   FUNC GLOBAL DEFAULT UND _ZNKSt3__119__shared_weak
12:   FUNC GLOBAL DEFAULT UND _ZNKSt3__120__vector_base
13:   FUNC GLOBAL DEFAULT UND _ZNKSt3__121__basic_strin
14:   FUNC GLOBAL DEFAULT UND _ZNKSt3__123__match_any_b
15:   FUNC GLOBAL DEFAULT UND _ZNKSt3__16locale4nameEv
16:   FUNC GLOBAL DEFAULT UND _ZNKSt3__16locale9use_fac
17:   FUNC GLOBAL DEFAULT UND _ZNKSt3__18ios_base6getlo
18:   FUNC GLOBAL DEFAULT UND _ZNSt3__112basic_stringIc
19:   FUNC GLOBAL DEFAULT UND _ZNSt3__112basic_stringIc
20:   FUNC GLOBAL DEFAULT UND _ZNSt3__112basic_stringIc
21:   FUNC GLOBAL DEFAULT UND _ZNSt3__112basic_stringIc
22:   FUNC GLOBAL DEFAULT UND _ZNSt3__112basic_stringIc
23:   FUNC GLOBAL DEFAULT UND _ZNSt3__112basic_stringIc
24:   FUNC GLOBAL DEFAULT UND _ZNSt3__112basic_stringIc
25:   FUNC GLOBAL DEFAULT UND _ZNSt3__112basic_stringIc
26:   FUNC GLOBAL DEFAULT UND _ZNSt3__113basic_ostreamI
27:   FUNC GLOBAL DEFAULT UND _ZNSt3__113basic_ostreamI
28:   FUNC GLOBAL DEFAULT UND _ZNSt3__115__get_classnam
29:   FUNC GLOBAL DEFAULT UND _ZNSt3__119__shared_weak_
30:   FUNC GLOBAL DEFAULT UND _ZNSt3__119__shared_weak_
31:   FUNC GLOBAL DEFAULT UND _ZNSt3__120__get_collatio
32:   OBJECT GLOBAL DEFAULT UND _ZNSt3__15ctypeIcE2idE
33:   FUNC GLOBAL DEFAULT UND _ZNSt3__16localeC1ERKS0_
34:   FUNC GLOBAL DEFAULT UND _ZNSt3__16localeC1Ev
35:   FUNC GLOBAL DEFAULT UND _ZNSt3__16localeD1Ev
36:   OBJECT GLOBAL DEFAULT UND _ZNSt3__17collateIcE2idE
37:   FUNC GLOBAL DEFAULT UND _ZNSt3__18ios_base5clearE
38:   FUNC GLOBAL DEFAULT UND _ZNSt3__19to_stringEi
39:   FUNC GLOBAL DEFAULT UND _ZNSt3__1plIcNS_11char_tr
40:   FUNC GLOBAL DEFAULT UND _ZdlPv
41:   FUNC GLOBAL DEFAULT UND _Znwm
42:   FUNC GLOBAL DEFAULT UND __cxa_guard_acquire
43:   FUNC GLOBAL DEFAULT UND __cxa_guard_release
44:   FUNC GLOBAL DEFAULT UND __errno@LIBC (2)
45:   NOTYPE WEAK DEFAULT UND __sanitizer_cov_dump
46:   FUNC GLOBAL DEFAULT UND __stack_chk_fail@LIBC (2)
47:   FUNC GLOBAL DEFAULT UND abort@LIBC (2)
48:   FUNC GLOBAL DEFAULT UND closedir@LIBC (2)
49:   FUNC GLOBAL DEFAULT UND dl_iterate_phdr@LIBC (3)
50:   FUNC GLOBAL DEFAULT UND dlerror@LIBC (3)
51:   FUNC GLOBAL DEFAULT UND dlopen@LIBC (3)
52:   FUNC GLOBAL DEFAULT UND dlsym@LIBC (3)
53:   FUNC GLOBAL DEFAULT UND getenv@LIBC (2)
54:   FUNC GLOBAL DEFAULT UND getpid@LIBC (2)
55:   FUNC GLOBAL DEFAULT UND memcmp@LIBC (2)
56:   FUNC GLOBAL DEFAULT UND memcpy@LIBC (2)
57:   FUNC GLOBAL DEFAULT UND memmove@LIBC (2)
58:   FUNC GLOBAL DEFAULT UND memset@LIBC (2)
59:   FUNC GLOBAL DEFAULT UND opendir@LIBC (2)
60:   FUNC GLOBAL DEFAULT UND property_get
61:   FUNC GLOBAL DEFAULT UND property_get_bool
62:   FUNC GLOBAL DEFAULT UND readdir@LIBC (2)
63:   FUNC GLOBAL DEFAULT UND setenv@LIBC (2)
64:   FUNC GLOBAL DEFAULT UND strcmp@LIBC (2)
65:   FUNC GLOBAL DEFAULT UND strlen@LIBC (2)
66:   FUNC GLOBAL DEFAULT UND _ZN7android7RefBase10onFi
67:   FUNC GLOBAL DEFAULT UND _ZN7android7RefBase13onLa
68:   FUNC GLOBAL DEFAULT UND _ZN7android7RefBase15onLa
69:   FUNC GLOBAL DEFAULT UND _ZN7android7RefBase20onIn
70:   FUNC GLOBAL DEFAULT UND _ZN7android7RefBaseC2Ev
71:   FUNC GLOBAL DEFAULT UND _ZN7android7RefBaseD2Ev
72:   FUNC GLOBAL DEFAULT UND _ZNK7android7RefBase9incS
73:   FUNC GLOBAL DEFAULT UND _ZNSt3__113basic_ostreamI
74:   FUNC GLOBAL DEFAULT UND __strlen_chk@LIBC (2)
75:   FUNC GLOBAL DEFAULT UND close@LIBC (2)
76:   FUNC GLOBAL DEFAULT UND free@LIBC (2)
77:   FUNC GLOBAL DEFAULT UND malloc@LIBC (2)
78:   FUNC GLOBAL DEFAULT UND native_handle_clone
79:   FUNC GLOBAL DEFAULT UND native_handle_close
80:   FUNC GLOBAL DEFAULT UND native_handle_create
81:   FUNC GLOBAL DEFAULT UND native_handle_delete
82:   NOTYPE WEAK DEFAULT UND _ZN7android9CallStack11de
83:   NOTYPE WEAK DEFAULT UND _ZN7android9CallStack16lo
84:   NOTYPE WEAK DEFAULT UND _ZN7android9CallStack18ge
85:   FUNC GLOBAL DEFAULT UND _ZNSt3__112__next_primeEm
86:   FUNC GLOBAL DEFAULT UND _ZNSt3__112basic_stringIc
87:   FUNC GLOBAL DEFAULT UND _ZNSt3__112basic_stringIc
88:   FUNC GLOBAL DEFAULT UND _ZNSt3__112basic_stringIc
89:   FUNC GLOBAL DEFAULT UND _ZNSt3__113basic_ostreamI
90:   FUNC GLOBAL DEFAULT UND _ZNSt3__113basic_ostreamI
91:   FUNC GLOBAL DEFAULT UND _ZNSt3__113basic_ostreamI
92:   FUNC GLOBAL DEFAULT UND _ZNSt3__115basic_streambu
93:   FUNC GLOBAL DEFAULT UND _ZNSt3__115basic_streambu
94:   FUNC GLOBAL DEFAULT UND _ZNSt3__115basic_streambu
95:   FUNC GLOBAL DEFAULT UND _ZNSt3__115basic_streambu
96:   FUNC GLOBAL DEFAULT UND _ZNSt3__115basic_streambu
97:   FUNC GLOBAL DEFAULT UND _ZNSt3__115basic_streambu
98:   FUNC GLOBAL DEFAULT UND _ZNSt3__115basic_streambu
99:   FUNC GLOBAL DEFAULT UND _ZNSt3__115basic_streambu
100:   FUNC GLOBAL DEFAULT UND _ZNSt3__115basic_streambu
101:   FUNC GLOBAL DEFAULT UND _ZNSt3__18ios_base4initEP
102:   FUNC GLOBAL DEFAULT UND _ZNSt3__19basic_iosIcNS_1
103:   FUNC GLOBAL DEFAULT UND _ZTv0_n24_NSt3__113basic_
104:   FUNC GLOBAL DEFAULT UND _ZTv0_n24_NSt3__113basic_
105:   FUNC GLOBAL DEFAULT UND __android_log_print@LIBLOG (4)
106:   FUNC GLOBAL DEFAULT UND strerror@LIBC (2)
107:   FUNC GLOBAL DEFAULT UND _ZNSt3__115__thread_struc
108:   FUNC GLOBAL DEFAULT UND _ZNSt3__115__thread_struc
109:   FUNC GLOBAL DEFAULT UND _ZNSt3__118condition_vari
110:   FUNC GLOBAL DEFAULT UND _ZNSt3__118condition_vari
111:   FUNC GLOBAL DEFAULT UND _ZNSt3__118condition_vari
112:   FUNC GLOBAL DEFAULT UND _ZNSt3__119__thread_local
113:   FUNC GLOBAL DEFAULT UND _ZNSt3__120__throw_system
114:   FUNC GLOBAL DEFAULT UND _ZNSt3__15mutex4lockEv
115:   FUNC GLOBAL DEFAULT UND _ZNSt3__15mutex6unlockEv
116:   FUNC GLOBAL DEFAULT UND _ZNSt3__15mutexD1Ev
117:   FUNC GLOBAL DEFAULT UND _ZNSt3__16thread6detachEv
118:   FUNC GLOBAL DEFAULT UND _ZNSt3__16threadD1Ev
119:   FUNC GLOBAL DEFAULT UND androidSetThreadName
120:   FUNC GLOBAL DEFAULT UND pthread_create@LIBC (2)
121:   FUNC GLOBAL DEFAULT UND pthread_setspecific@LIBC (2)
122:   FUNC GLOBAL DEFAULT UND _ZN7android14sp_report_ra
123:   FUNC GLOBAL DEFAULT UND _ZN7android7RefBase12weak
124:   FUNC GLOBAL DEFAULT UND _ZN7android7RefBase12weak
125:   FUNC GLOBAL DEFAULT UND _ZN7android7RefBase12weak
126:   FUNC GLOBAL DEFAULT UND _ZN7android7String8C1ERKN
127:   FUNC GLOBAL DEFAULT UND _ZN7android7String8D1Ev
128:   FUNC GLOBAL DEFAULT UND _ZN7android8String16C1EPK
129:   FUNC GLOBAL DEFAULT UND _ZN7android8String16C1Ev
130:   FUNC GLOBAL DEFAULT UND _ZN7android8String16D1Ev
131:   FUNC GLOBAL DEFAULT UND _ZNK7android7RefBase10cre
132:   FUNC GLOBAL DEFAULT UND _ZNK7android7RefBase9decS
133:   FUNC GLOBAL DEFAULT UND __android_log_assert@LIBLOG (4)
134:   FUNC GLOBAL DEFAULT UND __cxa_pure_virtual
135:   FUNC GLOBAL DEFAULT UND _ZNSt3__113basic_ostreamI
136:   FUNC GLOBAL DEFAULT UND exit@LIBC (2)
137:   FUNC GLOBAL DEFAULT UND _ZNSt3__113basic_ostreamI
138:   FUNC GLOBAL DEFAULT UND _ZN7android12uptimeMillis
139:   FUNC GLOBAL DEFAULT UND _ZN7android4base10StartsW
140:   FUNC GLOBAL DEFAULT UND _ZN7android4base15WaitFor
141:   FUNC GLOBAL DEFAULT UND _ZN7android4base16ReadFil
142:   FUNC GLOBAL DEFAULT UND _ZN7android4base5SplitERK
143:   FUNC GLOBAL DEFAULT UND _ZN7android4base8EndsWith
144:   FUNC GLOBAL DEFAULT UND _ZNKSt3__112basic_stringI
145:   FUNC GLOBAL DEFAULT UND _ZNKSt3__112basic_stringI
146:   FUNC GLOBAL DEFAULT UND _ZNKSt3__16locale9has_fac
147:   FUNC GLOBAL DEFAULT UND _ZNSt3__112basic_stringIc
148:   FUNC GLOBAL DEFAULT UND _ZNSt3__113basic_istreamI
149:   FUNC GLOBAL DEFAULT UND _ZNSt3__113basic_istreamI
150:   FUNC GLOBAL DEFAULT UND _ZNSt3__113basic_istreamI
151:   FUNC GLOBAL DEFAULT UND _ZNSt3__113basic_istreamI
152:   FUNC GLOBAL DEFAULT UND _ZNSt3__113basic_istreamI
153:   FUNC GLOBAL DEFAULT UND _ZNSt3__113basic_ostreamI
154:   FUNC GLOBAL DEFAULT UND _ZNSt3__114basic_iostream
155:   FUNC GLOBAL DEFAULT UND _ZNSt3__114basic_iostream
156:   FUNC GLOBAL DEFAULT UND _ZNSt3__114basic_iostream
157:   FUNC GLOBAL DEFAULT UND _ZNSt3__118condition_vari
158:   FUNC GLOBAL DEFAULT UND _ZNSt3__16chrono12steady_
159:   FUNC GLOBAL DEFAULT UND _ZNSt3__16chrono12system_
160:   OBJECT GLOBAL DEFAULT UND _ZNSt3__17codecvtIcc9mbst
161:   FUNC GLOBAL DEFAULT UND _ZThn16_NSt3__114basic_io
162:   FUNC GLOBAL DEFAULT UND _ZThn16_NSt3__114basic_io
163:   FUNC GLOBAL DEFAULT UND _ZTv0_n24_NSt3__113basic_
164:   FUNC GLOBAL DEFAULT UND _ZTv0_n24_NSt3__113basic_
165:   FUNC GLOBAL DEFAULT UND _ZTv0_n24_NSt3__114basic_
166:   FUNC GLOBAL DEFAULT UND _ZTv0_n24_NSt3__114basic_
167:   FUNC GLOBAL DEFAULT UND _ZdaPv
168:   FUNC GLOBAL DEFAULT UND _Znam
169:   FUNC GLOBAL DEFAULT UND __strchr_chk@LIBC (2)
170:   FUNC GLOBAL DEFAULT UND access@LIBC (2)
171:   FUNC GLOBAL DEFAULT UND android_load_sphal_librar@LIBVNDKSUPPORT (5)
172:   FUNC GLOBAL DEFAULT UND dlclose@LIBC (3)
173:   FUNC GLOBAL DEFAULT UND fclose@LIBC (2)
174:   FUNC GLOBAL DEFAULT UND fflush@LIBC (2)
175:   FUNC GLOBAL DEFAULT UND fopen@LIBC (2)
176:   FUNC GLOBAL DEFAULT UND fread@LIBC (2)
177:   FUNC GLOBAL DEFAULT UND fseeko@LIBC (2)
178:   FUNC GLOBAL DEFAULT UND ftello@LIBC (2)
179:   FUNC GLOBAL DEFAULT UND fwrite@LIBC (2)
180:   FUNC GLOBAL DEFAULT UND isspace@LIBC (2)
181:   FUNC GLOBAL DEFAULT UND memchr@LIBC (2)
182:   FUNC GLOBAL DEFAULT UND sleep@LIBC (2)
183:   FUNC GLOBAL DEFAULT UND strtoll@LIBC (2)
184:   FUNC GLOBAL DEFAULT UND strtoull@LIBC (2)
185:   FUNC GLOBAL DEFAULT UND sysconf@LIBC (2)
186:   FUNC GLOBAL DEFAULT UND tolower@LIBC (2)
187:   FUNC GLOBAL DEFAULT UND _ZN7android21report_syspr
188:   FUNC GLOBAL DEFAULT UND _ZNK7android7RefBase11get
189:   FUNC GLOBAL DEFAULT UND atrace_begin_body
190:   OBJECT GLOBAL DEFAULT UND atrace_enabled_tags
191:   FUNC GLOBAL DEFAULT UND atrace_end_body
192:   OBJECT GLOBAL DEFAULT UND atrace_is_ready
193:   FUNC GLOBAL DEFAULT UND atrace_setup
194:   FUNC GLOBAL DEFAULT UND pthread_mutex_lock@LIBC (2)
195:   FUNC GLOBAL DEFAULT UND pthread_mutex_unlock@LIBC (2)
196:   FUNC GLOBAL DEFAULT UND pthread_mutex_destroy@LIBC (2)
197:   FUNC GLOBAL DEFAULT UND pthread_mutex_init@LIBC (2)
198:   FUNC GLOBAL DEFAULT UND _ZN7android7RefBase20exte
199:   FUNC GLOBAL DEFAULT UND _ZN7android10VectorImpl13
200:   FUNC GLOBAL DEFAULT UND _ZN7android16SortedVector
201:   FUNC GLOBAL DEFAULT UND _ZN7android16SortedVector
202:   FUNC GLOBAL DEFAULT UND _ZNK7android16SortedVecto
203:   FUNC GLOBAL DEFAULT UND _ZN7android16SortedVector
204:   FUNC GLOBAL DEFAULT UND _ZN7android16SortedVector
205:   FUNC GLOBAL DEFAULT UND _ZN7android10VectorImpl5c
206:   FUNC GLOBAL DEFAULT UND _ZN7android10VectorImplC2
207:   FUNC GLOBAL DEFAULT UND _ZN7android10VectorImplD2
208:   FUNC GLOBAL DEFAULT UND _ZN7android10VectorImpl3a
209:   FUNC GLOBAL DEFAULT UND _ZN7android10VectorImpl13
210:   FUNC GLOBAL DEFAULT UND thread_store_get
211:   FUNC GLOBAL DEFAULT UND thread_store_set
212:   FUNC GLOBAL DEFAULT UND _ZN7android7RefBase10rena
213:   FUNC GLOBAL DEFAULT UND _ZN7android7RefBase11rena
214:   FUNC GLOBAL DEFAULT UND _ZN7android10VectorImpl16
215:   FUNC GLOBAL DEFAULT UND realloc@LIBC (2)
216:   FUNC GLOBAL DEFAULT UND printf@LIBC (2)
217:   FUNC GLOBAL DEFAULT UND __vsprintf_chk@LIBC (2)
218:   FUNC GLOBAL DEFAULT UND pthread_getspecific@LIBC (2)
219:   FUNC GLOBAL DEFAULT UND pthread_key_create@LIBC (2)
220:   FUNC GLOBAL DEFAULT UND pthread_key_delete@LIBC (2)
221:   FUNC GLOBAL DEFAULT UND getuid@LIBC (2)
222:   FUNC GLOBAL DEFAULT UND pthread_cond_wait@LIBC (2)
223:   FUNC GLOBAL DEFAULT UND pthread_cond_broadcast@LIBC (2)
224:   FUNC GLOBAL DEFAULT UND _ZN7android18IPCThreadSta
225:   FUNC GLOBAL DEFAULT UND ioctl@LIBC (2)
226:   FUNC GLOBAL DEFAULT UND _ZN7android18IPCThreadSta
227:   FUNC GLOBAL DEFAULT UND _ZN7android18IPCThreadSta
228:   FUNC GLOBAL DEFAULT UND _ZN7android18IPCThreadSta
229:   FUNC GLOBAL DEFAULT UND _ZN7android10VectorImpl4p
230:   FUNC GLOBAL DEFAULT UND _ZNK7android8String164siz
231:   FUNC GLOBAL DEFAULT UND _ZN7android8String16C1EPK
232:   FUNC GLOBAL DEFAULT UND _ZnwmRKSt9nothrow_t
233:   FUNC GLOBAL DEFAULT UND _ZN7android8String165setT
234:   FUNC GLOBAL DEFAULT UND __android_log_error_write@LIBLOG_M (6)
235:   FUNC GLOBAL DEFAULT UND calloc@LIBC (2)
236:   FUNC GLOBAL DEFAULT UND getrlimit@LIBC (2)
237:   FUNC GLOBAL DEFAULT UND _ZN7android8String165setT
238:   FUNC GLOBAL DEFAULT UND _ZNSt3__113basic_ostreamI
239:   FUNC GLOBAL DEFAULT UND _ZNSt3__113basic_ostreamI
240:   OBJECT GLOBAL DEFAULT UND _ZSt7nothrow
241:   FUNC GLOBAL DEFAULT UND _ZN7android7RefBase12weak
242:   FUNC GLOBAL DEFAULT UND _ZN7android7String8C1Ev
243:   FUNC GLOBAL DEFAULT UND _ZN7android7String812appe
244:   FUNC GLOBAL DEFAULT UND mmap@LIBC (2)
245:   FUNC GLOBAL DEFAULT UND munmap@LIBC (2)
246:   FUNC GLOBAL DEFAULT UND _ZN7android6ThreadC2Eb
247:   FUNC GLOBAL DEFAULT UND _ZN7android6ThreadD1Ev
248:   FUNC GLOBAL DEFAULT UND _ZN7android6ThreadD0Ev
249:   FUNC GLOBAL DEFAULT UND _ZN7android6Thread3runEPK
250:   FUNC GLOBAL DEFAULT UND _ZN7android6Thread11reque
251:   FUNC GLOBAL DEFAULT UND _ZN7android6Thread10ready
252:   FUNC GLOBAL DEFAULT UND _ZTv0_n24_N7android6Threa
253:   FUNC GLOBAL DEFAULT UND _ZTv0_n24_N7android6Threa
254:   FUNC GLOBAL DEFAULT UND _ZN7android6ThreadD2Ev
255:   FUNC GLOBAL DEFAULT UND __open_2@LIBC (2)
256:   FUNC GLOBAL DEFAULT UND _ZN7android8String16C1ERK
257:   FUNC GLOBAL DEFAULT UND strzcmp16
258:   FUNC GLOBAL DEFAULT UND _ZN7android10VectorImpl8i
259:   FUNC GLOBAL DEFAULT UND _ZNK7android7RefBase14for
260:   FUNC GLOBAL DEFAULT UND writev@LIBC (2)
261:   FUNC WEAK DEFAULT UND android_set_abort_message@LIBC (2)
262:   FUNC GLOBAL DEFAULT UND write@LIBC (2)
263:   FUNC GLOBAL DEFAULT 14 _ZN7android4hidl7manager4
264:   OBJECT WEAK DEFAULT 18 _ZTCN7android8hardware7de
265:   OBJECT GLOBAL DEFAULT 18 _ZTTN7android4hidl7manage
266:   FUNC GLOBAL DEFAULT 14 _ZNK7android8hardware14IP
267:   FUNC WEAK DEFAULT 14 _ZNKSt3__110__function6__
268:   FUNC GLOBAL DEFAULT 14 _ZN7android8hardware11BpH
269:   FUNC WEAK DEFAULT 14 _ZNSt3__15dequeINS_7__sta
270:   FUNC WEAK DEFAULT 14 _ZNSt3__113basic_filebufI
271:   OBJECT GLOBAL DEFAULT 18 _ZTVN7android4hidl7manage
272:   FUNC WEAK DEFAULT 14 _ZNSt3__111basic_regexIcN
273:   FUNC GLOBAL DEFAULT 14 _ZNK7android8hardware6Par
274:   FUNC GLOBAL DEFAULT 14 _ZN7android8hardware6Stat
275:   FUNC GLOBAL DEFAULT 14 _ZThn32_N7android4hidl7ma
276:   OBJECT WEAK DEFAULT 18 _ZTVNSt3__120__shared_ptr
277:   FUNC WEAK DEFAULT 14 _ZNSt3__114__split_buffer
278:   FUNC WEAK DEFAULT 14 _ZNSt3__113basic_filebufI
279:   FUNC GLOBAL DEFAULT 14 _ZN7android8hardware10BpH
280:   FUNC GLOBAL DEFAULT 14 _ZN7android8hardware6Parc
281:   FUNC GLOBAL DEFAULT 14 _ZN7android8hardware11hid
282:   FUNC GLOBAL DEFAULT 14 _ZN7android8hardware21wri
283:   FUNC GLOBAL DEFAULT 14 _ZN7android4hidl7manager4
284:   FUNC GLOBAL DEFAULT 14 _ZN7android8hardware14IPC
285:   FUNC GLOBAL DEFAULT 14 _ZN7android8hardware11hid
286:   FUNC GLOBAL DEFAULT 14 _ZN7android8hardware6Stat
287:   FUNC WEAK DEFAULT 14 _ZNKSt3__115basic_stringb
288:   FUNC WEAK DEFAULT 14 _ZN7android8hardware10fro
289:   FUNC GLOBAL DEFAULT 14 _ZN7android4hidl7manager4
290:   FUNC GLOBAL DEFAULT 14 _ZN7android4hidl7manager4
291:   FUNC WEAK DEFAULT 14 _ZNSt3__111basic_regexIcN
292:   FUNC GLOBAL DEFAULT 14 _ZN7android8hardware27hid
293:   FUNC GLOBAL DEFAULT 14 _ZN7android4hidl7manager4
294:   OBJECT GLOBAL DEFAULT 18 _ZTCN7android8hardware9BH
295:   FUNC GLOBAL DEFAULT 14 _ZN7android4hidl7manager4
296:   FUNC GLOBAL DEFAULT 14 _ZN7android4hidl4base4V1_
297:   OBJECT WEAK DEFAULT 18 _ZTVN7android8hardware13L
298:   FUNC WEAK DEFAULT 14 _ZNKSt3__113__empty_state
299:   FUNC GLOBAL DEFAULT 14 _ZN7android4hidl7manager4
300:   OBJECT GLOBAL DEFAULT 18 _ZTTN7android8hardware10I
301:   FUNC WEAK DEFAULT 14 _ZN7android2spINS_8hardwa
302:   FUNC WEAK DEFAULT 14 _ZNSt3__111basic_regexIcN
303:   FUNC WEAK DEFAULT 14 _ZNSt3__111basic_regexIcN
304:   FUNC GLOBAL DEFAULT 14 _ZN7android8hardware7IBin
305:   FUNC GLOBAL DEFAULT 14 _ZN7android8hardware6Parc
306:   FUNC GLOBAL DEFAULT 14 _ZN7android8hardware6Parc
307:   FUNC WEAK DEFAULT 14 _ZNKSt3__111basic_regexIc
308:   FUNC WEAK DEFAULT 14 _ZNSt3__111basic_regexIcN
309:   FUNC GLOBAL DEFAULT 14 _ZN7android8hardware18add
310:   FUNC GLOBAL DEFAULT 14 _ZN7android4hidl7manager4
311:   FUNC GLOBAL DEFAULT 14 _ZN7android4hidl7manager4
312:   FUNC GLOBAL DEFAULT 14 _ZN7android8hardware11BpH
313:   FUNC GLOBAL DEFAULT 14 _ZN7android8hardware7deta
314:   FUNC GLOBAL DEFAULT 14 _ZN7android8hardware14IPC
315:   FUNC GLOBAL DEFAULT 14 _ZN7android8hardware11hid
316:   FUNC GLOBAL DEFAULT 14 _ZN7android8hardware11hid
317:   OBJECT GLOBAL DEFAULT 18 _ZTTN7android4hidl7manage
318:   FUNC GLOBAL DEFAULT 14 _ZN7android8hardware6Parc
319:   OBJECT WEAK DEFAULT 18 _ZTVNSt3__16__loopIcEE
320:   FUNC WEAK DEFAULT 14 _ZN7android2spINS_4hidl7m
321:   FUNC GLOBAL DEFAULT 14 _ZN7android8hardware16mat
322:   FUNC GLOBAL DEFAULT 14 _ZN7android8hardware9BHwB
323:   FUNC GLOBAL DEFAULT 14 _ZN7android4hidl7manager4
324:   FUNC GLOBAL DEFAULT 14 _ZN7android4hidl4base4V1_
325:   FUNC GLOBAL DEFAULT 14 _ZN7android8hardware10BpH
326:   FUNC GLOBAL DEFAULT 14 _ZN7android8hardware16unf
327:   FUNC GLOBAL DEFAULT 14 _ZN7android8hardware6Parc
328:   FUNC GLOBAL DEFAULT 14 _ZN7android8hardware10BpH
329:   OBJECT GLOBAL DEFAULT 18 _ZTVN7android8hardware10I
330:   FUNC GLOBAL DEFAULT 14 _ZN7android4hidl7manager4
331:   FUNC GLOBAL DEFAULT 14 _ZN7android4hidl7manager4
332:   FUNC WEAK DEFAULT 14 _ZNKSt3__111__lookaheadIc
333:   FUNC WEAK DEFAULT 14 _ZNSt3__111basic_regexIcN
334:   FUNC GLOBAL DEFAULT 14 _ZN7android4hidl7manager4
335:   FUNC GLOBAL DEFAULT 14 _ZTv0_n24_N7android4hidl7
336:   FUNC GLOBAL DEFAULT 14 _ZN7android4hidl7manager4
337:   FUNC GLOBAL DEFAULT 14 _ZN7android4hidl7manager4
338:   FUNC GLOBAL DEFAULT 14 _ZN7android4hidl7manager4
339:   FUNC GLOBAL DEFAULT 14 _ZN7android4hidl4base4V1_
340:   FUNC GLOBAL DEFAULT 14 _ZN7android8hardware6Parc
341:   FUNC GLOBAL DEFAULT 14 _ZN7android4hidl7manager4
342:   FUNC GLOBAL DEFAULT 14 _ZN7android8hardware7deta
343:   FUNC WEAK DEFAULT 14 _ZNSt3__110__function6__f
344:   FUNC GLOBAL DEFAULT 14 _ZN7android8hardware7deta
345:   FUNC GLOBAL DEFAULT 14 _ZN7android8hardware6Parc
346:   FUNC GLOBAL DEFAULT 14 _ZTv0_n24_N7android8hardw
347:   OBJECT GLOBAL DEFAULT 18 _ZTCN7android4hidl7manage
348:   FUNC GLOBAL DEFAULT 14 _ZN7android8hardware14fla
349:   FUNC GLOBAL DEFAULT 14 _ZN7android8hardware6Parc
350:   FUNC GLOBAL DEFAULT 14 _ZN7android8hardware20Laz
351:   FUNC WEAK DEFAULT 14 _ZNSt3__111basic_regexIcN
352:   FUNC GLOBAL DEFAULT 14 _ZN7android8hardware12Pro
353:   FUNC WEAK DEFAULT 14 _ZNKSt3__110__r_anchorIcE
354:   OBJECT WEAK DEFAULT 18 _ZTVNSt3__113basic_fstrea
355:   FUNC GLOBAL DEFAULT 14 _ZN7android4hidl7manager4
356:   OBJECT GLOBAL DEFAULT 18 _ZTCN7android4hidl7manage
357:   FUNC GLOBAL DEFAULT 14 _ZN7android4hidl7manager4
358:   FUNC GLOBAL DEFAULT 14 _ZN7android8hardware11hid
359:   FUNC GLOBAL DEFAULT 14 _ZN7android8hardware14rea
360:   FUNC GLOBAL DEFAULT 14 _ZN7android8hardware21def
361:   OBJECT GLOBAL DEFAULT 18 _ZTVN7android4hidl7manage
362:   FUNC GLOBAL DEFAULT 14 _ZN7android4hidl4base4V1_
363:   OBJECT GLOBAL DEFAULT 18 _ZN7android8hardware4aerr
364:   FUNC WEAK DEFAULT 14 _ZNSt3__16vectorINS_9sub_
365:   FUNC WEAK DEFAULT 14 _ZN7android8hardware7deta
366:   FUNC GLOBAL DEFAULT 14 _ZN7android4hidl7manager4
367:   OBJECT GLOBAL DEFAULT 18 _ZTCN7android4hidl7manage
368:   FUNC GLOBAL DEFAULT 14 _ZN7android4hidl4base4V1_
369:   FUNC GLOBAL DEFAULT 14 _ZN7android8hardware6Parc
370:   OBJECT GLOBAL DEFAULT 18 _ZTTN7android4hidl7manage
371:   FUNC GLOBAL DEFAULT 14 _ZN7android8hardware10Hid
372:   FUNC GLOBAL DEFAULT 14 _ZN7android4hidl4base4V1_
373:   OBJECT GLOBAL DEFAULT 18 _ZTCN7android4hidl4base4V
374:   OBJECT GLOBAL DEFAULT 18 _ZTVN7android8hardware12P
375:   FUNC GLOBAL DEFAULT 14 _ZN7android4hidl7manager4
376:   FUNC GLOBAL DEFAULT 14 _ZNK7android8hardware6Par
377:   FUNC GLOBAL DEFAULT 14 _ZN7android4hidl7manager4
378:   OBJECT GLOBAL DEFAULT 18 _ZTCN7android4hidl7manage
379:   FUNC GLOBAL DEFAULT 14 _ZN7android8hardware14IPC
380:   FUNC GLOBAL DEFAULT 14 _ZN7android8hardware18Buf
381:   FUNC GLOBAL DEFAULT 14 _ZNK7android8hardware6Par
382:   FUNC GLOBAL DEFAULT 14 _ZN7android4hidl7manager4
383:   FUNC GLOBAL DEFAULT 14 _ZN7android8hardware14IPC
384:   FUNC GLOBAL DEFAULT 14 _ZN7android8hardware6Parc
385:   FUNC GLOBAL DEFAULT 14 _ZN7android8hardware12Pro
386:   FUNC GLOBAL DEFAULT 14 _ZN7android4hidl7manager4
387:   FUNC WEAK DEFAULT 14 _ZN7android8hardware7deta
388:   FUNC GLOBAL DEFAULT 14 _ZN7android4hidl7manager4
389:   FUNC GLOBAL DEFAULT 14 _ZN7android8hardware6Parc
390:   FUNC GLOBAL DEFAULT 14 _ZN7android8hardware6Parc
391:   OBJECT GLOBAL DEFAULT 18 _ZTVN7android8hardware27h
392:   FUNC GLOBAL DEFAULT 14 _ZN7android4hidl7manager4
393:   FUNC WEAK DEFAULT 14 _ZNSt3__16vectorINS_9sub_
394:   FUNC GLOBAL DEFAULT 14 _ZN7android4hidl7manager4
395:   OBJECT GLOBAL DEFAULT 18 _ZTCN7android4hidl7manage
396:   OBJECT WEAK DEFAULT 18 _ZTVN7android12SortedVect
397:   FUNC GLOBAL DEFAULT 14 _ZNK7android8hardware6Par
398:   FUNC GLOBAL DEFAULT 14 _ZN7android8hardware10Tex
399:   FUNC GLOBAL DEFAULT 14 _ZN7android8hardware11hid
400:   FUNC GLOBAL DEFAULT 14 _ZNK7android8hardware11hi
401:   FUNC GLOBAL DEFAULT 14 _ZN7android4hidl7manager4
402:   FUNC GLOBAL DEFAULT 14 _ZN7android4hidl7manager4
403:   FUNC GLOBAL DEFAULT 14 _ZN7android8hardware14IPC
404:   FUNC GLOBAL DEFAULT 14 _ZN7android4hidl7manager4
405:   FUNC GLOBAL DEFAULT 14 _ZN7android8hardware10BpH
406:   FUNC GLOBAL DEFAULT 14 _ZTv0_n24_N7android8hardw
407:   FUNC GLOBAL DEFAULT 14 _ZN7android8hardware6Parc
408:   FUNC WEAK DEFAULT 14 _ZNKSt3__118__match_char_
409:   FUNC WEAK DEFAULT 14 _ZNSt3__111basic_regexIcN
410:   OBJECT WEAK DEFAULT 18 _ZTVNSt3__111__end_stateI
411:   OBJECT GLOBAL DEFAULT 16 _ZN7android4hidl4base4V1_
412:   FUNC WEAK DEFAULT 14 _ZNSt3__111basic_regexIcN
413:   FUNC GLOBAL DEFAULT 14 _ZN7android8hardware18Buf
414:   FUNC WEAK DEFAULT 14 _ZNKSt3__111__alternateIc
415:   OBJECT GLOBAL DEFAULT 18 _ZTCN7android4hidl7manage
416:   OBJECT WEAK DEFAULT 18 _ZTVN7android4hidl7manage
417:   FUNC GLOBAL DEFAULT 14 _ZN7android8hardware14IPC
418:   FUNC GLOBAL DEFAULT 14 _ZNK7android8hardware6Par
419:   FUNC WEAK DEFAULT 14 _ZNSt3__113basic_filebufI
420:   FUNC GLOBAL DEFAULT 14 _ZTv0_n24_N7android8hardw
421:   OBJECT GLOBAL DEFAULT 18 _ZTCN7android4hidl7manage
422:   FUNC GLOBAL DEFAULT 14 _ZN7android8hardware12Pro
423:   FUNC GLOBAL DEFAULT 14 _ZN7android8hardware12Pro
424:   FUNC GLOBAL DEFAULT 14 _ZN7android8hardware6Stat
425:   FUNC WEAK DEFAULT 14 _ZNSt3__113basic_filebufI
426:   FUNC GLOBAL DEFAULT 14 _ZN7android4hidl7manager4
427:   FUNC GLOBAL DEFAULT 14 _ZN7android4hidl7manager4
428:   OBJECT GLOBAL DEFAULT 18 _ZTCN7android4hidl7manage
429:   FUNC GLOBAL DEFAULT 14 _ZN7android8hardware9BHwB
430:   FUNC GLOBAL DEFAULT 14 _ZN7android8hardware11BpH
431:   FUNC GLOBAL DEFAULT 14 _ZN7android8hardware14IPC
432:   FUNC WEAK DEFAULT 14 _ZNSt3__16vectorINS_4pair
433:   FUNC GLOBAL DEFAULT 14 _ZN7android4hidl4base4V1_
434:   FUNC GLOBAL DEFAULT 14 _ZN7android4hidl7manager4
435:   FUNC GLOBAL DEFAULT 14 _ZNK7android8hardware6Par
436:   FUNC GLOBAL DEFAULT 14 _ZN7android4hidl7manager4
437:   FUNC WEAK DEFAULT 14 _ZN7android8hardware6Parc
438:   FUNC GLOBAL DEFAULT 14 _ZN7android8hardware12Pro
439:   FUNC GLOBAL DEFAULT 14 __addtf3
440:   FUNC WEAK DEFAULT 14 _ZNSt3__111basic_regexIcN
441:   FUNC GLOBAL DEFAULT 14 _ZN7android4hidl7manager4
442:   OBJECT GLOBAL DEFAULT 18 _ZTCN7android4hidl4base4V
443:   OBJECT WEAK DEFAULT 18 _ZTCNSt3__118basic_string
444:   OBJECT GLOBAL DEFAULT 18 _ZTCN7android4hidl7manage
445:   OBJECT GLOBAL DEFAULT 23 _ZN7android8hardware12gTe
446:   OBJECT WEAK DEFAULT 18 _ZTVN7android6VectorIPNS_
447:   OBJECT WEAK DEFAULT 18 _ZTCNSt3__118basic_string
448:   FUNC WEAK DEFAULT 14 _ZNSt3__113basic_filebufI
449:   FUNC GLOBAL DEFAULT 14 _ZN7android4hidl7manager4
450:   FUNC GLOBAL DEFAULT 14 _ZN7android8hardware6Parc
451:   FUNC GLOBAL DEFAULT 14 _ZN7android8hardware7IBin
452:   FUNC GLOBAL DEFAULT 14 _ZN7android4hidl7manager4
453:   FUNC GLOBAL DEFAULT 14 _ZN7android8hardware10BpH
454:   FUNC GLOBAL DEFAULT 14 _ZN7android8hardware12Pro
455:   FUNC GLOBAL DEFAULT 14 _ZN7android4hidl7manager4
456:   OBJECT GLOBAL DEFAULT 18 _ZTTN7android4hidl7manage
457:   FUNC GLOBAL DEFAULT 14 _ZTv0_n24_N7android4hidl7
458:   FUNC GLOBAL DEFAULT 14 _ZN7android8hardware10Hid
459:   FUNC GLOBAL DEFAULT 14 _ZN7android8hardware12Pro
460:   FUNC GLOBAL DEFAULT 14 _ZN7android4hidl4base4V1_
461:   FUNC GLOBAL DEFAULT 14 _ZNK7android8hardware6Par
462:   FUNC WEAK DEFAULT 14 _ZNSt3__111basic_regexIcN
463:   FUNC GLOBAL DEFAULT 14 _ZN7android4hidl7manager4
464:   OBJECT GLOBAL DEFAULT 18 _ZTVN7android4hidl7manage
465:   OBJECT GLOBAL DEFAULT 18 _ZTVN7android4hidl7manage
466:   FUNC GLOBAL DEFAULT 14 _ZN7android8hardware12Pro
467:   OBJECT WEAK DEFAULT 18 _ZTVN7android8hardware10P
468:   FUNC GLOBAL DEFAULT 14 _ZN7android8hardware7deta
469:   FUNC WEAK DEFAULT 14 _ZNKSt3__112regex_traitsI
470:   FUNC WEAK DEFAULT 14 _ZNSt3__111basic_regexIcN
471:   FUNC GLOBAL DEFAULT 14 _ZN7android8hardware21wri
472:   OBJECT GLOBAL DEFAULT 16 _ZN7android4hidl7manager4
473:   FUNC WEAK DEFAULT 14 _ZNKSt3__112regex_traitsI
474:   FUNC GLOBAL DEFAULT 14 _ZN7android4hidl7manager4
475:   FUNC GLOBAL DEFAULT 14 _ZN7android4hidl7manager4
476:   FUNC GLOBAL DEFAULT 14 _ZN7android8hardware12Pro
477:   FUNC WEAK DEFAULT 14 _ZNSt3__16__treeINS_12__v
478:   FUNC GLOBAL DEFAULT 14 _ZN7android4hidl4base4V1_
479:   FUNC GLOBAL DEFAULT 14 _ZN7android4hidl4base4V1_
480:   FUNC GLOBAL DEFAULT 14 _ZN7android8hardware14IPC
481:   OBJECT WEAK DEFAULT 18 _ZTVN7android6VectorIPNS_
482:   FUNC GLOBAL DEFAULT 14 _ZN7android8hardware7deta
483:   FUNC GLOBAL DEFAULT 14 _ZN7android8hardware22rea
484:   FUNC WEAK DEFAULT 14 _ZNSt3__16__treeINS_12__v
485:   FUNC GLOBAL DEFAULT 14 _ZN7android4hidl4base4V1_
486:   FUNC GLOBAL DEFAULT 14 _ZN7android8hardware6Parc
487:   FUNC GLOBAL DEFAULT 14 _ZNK7android8hardware6Par
488:   FUNC GLOBAL DEFAULT 14 _ZN7android8hardware7deta
489:   FUNC GLOBAL DEFAULT 14 _ZN7android8hardware14IPC
490:   FUNC GLOBAL DEFAULT 14 _ZN7android8hardware14IPC
491:   FUNC GLOBAL DEFAULT 14 _ZNK7android8hardware6Par
492:   FUNC GLOBAL DEFAULT 14 _ZN7android4hidl7manager4
493:   FUNC GLOBAL DEFAULT 14 _ZThn32_N7android4hidl7ma
494:   FUNC GLOBAL DEFAULT 14 _ZNK7android8hardware6Par
495:   FUNC GLOBAL DEFAULT 14 _ZNK7android8hardware6Par
496:   FUNC GLOBAL DEFAULT 14 _ZNK7android8hardware6Par
497:   FUNC GLOBAL DEFAULT 14 _ZNK7android8hardware6Par
498:   FUNC GLOBAL DEFAULT 14 _ZN7android8hardware11hid
499:   FUNC GLOBAL DEFAULT 14 _ZN7android8hardware11hid
500:   FUNC GLOBAL DEFAULT 14 _ZN7android4hidl7manager4
501:   OBJECT GLOBAL DEFAULT 18 _ZTCN7android4hidl7manage
502:   FUNC GLOBAL DEFAULT 14 _ZN7android4hidl4base4V1_
503:   FUNC GLOBAL DEFAULT 14 _ZNK7android8hardware6Par
504:   FUNC GLOBAL DEFAULT 14 __eqtf2
505:   OBJECT WEAK DEFAULT 18 _ZTVNSt3__110__l_anchorIc
506:   FUNC GLOBAL DEFAULT 14 _ZN7android8hardware6Stat
507:   OBJECT WEAK DEFAULT 23 _ZGVZN7android8hardware25
508:   FUNC GLOBAL DEFAULT 14 _ZN7android8hardware12Pro
509:   FUNC GLOBAL DEFAULT 14 _ZNK7android8hardware6Par
510:   FUNC GLOBAL DEFAULT 14 __gttf2
511:   FUNC GLOBAL DEFAULT 14 _ZN7android4hidl7manager4
512:   OBJECT GLOBAL DEFAULT 18 _ZTCN7android4hidl7manage
513:   FUNC GLOBAL DEFAULT 14 _ZN7android8hardware6Parc
514:   OBJECT WEAK DEFAULT 18 _ZTCN7android8hardware10P
515:   FUNC GLOBAL DEFAULT 14 _ZN7android4hidl7manager4
516:   FUNC GLOBAL DEFAULT 14 _ZN7android4hidl7manager4
517:   FUNC GLOBAL DEFAULT 14 _ZN7android8hardware18Buf
518:   FUNC GLOBAL DEFAULT 14 _ZN7android8hardware23get
519:   FUNC GLOBAL DEFAULT 14 _ZN7android8hardware7deta
520:   FUNC WEAK DEFAULT 14 _ZNSt3__111basic_regexIcN
521:   FUNC WEAK DEFAULT 14 _ZNSt3__124__put_characte
522:   OBJECT WEAK DEFAULT 18 _ZTVNSt3__121__empty_non_
523:   FUNC GLOBAL DEFAULT 14 _ZN7android8hardware7deta
524:   FUNC GLOBAL DEFAULT 14 _ZN7android4hidl7manager4
525:   FUNC GLOBAL DEFAULT 14 _ZThn32_N7android4hidl4ba
526:   OBJECT GLOBAL DEFAULT 18 _ZTTN7android8hardware7de
527:   FUNC GLOBAL DEFAULT 14 _ZN7android8hardware12Pro
528:   FUNC GLOBAL DEFAULT 14 __unordtf2
529:   FUNC WEAK DEFAULT 14 _ZNSt3__111basic_regexIcN
530:   FUNC GLOBAL DEFAULT 14 _ZN7android8hardware21wri
531:   FUNC GLOBAL DEFAULT 14 _ZN7android4hidl7manager4
532:   FUNC GLOBAL DEFAULT 14 _ZN7android4hidl7manager4
533:   OBJECT WEAK DEFAULT 18 _ZTVN7android8hardware12F
534:   FUNC GLOBAL DEFAULT 14 _ZN7android8hardware6Parc
535:   FUNC GLOBAL DEFAULT 14 _ZN7android4hidl7manager4
536:   FUNC GLOBAL DEFAULT 14 _ZN7android4hidl7manager4
537:   FUNC WEAK DEFAULT 14 _ZNSt3__115basic_stringbu
538:   FUNC GLOBAL DEFAULT 14 _ZNK7android8hardware6Par
539:   FUNC GLOBAL DEFAULT 14 _ZN7android8hardware11hid
540:   FUNC GLOBAL DEFAULT 14 _ZN7android8hardware6Stat
541:   FUNC WEAK DEFAULT 14 _ZNSt3__16vectorIN7androi
542:   FUNC GLOBAL DEFAULT 14 _ZN7android8hardware28get
543:   FUNC WEAK DEFAULT 14 _ZNKSt3__112regex_traitsI
544:   FUNC WEAK DEFAULT 14 _ZNSt3__111basic_regexIcN
545:   OBJECT GLOBAL DEFAULT 18 _ZTTN7android4hidl4base4V
546:   FUNC WEAK DEFAULT 14 _ZNSt3__111basic_regexIcN
547:   FUNC GLOBAL DEFAULT 14 _ZN7android4hidl7manager4
548:   FUNC GLOBAL DEFAULT 14 _ZN7android8hardware6Parc
549:   FUNC GLOBAL DEFAULT 14 _ZN7android4hidl7manager4
550:   FUNC GLOBAL DEFAULT 14 _ZN7android4hidl7manager4
551:   FUNC GLOBAL DEFAULT 14 _ZN7android4hidl4base4V1_
552:   OBJECT WEAK DEFAULT 18 _ZTCN7android4hidl7manage
553:   FUNC GLOBAL DEFAULT 14 _ZN7android4hidl7manager4
554:   FUNC GLOBAL DEFAULT 14 _ZN7android4hidl7manager4
555:   FUNC GLOBAL DEFAULT 14 _ZN7android4hidl7manager4
556:   FUNC GLOBAL DEFAULT 14 _ZN7android8hardware18set
557:   FUNC GLOBAL DEFAULT 14 _ZN7android4hidl7manager4
558:   FUNC GLOBAL DEFAULT 14 _ZN7android4hidl7manager4
559:   FUNC WEAK DEFAULT 14 _ZNSt3__111basic_regexIcN
560:   FUNC GLOBAL DEFAULT 14 _ZN7android8hardware11hid
561:   FUNC GLOBAL DEFAULT 14 _ZN7android8hardware6Stat
562:   FUNC WEAK DEFAULT 14 _ZNSt3__16vectorIN7androi
563:   FUNC GLOBAL DEFAULT 14 _ZTv0_n24_N7android8hardw
564:   OBJECT GLOBAL DEFAULT 18 _ZTTN7android4hidl7manage
565:   OBJECT WEAK DEFAULT 18 _ZTVN7android4hidl7manage
566:   FUNC GLOBAL DEFAULT 14 _ZN7android4hidl4base4V1_
567:   FUNC GLOBAL DEFAULT 14 _ZN7android4hidl7manager4
568:   FUNC GLOBAL DEFAULT 14 _ZN7android4hidl7manager4
569:   FUNC GLOBAL DEFAULT 14 _ZN7android8hardware18Buf
570:   FUNC GLOBAL DEFAULT 14 _ZN7android4hidl7manager4
571:   FUNC GLOBAL DEFAULT 14 _ZN7android4hidl4base4V1_
572:   FUNC GLOBAL DEFAULT 14 _ZNK7android8hardware6Par
573:   OBJECT WEAK DEFAULT 18 _ZTTNSt3__119basic_ostrin
574:   FUNC GLOBAL DEFAULT 14 _ZN7android4hidl7manager4
575:   FUNC GLOBAL DEFAULT 14 _ZN7android8hardware10IIn
576:   OBJECT GLOBAL DEFAULT 18 _ZTCN7android4hidl7manage
577:   OBJECT GLOBAL DEFAULT 18 _ZTTN7android4hidl7manage
578:   OBJECT GLOBAL DEFAULT 18 _ZTCN7android4hidl7manage
579:   FUNC GLOBAL DEFAULT 14 _ZTv0_n24_N7android4hidl7
580:   OBJECT GLOBAL DEFAULT 18 _ZTCN7android4hidl4base4V
581:   FUNC GLOBAL DEFAULT 14 _ZNK7android8hardware14IP
582:   FUNC GLOBAL DEFAULT 14 _ZN7android8hardware10Hid
583:   FUNC WEAK DEFAULT 14 _ZNSt3__16__treeINS_12__v
584:   OBJECT WEAK DEFAULT 18 _ZTVNSt3__114basic_ifstre
585:   OBJECT GLOBAL DEFAULT 18 _ZTTN7android4hidl7manage
586:   FUNC GLOBAL DEFAULT 14 _ZN7android8hardware6Parc
587:   FUNC WEAK DEFAULT 14 _ZNSt3__111basic_regexIcN
588:   FUNC WEAK DEFAULT 14 _ZNSt3__111basic_regexIcN
589:   FUNC WEAK DEFAULT 14 _ZNSt3__16__treeINS_12__v
590:   FUNC GLOBAL DEFAULT 14 _ZN7android4hidl7manager4
591:   FUNC GLOBAL DEFAULT 14 _ZN7android4hidl7manager4
592:   FUNC WEAK DEFAULT 14 _ZNSt3__111basic_regexIcN
593:   OBJECT GLOBAL DEFAULT 23 _ZN7android8hardware7deta
594:   FUNC GLOBAL DEFAULT 14 _ZN7android4hidl7manager4
595:   FUNC GLOBAL DEFAULT 14 _ZN7android8hardware12Pro
596:   FUNC GLOBAL DEFAULT 14 _ZN7android8hardware11hid
597:   FUNC GLOBAL DEFAULT 14 _ZN7android4hidl7manager4
598:   FUNC GLOBAL DEFAULT 14 _ZN7android4hidl7manager4
599:   FUNC GLOBAL DEFAULT 14 _ZN7android8hardware18Buf
600:   FUNC GLOBAL DEFAULT 14 _ZN7android8hardware14IPC
601:   FUNC WEAK DEFAULT 14 _ZNSt3__113basic_filebufI
602:   FUNC GLOBAL DEFAULT 14 _ZN7android4hidl4base4V1_
603:   FUNC GLOBAL DEFAULT 14 _ZN7android8hardware6Parc
604:   FUNC GLOBAL DEFAULT 14 _ZN7android4hidl7manager4
605:   FUNC GLOBAL DEFAULT 14 _ZN7android4hidl7manager4
606:   FUNC WEAK DEFAULT 14 _ZNSt3__111basic_regexIcN
607:   FUNC WEAK DEFAULT 14 _ZNSt3__111basic_regexIcN
608:   FUNC GLOBAL DEFAULT 14 _ZN7android4hidl7manager4
609:   FUNC GLOBAL DEFAULT 14 _ZN7android4hidl7manager4
610:   FUNC GLOBAL DEFAULT 14 _ZN7android8hardware10BpH
611:   FUNC WEAK DEFAULT 14 _ZN7android2spINS_8hardwa
612:   OBJECT WEAK DEFAULT 18 _ZTVN7android8hardware25P
613:   FUNC WEAK DEFAULT 14 _ZNSt3__110__function6__f
614:   FUNC GLOBAL DEFAULT 14 _ZN7android8hardwarelsERN
615:   FUNC GLOBAL DEFAULT 14 _ZN7android4hidl7manager4
616:   FUNC GLOBAL DEFAULT 14 _ZN7android4hidl7manager4
617:   FUNC GLOBAL DEFAULT 14 _ZN7android8hardware14IPC
618:   FUNC WEAK DEFAULT 14 _ZNSt3__112__deque_baseIN
619:   FUNC GLOBAL DEFAULT 14 _ZN7android4hidl7manager4
620:   FUNC GLOBAL DEFAULT 14 _ZN7android8hardware10BpH
621:   FUNC GLOBAL DEFAULT 14 _ZNK7android8hardware6Par
622:   FUNC GLOBAL DEFAULT 14 _ZN7android4hidl4base4V1_
623:   FUNC GLOBAL DEFAULT 14 _ZNK7android8hardware6Par
624:   FUNC GLOBAL DEFAULT 14 _ZNK7android8hardware6Par
625:   FUNC GLOBAL DEFAULT 14 _ZNK7android8hardware6Par
626:   FUNC GLOBAL DEFAULT 14 _ZNK7android8hardware6Par
627:   OBJECT GLOBAL DEFAULT 18 _ZTVN7android8hardware7de
628:   FUNC WEAK DEFAULT 14 _ZNSt3__113basic_filebufI
629:   FUNC WEAK DEFAULT 14 _ZNSt3__16vectorINS_8func
630:   OBJECT WEAK DEFAULT 18 _ZTVN7android4hidl7manage
631:   FUNC GLOBAL DEFAULT 14 _ZN7android4hidl7manager4
632:   FUNC GLOBAL DEFAULT 14 _ZN7android8hardware12Pro
633:   FUNC WEAK DEFAULT 14 _ZNKSt3__110__function6__
634:   FUNC WEAK DEFAULT 14 _ZNSt3__111basic_regexIcN
635:   FUNC GLOBAL DEFAULT 14 _ZN7android4hidl7manager4
636:   FUNC GLOBAL DEFAULT 14 _ZN7android4hidl7manager4
637:   FUNC GLOBAL DEFAULT 14 _ZN7android4hidl7manager4
638:   FUNC GLOBAL DEFAULT 14 _ZN7android8hardware6Parc
639:   FUNC GLOBAL DEFAULT 14 _ZNK7android8hardware6Par
640:   FUNC GLOBAL DEFAULT 14 _ZN7android8hardware7deta
641:   FUNC GLOBAL DEFAULT 14 _ZN7android4hidl7manager4
642:   FUNC GLOBAL DEFAULT 14 _ZTv0_n24_N7android4hidl7
643:   FUNC GLOBAL DEFAULT 14 _ZN7android4hidl4base4V1_
644:   FUNC WEAK DEFAULT 14 _ZNK7android8hardware6Par
645:   FUNC WEAK DEFAULT 14 _ZNSt3__114__split_buffer
646:   FUNC GLOBAL DEFAULT 14 _ZN7android4hidl7manager4
647:   FUNC GLOBAL DEFAULT 14 _ZThn32_N7android4hidl7ma
648:   FUNC GLOBAL DEFAULT 14 _ZN7android4hidl7manager4
649:   FUNC GLOBAL DEFAULT 14 _ZN7android4hidl7manager4
650:   FUNC GLOBAL DEFAULT 14 _ZNK7android8hardware6Par
651:   FUNC GLOBAL DEFAULT 14 _ZN7android8hardware17joi
652:   FUNC GLOBAL DEFAULT 14 _ZN7android4hidl7manager4
653:   OBJECT GLOBAL DEFAULT 18 _ZTCN7android4hidl7manage
654:   FUNC GLOBAL DEFAULT 14 _ZN7android4hidl7manager4
655:   FUNC GLOBAL DEFAULT 14 _ZN7android4hidl7manager4
656:   FUNC GLOBAL DEFAULT 14 _ZN7android4hidl7manager4
657:   FUNC GLOBAL DEFAULT 14 _ZN7android4hidl7manager4
658:   FUNC GLOBAL DEFAULT 14 _ZN7android8hardware22rea
659:   FUNC WEAK DEFAULT 14 _ZNSt3__16__treeIiNS_4les
660:   OBJECT GLOBAL DEFAULT 18 _ZTVN7android4hidl7manage
661:   FUNC GLOBAL DEFAULT 14 _ZN7android8hardware7IBin
662:   OBJECT WEAK DEFAULT 18 _ZTVNSt3__111__lookaheadI
663:   FUNC GLOBAL DEFAULT 14 _ZN7android8hardware11hid
664:   OBJECT GLOBAL DEFAULT 18 _ZTCN7android4hidl7manage
665:   FUNC WEAK DEFAULT 14 _ZN7android2wpINS_8hardwa
666:   FUNC GLOBAL DEFAULT 14 _ZN7android4hidl7manager4
667:   FUNC GLOBAL DEFAULT 14 _ZTv0_n24_N7android8hardw
668:   FUNC GLOBAL DEFAULT 14 _ZN7android8hardware14IPC
669:   FUNC GLOBAL DEFAULT 14 _ZN7android8hardware6Parc
670:   FUNC GLOBAL DEFAULT 14 _ZTv0_n24_N7android8hardw
671:   FUNC WEAK DEFAULT 14 _ZNSt3__1rsIcNS_11char_tr
672:   FUNC GLOBAL DEFAULT 14 _ZTv0_n24_N7android4hidl7
673:   FUNC GLOBAL DEFAULT 14 _ZN7android8hardware14IPC
674:   OBJECT WEAK DEFAULT 18 _ZTVNSt3__116__owns_one_s
675:   FUNC GLOBAL DEFAULT 14 _ZN7android8hardware11hid
676:   FUNC GLOBAL DEFAULT 14 _ZN7android8hardware13wri
677:   OBJECT GLOBAL DEFAULT 18 _ZTVN7android4hidl7manage
678:   FUNC GLOBAL DEFAULT 14 _ZN7android4hidl4base4V1_
679:   FUNC GLOBAL DEFAULT 14 _ZN7android8hardware10BpH
680:   FUNC GLOBAL DEFAULT 14 _ZNK7android8hardware10Bp
681:   FUNC WEAK DEFAULT 14 _ZNSt3__115basic_stringbu
682:   FUNC GLOBAL DEFAULT 14 __getf2
683:   OBJECT WEAK DEFAULT 18 _ZTVNSt3__115basic_string
684:   FUNC WEAK DEFAULT 14 _ZNSt3__16vectorINS_12bas
685:   OBJECT GLOBAL DEFAULT 18 _ZTVN7android4hidl7manage
686:   FUNC GLOBAL DEFAULT 14 _ZN7android4hidl4base4V1_
687:   OBJECT GLOBAL DEFAULT 18 _ZTTN7android4hidl7manage
688:   FUNC GLOBAL DEFAULT 14 _ZN7android4hidl7manager4
689:   FUNC WEAK DEFAULT 14 _ZNKSt3__121__empty_non_o
690:   FUNC GLOBAL DEFAULT 14 _ZN7android8hardware24def
691:   FUNC GLOBAL DEFAULT 14 _ZN7android8hardware14IPC
692:   FUNC GLOBAL DEFAULT 14 _ZN7android4hidl7manager4
693:   FUNC GLOBAL DEFAULT 14 _ZN7android4hidl7manager4
694:   FUNC GLOBAL DEFAULT 14 _ZN7android8hardware9BHwB
695:   FUNC GLOBAL DEFAULT 14 _ZN7android4hidl7manager4
696:   FUNC GLOBAL DEFAULT 14 _ZN7android4hidl7manager4
697:   FUNC GLOBAL DEFAULT 14 _ZNK7android8hardware6Sta
698:   FUNC GLOBAL DEFAULT 14 _ZN7android4hidl7manager4
699:   FUNC GLOBAL DEFAULT 14 _ZN7android4hidl7manager4
700:   OBJECT WEAK DEFAULT 18 _ZTCN7android4hidl7manage
701:   FUNC WEAK DEFAULT 14 _ZN7android8hardware6Parc
702:   FUNC GLOBAL DEFAULT 14 _ZN7android8hardware6Parc
703:   OBJECT WEAK DEFAULT 18 _ZTVNSt3__111__alternateI
704:   FUNC GLOBAL DEFAULT 14 _ZN7android8hardware11hid
705:   OBJECT GLOBAL DEFAULT 18 _ZTCN7android8hardware7de
706:   FUNC GLOBAL DEFAULT 14 _ZN7android4hidl7manager4
707:   FUNC GLOBAL DEFAULT 14 _ZNK7android8hardware6Par
708:   FUNC GLOBAL DEFAULT 14 _ZN7android8hardware14rea
709:   FUNC GLOBAL DEFAULT 14 _ZN7android8hardware19han
710:   FUNC GLOBAL DEFAULT 14 _ZN7android4hidl7manager4
711:   OBJECT GLOBAL DEFAULT 18 _ZTCN7android4hidl7manage
712:   FUNC GLOBAL DEFAULT 14 _ZN7android8hardware6Parc
713:   FUNC GLOBAL DEFAULT 14 _ZN7android8hardware6Parc
714:   FUNC GLOBAL DEFAULT 14 _ZNK7android8hardware6Par
715:   FUNC GLOBAL DEFAULT 14 _ZN7android4hidl7manager4
716:   FUNC GLOBAL DEFAULT 14 _ZNK7android8hardware6Par
717:   FUNC GLOBAL DEFAULT 14 _ZN7android8hardware12Pro
718:   FUNC GLOBAL DEFAULT 14 _ZN7android8hardware9BHwB
719:   FUNC GLOBAL DEFAULT 14 _ZN7android8hardware6Parc
720:   FUNC GLOBAL DEFAULT 14 _ZNK7android8hardware6Par
721:   FUNC WEAK DEFAULT 14 _ZNSt3__111basic_regexIcN
722:   FUNC GLOBAL DEFAULT 14 _ZN7android4hidl7manager4
723:   FUNC WEAK DEFAULT 14 _ZNSt3__15dequeINS_7__sta
724:   OBJECT WEAK DEFAULT 18 _ZTVNSt3__120__bracket_ex
725:   FUNC WEAK DEFAULT 14 _ZN7android8hardware7deta
726:   FUNC GLOBAL DEFAULT 14 _ZN7android4hidl7manager4
727:   OBJECT GLOBAL DEFAULT 18 _ZTCN7android4hidl7manage
728:   FUNC GLOBAL DEFAULT 14 _ZN7android8hardware14IPC
729:   FUNC GLOBAL DEFAULT 14 _ZN7android8hardware6Parc
730:   FUNC GLOBAL DEFAULT 14 _ZN7android4hidl7manager4
731:   FUNC GLOBAL DEFAULT 14 _ZN7android4hidl4base4V1_
732:   FUNC GLOBAL DEFAULT 14 _ZN7android8hardware10BpH
733:   FUNC GLOBAL DEFAULT 14 _ZN7android8hardware10Hid
734:   FUNC GLOBAL DEFAULT 14 _ZN7android4hidl4base4V1_
735:   OBJECT GLOBAL DEFAULT 18 _ZTCN7android4hidl7manage
736:   FUNC GLOBAL DEFAULT 14 _ZN7android8hardware14IPC
737:   FUNC GLOBAL DEFAULT 14 _ZNK7android8hardware14IP
738:   FUNC WEAK DEFAULT 14 _ZNSt3__112__hash_tableIN
739:   FUNC GLOBAL DEFAULT 14 _ZN7android4hidl7manager4
740:   FUNC GLOBAL DEFAULT 14 _ZThn32_N7android4hidl7ma
741:   FUNC GLOBAL DEFAULT 14 _ZNK7android8hardware11hi
742:   FUNC GLOBAL DEFAULT 14 _ZN7android4hidl7manager4
743:   FUNC GLOBAL DEFAULT 14 _ZN7android4hidl7manager4
744:   FUNC GLOBAL DEFAULT 14 _ZN7android4hidl7manager4
745:   FUNC GLOBAL DEFAULT 14 _ZN7android8hardware18Buf
746:   FUNC GLOBAL DEFAULT 14 _ZN7android8hardware11hid
747:   FUNC GLOBAL DEFAULT 14 _ZN7android4hidl4base4V1_
748:   FUNC GLOBAL DEFAULT 14 _ZN7android4hidl7manager4
749:   FUNC GLOBAL DEFAULT 14 _ZN7android4hidl7manager4
750:   FUNC GLOBAL DEFAULT 14 _ZN7android8hardware12Pro
751:   FUNC GLOBAL DEFAULT 14 _ZN7android4hidl7manager4
752:   FUNC GLOBAL DEFAULT 14 _ZN7android8hardware14IPC
753:   FUNC WEAK DEFAULT 14 _ZNSt3__111basic_regexIcN
754:   FUNC GLOBAL DEFAULT 14 _ZNK7android8hardware11hi
755:   OBJECT WEAK DEFAULT 23 _ZGVZN7android8hardware25
756:   FUNC WEAK DEFAULT 14 _ZNSt3__113basic_filebufI
757:   FUNC GLOBAL DEFAULT 14 _ZN7android4hidl7manager4
758:   FUNC GLOBAL DEFAULT 14 _ZN7android4hidl4base4V1_
759:   FUNC GLOBAL DEFAULT 14 _ZNK7android8hardware6Par
760:   FUNC WEAK DEFAULT 14 _ZNSt3__15dequeINS_7__sta
761:   FUNC GLOBAL DEFAULT 14 _ZN7android8hardware11hid
762:   FUNC GLOBAL DEFAULT 14 _ZN7android8hardware7deta
763:   OBJECT GLOBAL DEFAULT 18 _ZTCN7android4hidl7manage
764:   FUNC GLOBAL DEFAULT 14 _ZNK7android8hardware6Par
765:   FUNC GLOBAL DEFAULT 14 _ZNK7android8hardware6Par
766:   FUNC GLOBAL DEFAULT 14 _ZN7android4hidl7manager4
767:   OBJECT GLOBAL DEFAULT 18 _ZTCN7android4hidl7manage
768:   FUNC GLOBAL DEFAULT 14 _ZN7android4hidl7manager4
769:   OBJECT GLOBAL DEFAULT 18 _ZTVN7android8hardware18B
770:   FUNC GLOBAL DEFAULT 14 _ZNK7android8hardware6Par
771:   FUNC GLOBAL DEFAULT 14 _ZNK7android8hardware7det
772:   FUNC WEAK DEFAULT 14 _ZNSt3__112__hash_tableIN
773:   FUNC GLOBAL DEFAULT 14 _ZN7android4hidl7manager4
774:   FUNC GLOBAL DEFAULT 14 _ZN7android4hidl7manager4
775:   FUNC GLOBAL DEFAULT 14 _ZN7android8hardware22rea
776:   FUNC GLOBAL DEFAULT 14 _ZN7android4hidl7manager4
777:   FUNC GLOBAL DEFAULT 14 _ZThn32_N7android4hidl7ma
778:   FUNC GLOBAL DEFAULT 14 _ZN7android8hardware21acq
779:   FUNC WEAK DEFAULT 14 _ZNSt3__16__treeINS_12__v
780:   FUNC GLOBAL DEFAULT 14 _ZN7android8hardware14IPC
781:   FUNC GLOBAL DEFAULT 14 _ZN7android4hidl7manager4
782:   OBJECT GLOBAL DEFAULT 18 _ZTCN7android4hidl7manage
783:   FUNC GLOBAL DEFAULT 14 _ZN7android4hidl4base4V1_
784:   FUNC GLOBAL DEFAULT 14 _ZN7android8hardware6Parc
785:   FUNC WEAK DEFAULT 14 _ZNSt3__111basic_regexIcN
786:   FUNC GLOBAL DEFAULT 14 _ZN7android8hardware6Stat
787:   FUNC GLOBAL DEFAULT 14 _ZN7android4hidl7manager4
788:   FUNC GLOBAL DEFAULT 14 _ZN7android4hidl7manager4
789:   FUNC GLOBAL DEFAULT 14 _ZN7android8hardware14acq
790:   FUNC WEAK DEFAULT 14 _ZNSt3__120__shared_ptr_e
791:   OBJECT WEAK DEFAULT 23 _ZZN7android8hardware25Pa
792:   FUNC GLOBAL DEFAULT 14 _ZN7android8hardware9BHwB
793:   OBJECT WEAK DEFAULT 18 _ZTVN7android4hidl7manage
794:   FUNC GLOBAL DEFAULT 14 _ZN7android4hidl7manager4
795:   OBJECT GLOBAL DEFAULT 18 _ZTVN7android4hidl7manage
796:   FUNC GLOBAL DEFAULT 14 _ZN7android4hidl7manager4
797:   FUNC GLOBAL DEFAULT 14 _ZN7android4hidl7manager4
798:   OBJECT GLOBAL DEFAULT 18 _ZTTN7android8hardware11B
799:   FUNC GLOBAL DEFAULT 14 _ZN7android8hardware10BpH
800:   FUNC WEAK DEFAULT 14 _ZNSt3__115basic_stringbu
801:   FUNC GLOBAL DEFAULT 14 _ZN7android8hardware14IPC
802:   FUNC GLOBAL DEFAULT 14 _ZN7android4hidl7manager4
803:   FUNC GLOBAL DEFAULT 14 _ZN7android8hardware14rel
804:   FUNC GLOBAL DEFAULT 14 __cmptf2
805:   FUNC WEAK DEFAULT 14 _ZNSt3__111basic_regexIcN
806:   OBJECT WEAK DEFAULT 18 _ZTVN7android8hardware7de
807:   FUNC GLOBAL DEFAULT 14 _ZN7android4hidl7manager4
808:   FUNC GLOBAL DEFAULT 14 _ZN7android8hardware10IIn
809:   OBJECT GLOBAL DEFAULT 18 _ZTCN7android4hidl7manage
810:   FUNC GLOBAL DEFAULT 14 _ZN7android4hidl7manager4
811:   FUNC GLOBAL DEFAULT 14 _ZN7android8hardware10BpH
812:   FUNC GLOBAL DEFAULT 14 _ZNK7android8hardware6Par
813:   FUNC GLOBAL DEFAULT 14 _ZNK7android8hardware6Par
814:   FUNC GLOBAL DEFAULT 14 _ZNK7android8hardware6Par
815:   FUNC GLOBAL DEFAULT 14 _ZN7android8hardware7deta
816:   FUNC WEAK DEFAULT 14 _ZNKSt3__115__word_bounda
817:   FUNC GLOBAL DEFAULT 14 _ZN7android8hardware10Hid
818:   FUNC WEAK DEFAULT 14 _ZNSt3__111basic_regexIcN
819:   FUNC GLOBAL DEFAULT 14 _ZN7android4hidl7manager4
820:   FUNC GLOBAL DEFAULT 14 _ZN7android4hidl7manager4
821:   OBJECT WEAK DEFAULT 18 _ZTVN7android4hidl7manage
822:   OBJECT GLOBAL DEFAULT 11 _ZN7android8hardware11hid
823:   OBJECT GLOBAL DEFAULT 23 _ZN7android8hardware7deta
824:   FUNC GLOBAL DEFAULT 14 _ZN7android8hardware22con
825:   FUNC GLOBAL DEFAULT 14 _ZNK7android8hardware6Par
826:   FUNC WEAK DEFAULT 14 _ZNSt3__110__function6__f
827:   FUNC GLOBAL DEFAULT 14 _ZN7android8hardware31set
828:   FUNC GLOBAL DEFAULT 14 _ZN7android4hidl4base4V1_
829:   FUNC GLOBAL DEFAULT 14 _ZN7android8hardware7deta
830:   FUNC GLOBAL DEFAULT 14 _ZN7android8hardware6Parc
831:   FUNC GLOBAL DEFAULT 14 _ZN7android4hidl7manager4
832:   FUNC GLOBAL DEFAULT 14 _ZN7android8hardware18Buf
833:   FUNC GLOBAL DEFAULT 14 _ZN7android8hardware6Parc
834:   FUNC GLOBAL DEFAULT 14 _ZN7android8hardwarelsERN
835:   OBJECT WEAK DEFAULT 18 _ZTVN7android6VectorINS_8
836:   FUNC GLOBAL DEFAULT 14 _ZN7android8hardware6Parc
837:   FUNC GLOBAL DEFAULT 14 _ZTv0_n24_N7android8hardw
838:   FUNC GLOBAL DEFAULT 14 _ZN7android8hardware31get
839:   FUNC WEAK DEFAULT 14 _ZNSt3__120__shared_ptr_p
840:   FUNC WEAK DEFAULT 14 _ZNSt3__120__shared_ptr_e
841:   FUNC GLOBAL DEFAULT 14 _ZN7android4hidl4base4V1_
842:   FUNC GLOBAL DEFAULT 14 _ZN7android8hardware11hid
843:   FUNC GLOBAL DEFAULT 14 _ZN7android8hardware6Parc
844:   FUNC GLOBAL DEFAULT 14 _ZN7android8hardware9BHwB
845:   OBJECT GLOBAL DEFAULT 18 _ZTCN7android4hidl7manage
846:   FUNC GLOBAL DEFAULT 14 _ZNK7android8hardware6Par
847:   FUNC GLOBAL DEFAULT 14 _ZN7android8hardware27hid
848:   FUNC GLOBAL DEFAULT 14 _ZN7android4hidl7manager4
849:   FUNC GLOBAL DEFAULT 14 _ZN7android8hardware7deta
850:   FUNC WEAK DEFAULT 14 _ZNKSt3__111__match_anyIc
851:   FUNC WEAK DEFAULT 14 _ZNSt3__114__split_buffer
852:   FUNC GLOBAL DEFAULT 14 _ZN7android4hidl7manager4
853:   FUNC GLOBAL DEFAULT 14 _ZN7android4hidl7manager4
854:   FUNC GLOBAL DEFAULT 14 _ZNK7android8hardware6Par
855:   FUNC GLOBAL DEFAULT 14 _ZN7android8hardware12Pro
856:   FUNC WEAK DEFAULT 14 _ZN7android4base9ParseUin
857:   OBJECT GLOBAL DEFAULT 16 _ZN7android4hidl7manager4
858:   FUNC GLOBAL DEFAULT 14 _ZN7android8hardware11hid
859:   FUNC GLOBAL DEFAULT 14 _ZN7android8hardware11hid
860:   FUNC GLOBAL DEFAULT 14 _ZN7android8hardware11hid
861:   FUNC WEAK DEFAULT 14 _ZNSt3__111basic_regexIcN
862:   OBJECT GLOBAL DEFAULT 18 _ZTCN7android4hidl7manage
863:   FUNC GLOBAL DEFAULT 14 _ZNK7android8hardware6Par
864:   OBJECT GLOBAL DEFAULT 18 _ZTCN7android4hidl7manage
865:   FUNC GLOBAL DEFAULT 14 _ZN7android4hidl7manager4
866:   OBJECT GLOBAL DEFAULT 18 _ZTVN7android4hidl7manage
867:   FUNC GLOBAL DEFAULT 14 _ZN7android8hardware14IPC
868:   OBJECT WEAK DEFAULT 18 _ZTVN7android6VectorINS_2
869:   FUNC WEAK DEFAULT 14 _ZNSt3__111basic_regexIcN
870:   OBJECT WEAK DEFAULT 18 _ZTCN7android8hardware7de
871:   FUNC GLOBAL DEFAULT 14 _ZN7android4hidl7manager4
872:   FUNC GLOBAL DEFAULT 14 _ZN7android8hardware7deta
873:   FUNC GLOBAL DEFAULT 14 __subtf3
874:   FUNC GLOBAL DEFAULT 14 _ZN7android4hidl7manager4
875:   FUNC GLOBAL DEFAULT 14 _ZN7android4hidl7manager4
876:   FUNC GLOBAL DEFAULT 14 _ZN7android4hidl4base4V1_
877:   OBJECT WEAK DEFAULT 18 _ZTTN7android8hardware11B
878:   FUNC GLOBAL DEFAULT 14 _ZN7android8hardware10IIn
879:   FUNC GLOBAL DEFAULT 14 _ZN7android8hardware6Parc
880:   FUNC WEAK DEFAULT 14 _ZNSt3__16vectorINS_12bas
881:   OBJECT GLOBAL DEFAULT 18 _ZTTN7android4hidl7manage
882:   FUNC WEAK DEFAULT 14 _ZN7android8hardware7deta
883:   FUNC GLOBAL DEFAULT 14 _ZN7android8hardware14IPC
884:   FUNC GLOBAL DEFAULT 14 _ZNK7android8hardware6Par
885:   FUNC WEAK DEFAULT 14 _ZNSt3__16__treeINS_12__v
886:   FUNC GLOBAL DEFAULT 14 _ZN7android8hardware11BpH
887:   OBJECT GLOBAL DEFAULT 18 _ZTVN7android4hidl4base4V
888:   FUNC GLOBAL DEFAULT 14 _ZN7android8hardware10BpH
889:   FUNC WEAK DEFAULT 14 _ZNKSt3__126__end_marked_
890:   FUNC GLOBAL DEFAULT 14 _ZN7android8hardware11hid
891:   FUNC WEAK DEFAULT 14 _ZN7android8hardware10fro
892:   OBJECT GLOBAL DEFAULT 18 _ZTCN7android4hidl7manage
893:   FUNC WEAK DEFAULT 14 _ZNSt3__16vectorINS_4pair
894:   OBJECT WEAK DEFAULT 18 _ZTVNSt3__120__match_char
895:   FUNC GLOBAL DEFAULT 14 _ZN7android8hardware11BpH
896:   FUNC GLOBAL DEFAULT 14 _ZNK7android8hardware6Par
897:   OBJECT GLOBAL DEFAULT 18 _ZTVN7android4hidl7manage
898:   FUNC GLOBAL DEFAULT 14 _ZN7android4hidl7manager4
899:   FUNC WEAK DEFAULT 14 _ZNSt3__114__split_buffer
900:   FUNC GLOBAL DEFAULT 14 _ZN7android8hardware7deta
901:   OBJECT WEAK DEFAULT 23 _ZZN7android8hardware25Pa
902:   FUNC GLOBAL DEFAULT 14 _ZN7android8hardware10BpH
903:   FUNC WEAK DEFAULT 14 _ZNKSt3__118__back_ref_co
904:   FUNC GLOBAL DEFAULT 14 _ZN7android8hardware11hid
905:   OBJECT WEAK DEFAULT 18 _ZTTN7android8hardware7de
906:   OBJECT GLOBAL DEFAULT 18 _ZTCN7android4hidl7manage
907:   FUNC WEAK DEFAULT 14 _ZNKSt3__111__alternateIc
908:   OBJECT GLOBAL DEFAULT 23 _ZN7android8hardware7deta
909:   FUNC WEAK DEFAULT 14 _ZNSt3__1plIcNS_11char_tr
910:   OBJECT WEAK DEFAULT 18 _ZTCN7android4hidl7manage
911:   FUNC GLOBAL DEFAULT 14 _ZN7android8hardware21set
912:   FUNC WEAK DEFAULT 14 _ZNSt3__111basic_regexIcN
913:   OBJECT GLOBAL DEFAULT 18 _ZTCN7android8hardware10B
914:   FUNC GLOBAL DEFAULT 14 _ZN7android4hidl7manager4
915:   FUNC GLOBAL DEFAULT 14 _ZN7android8hardware6Parc
916:   FUNC GLOBAL DEFAULT 14 printHexData
917:   FUNC GLOBAL DEFAULT 14 _ZN7android4hidl7manager4
918:   FUNC GLOBAL DEFAULT 14 _ZN7android8hardware6Parc
919:   FUNC GLOBAL DEFAULT 14 _ZN7android4hidl7manager4
920:   FUNC WEAK DEFAULT 14 _ZNSt3__111basic_regexIcN
921:   FUNC WEAK DEFAULT 14 _ZNSt3__114__split_buffer
922:   FUNC GLOBAL DEFAULT 14 _ZN7android4hidl4base4V1_
923:   FUNC GLOBAL DEFAULT 14 _ZTv0_n24_N7android4hidl4
924:   FUNC WEAK DEFAULT 14 _ZNKSt3__120__match_char_
925:   OBJECT WEAK DEFAULT 18 _ZTVNSt3__110__function6_
926:   FUNC GLOBAL DEFAULT 14 _ZN7android8hardware20Laz
927:   FUNC WEAK DEFAULT 14 _ZNSt3__16vectorIN7androi
928:   FUNC GLOBAL DEFAULT 14 _ZN7android8hardware16set
929:   FUNC GLOBAL DEFAULT 14 _ZN7android4hidl7manager4
930:   FUNC GLOBAL DEFAULT 14 _ZNK7android8hardware6Par
931:   FUNC WEAK DEFAULT 14 _ZNKSt3__16__loopIcE12__e
932:   FUNC WEAK DEFAULT 14 _ZNSt3__16vectorINS_4pair
933:   FUNC GLOBAL DEFAULT 14 _ZN7android8hardware14IPC
934:   FUNC WEAK DEFAULT 14 _ZNK7android8hardware6Par
935:   FUNC GLOBAL DEFAULT 14 _ZN7android8hardware10Hid
936:   FUNC GLOBAL DEFAULT 14 _ZN7android8hardware14IPC
937:   FUNC GLOBAL DEFAULT 14 _ZN7android8hardware6Parc
938:   FUNC GLOBAL DEFAULT 14 _ZN7android4hidl7manager4
939:   OBJECT WEAK DEFAULT 18 _ZTVNSt3__112__match_char
940:   FUNC WEAK DEFAULT 14 _ZNKSt3__112regex_traitsI
941:   FUNC GLOBAL DEFAULT 14 _ZN7android4hidl7manager4
942:   FUNC GLOBAL DEFAULT 14 _ZN7android4hidl7manager4
943:   FUNC GLOBAL DEFAULT 14 _ZN7android8hardware10Hid
944:   FUNC GLOBAL DEFAULT 14 _ZN7android8hardware11hid
945:   FUNC WEAK DEFAULT 14 _ZNK7android8hardware6Par
946:   FUNC WEAK DEFAULT 14 _ZNKSt3__120__bracket_exp
947:   OBJECT WEAK DEFAULT 18 _ZTVNSt3__117__owns_two_s
948:   FUNC GLOBAL DEFAULT 14 _ZN7android4hidl7manager4
949:   OBJECT WEAK DEFAULT 18 _ZTVNSt3__118basic_string
950:   FUNC WEAK DEFAULT 14 _ZNSt3__114__split_buffer
951:   FUNC GLOBAL DEFAULT 14 _ZN7android4hidl4base4V1_
952:   OBJECT GLOBAL DEFAULT 18 _ZTTN7android4hidl7manage
953:   FUNC WEAK DEFAULT 14 _ZNSt3__111basic_regexIcN
954:   FUNC GLOBAL DEFAULT 14 _ZN7android4hidl7manager4
955:   FUNC GLOBAL DEFAULT 14 _ZN7android4hidl7manager4
956:   FUNC WEAK DEFAULT 14 _ZNSt3__114__split_buffer
957:   OBJECT GLOBAL DEFAULT 18 _ZTCN7android4hidl7manage
958:   FUNC GLOBAL DEFAULT 14 _ZNK7android8hardware6Par
959:   FUNC GLOBAL DEFAULT 14 _ZN7android4hidl7manager4
960:   FUNC GLOBAL DEFAULT 14 _ZN7android8hardware6Parc
961:   FUNC WEAK DEFAULT 14 _ZN7android8hardware7deta
962:   FUNC GLOBAL DEFAULT 14 _ZN7android8hardware10Tex
963:   FUNC GLOBAL DEFAULT 14 _ZN7android8hardware27hid
964:   FUNC GLOBAL DEFAULT 14 _ZN7android8hardware7deta
965:   FUNC WEAK DEFAULT 14 _ZNSt3__16__treeINS_12__v
966:   FUNC GLOBAL DEFAULT 14 _ZN7android4hidl7manager4
967:   FUNC GLOBAL DEFAULT 14 getHWBinderKernelReferenc
968:   FUNC WEAK DEFAULT 14 _ZNSt3__117__owns_two_sta
969:   FUNC GLOBAL DEFAULT 14 _ZN7android4hidl4base4V1_
970:   FUNC WEAK DEFAULT 14 _ZNSt3__16__treeINS_12__v
971:   FUNC GLOBAL DEFAULT 14 _ZTv0_n24_N7android8hardw
972:   OBJECT GLOBAL DEFAULT 23 _ZN7android8hardware13gPr
973:   FUNC GLOBAL DEFAULT 14 _ZN7android4hidl7manager4
974:   FUNC GLOBAL DEFAULT 14 _ZNK7android8hardware6Par
975:   OBJECT WEAK DEFAULT 18 _ZTVNSt3__118__back_ref_c
976:   FUNC GLOBAL DEFAULT 14 _ZN7android4hidl4base4V1_
977:   FUNC GLOBAL DEFAULT 14 _ZN7android4hidl7manager4
978:   FUNC GLOBAL DEFAULT 14 _ZN7android4hidl7manager4
979:   FUNC GLOBAL DEFAULT 14 _ZN7android4hidl7manager4
980:   FUNC GLOBAL DEFAULT 14 _ZNK7android8hardware6Par
981:   FUNC WEAK DEFAULT 14 _ZNSt3__111basic_regexIcN
982:   OBJECT GLOBAL DEFAULT 18 _ZTVN7android4hidl7manage
983:   OBJECT GLOBAL DEFAULT 18 _ZTVN7android4hidl7manage
984:   FUNC GLOBAL DEFAULT 14 _ZThn32_N7android4hidl7ma
985:   FUNC GLOBAL DEFAULT 14 _ZNK7android8hardware6Par
986:   FUNC GLOBAL DEFAULT 14 _ZN7android8hardware10Hid
987:   FUNC GLOBAL DEFAULT 14 _ZN7android4hidl7manager4
988:   FUNC GLOBAL DEFAULT 14 _ZTv0_n24_N7android8hardw
989:   FUNC GLOBAL DEFAULT 14 _ZNK7android8hardware11hi
990:   FUNC GLOBAL DEFAULT 14 _ZN7android8hardware14IPC
991:   FUNC GLOBAL DEFAULT 14 _ZN7android4hidl7manager4
992:   FUNC GLOBAL DEFAULT 14 __fe_getround
993:   FUNC GLOBAL DEFAULT 14 _ZN7android8hardware14IPC
994:   FUNC WEAK DEFAULT 14 _ZNSt3__16__treeINS_12__v
995:   FUNC GLOBAL DEFAULT 14 _ZN7android4hidl7manager4
996:   OBJECT WEAK DEFAULT 18 _ZTCNSt3__118basic_string
997:   FUNC GLOBAL DEFAULT 14 _ZN7android8hardware12Pro
998:   FUNC WEAK DEFAULT 14 _ZNSt3__16vectorINS_8func
999:   FUNC GLOBAL DEFAULT 14 _ZN7android8hardware16han
1000:   FUNC GLOBAL DEFAULT 14 _ZN7android8hardware27hid
1001:   FUNC GLOBAL DEFAULT 14 _ZN7android4hidl7manager4
1002:   FUNC GLOBAL DEFAULT 14 _ZN7android4hidl7manager4
1003:   OBJECT WEAK DEFAULT 18 _ZTVN7android6VectorIiEE
1004:   FUNC GLOBAL DEFAULT 14 _ZN7android8hardware6Stat
1005:   OBJECT GLOBAL DEFAULT 18 _ZTCN7android8hardware7de
1006:   FUNC GLOBAL DEFAULT 14 _ZN7android4hidl7manager4
1007:   FUNC GLOBAL DEFAULT 14 _ZN7android8hardware9BHwB
1008:   FUNC GLOBAL DEFAULT 14 _ZN7android4hidl7manager4
1009:   OBJECT GLOBAL DEFAULT 18 _ZTCN7android4hidl7manage
1010:   FUNC WEAK DEFAULT 14 _ZNSt3__111basic_regexIcN
1011:   FUNC GLOBAL DEFAULT 14 _ZN7android8hardware6Parc
1012:   FUNC WEAK DEFAULT 14 _ZNSt3__16vectorIPvNS_9al
1013:   FUNC GLOBAL DEFAULT 14 _ZN7android4hidl7manager4
1014:   FUNC GLOBAL DEFAULT 14 _ZN7android4hidl7manager4
1015:   FUNC GLOBAL DEFAULT 14 _ZNK7android8hardware18Bu
1016:   FUNC GLOBAL DEFAULT 14 _ZN7android8hardware6Parc
1017:   FUNC GLOBAL DEFAULT 14 _ZN7android8hardware7IBin
1018:   FUNC GLOBAL DEFAULT 14 _ZN7android8hardware11hid
1019:   FUNC WEAK DEFAULT 14 _ZNSt3__15dequeINS_8funct
1020:   OBJECT GLOBAL DEFAULT 18 _ZTTN7android8hardware7IB
1021:   FUNC GLOBAL DEFAULT 14 _ZN7android8hardware7deta
1022:   OBJECT GLOBAL DEFAULT 18 _ZTCN7android4hidl7manage
1023:   OBJECT WEAK DEFAULT 18 _ZTCN7android8hardware11B
1024:   FUNC GLOBAL DEFAULT 14 _ZN7android8hardware14IPC
1025:   FUNC GLOBAL DEFAULT 14 _ZTv0_n24_N7android4hidl7
1026:   FUNC GLOBAL DEFAULT 14 _ZN7android4hidl4base4V1_
1027:   OBJECT GLOBAL DEFAULT 18 _ZTTN7android8hardware9BH
1028:   OBJECT GLOBAL DEFAULT 18 _ZTTN7android8hardware10H
1029:   FUNC WEAK DEFAULT 14 _ZNSt3__16__treeINS_12__v
1030:   FUNC GLOBAL DEFAULT 14 _ZN7android4hidl7manager4
1031:   FUNC GLOBAL DEFAULT 14 _ZN7android4hidl7manager4
1032:   FUNC GLOBAL DEFAULT 14 _ZN7android8hardware10BpH
1033:   FUNC GLOBAL DEFAULT 14 _ZN7android8hardware14IPC
1034:   FUNC WEAK DEFAULT 14 _ZNSt3__114__split_buffer
1035:   FUNC GLOBAL DEFAULT 14 _ZN7android8hardware11BpH
1036:   FUNC GLOBAL DEFAULT 14 _ZN7android8hardware10BpH
1037:   FUNC GLOBAL DEFAULT 14 _ZN7android8hardware14IPC
1038:   FUNC GLOBAL DEFAULT 14 _ZNK7android8hardware6Par
1039:   FUNC GLOBAL DEFAULT 14 _ZN7android8hardware7deta
1040:   OBJECT WEAK DEFAULT 18 _ZTCNSt3__119basic_ostrin
1041:   FUNC WEAK DEFAULT 14 _ZNSt3__113__tree_removeI
1042:   OBJECT WEAK DEFAULT 23 _ZZN7android8hardware25Pa
1043:   FUNC GLOBAL DEFAULT 14 _ZN7android4hidl7manager4
1044:   FUNC GLOBAL DEFAULT 14 _ZTv0_n48_N7android8hardw
1045:   OBJECT GLOBAL DEFAULT 18 _ZTCN7android4hidl7manage
1046:   FUNC GLOBAL DEFAULT 14 _ZN7android4hidl7manager4
1047:   FUNC GLOBAL DEFAULT 14 _ZN7android4hidl7manager4
1048:   OBJECT GLOBAL DEFAULT 18 _ZTCN7android4hidl7manage
1049:   FUNC GLOBAL DEFAULT 14 _ZTv0_n24_N7android4hidl7
1050:   FUNC GLOBAL DEFAULT 14 _ZN7android8hardware10BpH
1051:   FUNC WEAK DEFAULT 14 _ZNSt3__111basic_regexIcN
1052:   FUNC GLOBAL DEFAULT 14 _ZN7android4hidl4base4V1_
1053:   OBJECT GLOBAL DEFAULT 18 _ZTVN7android8hardware10H
1054:   OBJECT GLOBAL DEFAULT 18 _ZTCN7android8hardware27h
1055:   FUNC GLOBAL DEFAULT 14 _ZN7android8hardware7IBin
1056:   FUNC GLOBAL DEFAULT 14 _ZN7android4hidl7manager4
1057:   FUNC GLOBAL DEFAULT 14 _ZN7android8hardware7deta
1058:   FUNC GLOBAL DEFAULT 14 _ZN7android4hidl7manager4
1059:   FUNC GLOBAL DEFAULT 14 _ZN7android4hidl4base4V1_
1060:   FUNC GLOBAL DEFAULT 14 _ZTv0_n24_N7android8hardw
1061:   FUNC GLOBAL DEFAULT 14 _ZN7android8hardware7deta
1062:   FUNC GLOBAL DEFAULT 14 _ZN7android8hardware7deta
1063:   FUNC WEAK DEFAULT 14 _ZNKSt3__117__repeat_one_
1064:   OBJECT WEAK DEFAULT 18 _ZTVNSt3__128__begin_mark
1065:   FUNC GLOBAL DEFAULT 14 _ZN7android8hardware7deta
1066:   FUNC WEAK DEFAULT 14 _ZNKSt3__16__treeINS_12__
1067:   FUNC GLOBAL DEFAULT 14 _ZN7android8hardware14fla
1068:   FUNC WEAK DEFAULT 14 _ZNSt3__15dequeINS_7__sta
1069:   FUNC WEAK DEFAULT 14 _ZN7android8hardware7deta
1070:   FUNC GLOBAL DEFAULT 14 _ZThn32_N7android4hidl7ma
1071:   OBJECT GLOBAL DEFAULT 16 _ZN7android4hidl7manager4
1072:   FUNC GLOBAL DEFAULT 14 _ZN7android4hidl7manager4
1073:   FUNC GLOBAL DEFAULT 14 _ZN7android4hidl4base4V1_
1074:   FUNC GLOBAL DEFAULT 14 _ZN7android4hidl7manager4
1075:   FUNC GLOBAL DEFAULT 14 _ZN7android4hidl7manager4
1076:   FUNC GLOBAL DEFAULT 14 _ZNK7android8hardware6Par
1077:   FUNC GLOBAL DEFAULT 14 _ZN7android8hardware11hid
1078:   FUNC GLOBAL DEFAULT 14 _ZN7android4hidl7manager4
1079:   FUNC GLOBAL DEFAULT 14 _ZNK7android8hardware7IBi
1080:   FUNC GLOBAL DEFAULT 14 _ZN7android8hardware6Parc
1081:   FUNC WEAK DEFAULT 14 _ZNKSt3__110__l_anchorIcE
1082:   FUNC WEAK DEFAULT 14 _ZNKSt3__128__begin_marke
1083:   FUNC GLOBAL DEFAULT 14 __multf3
1084:   FUNC GLOBAL DEFAULT 14 _ZN7android8hardware7deta
1085:   FUNC WEAK DEFAULT 14 _ZNKSt3__111basic_regexIc
1086:   FUNC WEAK DEFAULT 14 _ZNSt3__111basic_regexIcN
1087:   OBJECT GLOBAL DEFAULT 23 _ZN7android8hardware7deta
1088:   FUNC GLOBAL DEFAULT 14 _ZN7android8hardware11hid
1089:   FUNC GLOBAL DEFAULT 14 _ZN7android4hidl4base4V1_
1090:   OBJECT GLOBAL DEFAULT 18 _ZTVN7android8hardware11B
1091:   FUNC WEAK DEFAULT 14 _ZNKSt3__116__back_ref_ic
1092:   FUNC WEAK DEFAULT 14 _ZNSt3__111basic_regexIcN
1093:   OBJECT WEAK DEFAULT 18 _ZTVNSt3__110__back_refIc
1094:   FUNC GLOBAL DEFAULT 14 _ZN7android4hidl7manager4
1095:   FUNC GLOBAL DEFAULT 14 _ZN7android8hardware9BHwB
1096:   OBJECT GLOBAL DEFAULT 23 _ZN7android8hardware8gPro
1097:   FUNC WEAK DEFAULT 14 _ZNKSt3__111basic_regexIc
1098:   FUNC GLOBAL DEFAULT 14 _ZN7android8hardware11hid
1099:   OBJECT GLOBAL DEFAULT 18 _ZTTN7android8hardware12P
1100:   FUNC WEAK DEFAULT 14 _ZNSt3__111basic_regexIcN
1101:   FUNC WEAK DEFAULT 14 _ZNSt3__111basic_regexIcN
1102:   OBJECT GLOBAL DEFAULT 18 _ZTVN7android4hidl7manage
1103:   FUNC GLOBAL DEFAULT 14 _ZN7android4hidl7manager4
1104:   FUNC GLOBAL DEFAULT 14 _ZN7android4hidl7manager4
1105:   OBJECT WEAK DEFAULT 18 _ZTVN7android4hidl4base4V
1106:   FUNC WEAK DEFAULT 14 _ZN7android2spINS_8hardwa
1107:   FUNC GLOBAL DEFAULT 14 _ZN7android4hidl7manager4
1108:   FUNC GLOBAL DEFAULT 14 _ZN7android4hidl7manager4
1109:   FUNC GLOBAL DEFAULT 14 _ZN7android8hardware10Tex
1110:   FUNC GLOBAL DEFAULT 14 _ZN7android8hardware6Parc
1111:   FUNC WEAK DEFAULT 14 _ZNSt3__117__owns_two_sta
1112:   FUNC GLOBAL DEFAULT 14 _ZTv0_n32_N7android8hardw
1113:   FUNC GLOBAL DEFAULT 14 _ZN7android4hidl7manager4
1114:   FUNC GLOBAL DEFAULT 14 _ZN7android4hidl7manager4
1115:   FUNC GLOBAL DEFAULT 14 _ZN7android8hardware10BpH
1116:   FUNC GLOBAL DEFAULT 14 _ZNK7android8hardware6Par
1117:   OBJECT GLOBAL DEFAULT 18 _ZN7android8hardware4alog
1118:   FUNC WEAK DEFAULT 14 _ZNKSt3__16__loopIcE6__ex
1119:   FUNC WEAK DEFAULT 14 _ZNSt3__16vectorIcNS_9all
1120:   OBJECT WEAK DEFAULT 18 _ZTTNSt3__114basic_ifstre
1121:   FUNC WEAK DEFAULT 14 _ZNSt3__111basic_regexIcN
1122:   FUNC GLOBAL DEFAULT 14 _ZN7android8hardware9BHwB
1123:   FUNC GLOBAL DEFAULT 14 _ZN7android4hidl7manager4
1124:   FUNC GLOBAL DEFAULT 14 _ZN7android4hidl7manager4
1125:   FUNC GLOBAL DEFAULT 14 _ZNK7android8hardware6Par
1126:   FUNC WEAK DEFAULT 14 _ZNKSt3__111basic_regexIc
1127:   OBJECT WEAK DEFAULT 18 _ZTVNSt3__117__repeat_one
1128:   OBJECT WEAK DEFAULT 18 _ZTVNSt3__126__end_marked
1129:   FUNC WEAK DEFAULT 14 _ZN7android8hardware7deta
1130:   FUNC GLOBAL DEFAULT 14 _ZN7android8hardware7deta
1131:   OBJECT GLOBAL DEFAULT 18 _ZTCN7android4hidl4base4V
1132:   FUNC GLOBAL DEFAULT 14 _ZN7android8hardware9BHwB
1133:   FUNC WEAK DEFAULT 14 _ZNKSt3__111__end_stateIc
1134:   FUNC GLOBAL DEFAULT 14 _ZN7android4hidl7manager4
1135:   OBJECT GLOBAL DEFAULT 18 _ZTTN7android4hidl7manage
1136:   FUNC GLOBAL DEFAULT 14 _ZN7android4hidl7manager4
1137:   OBJECT GLOBAL DEFAULT 18 _ZTCN7android4hidl7manage
1138:   FUNC GLOBAL DEFAULT 14 _ZN7android8hardware14IPC
1139:   FUNC GLOBAL DEFAULT 14 _ZNK7android8hardware6Par
1140:   FUNC GLOBAL DEFAULT 14 _ZN7android8hardware12Pro
1141:   FUNC WEAK DEFAULT 14 _ZNSt3__111basic_regexIcN
1142:   FUNC WEAK DEFAULT 14 _ZN7android8hardware7deta
1143:   FUNC WEAK DEFAULT 14 _ZNSt3__16vectorINS_4pair
1144:   OBJECT WEAK DEFAULT 18 _ZTTNSt3__113basic_fstrea
1145:   FUNC WEAK DEFAULT 14 _ZNSt3__113basic_filebufI
1146:   FUNC GLOBAL DEFAULT 14 _ZN7android8hardware16unf
1147:   OBJECT GLOBAL DEFAULT 18 _ZTCN7android4hidl7manage
1148:   FUNC GLOBAL DEFAULT 14 _ZN7android4hidl7manager4
1149:   OBJECT WEAK DEFAULT 18 _ZTVNSt3__116__back_ref_i
1150:   FUNC GLOBAL DEFAULT 14 _ZN7android4hidl7manager4
1151:   FUNC GLOBAL DEFAULT 14 _ZN7android8hardware10IIn
1152:   FUNC GLOBAL DEFAULT 14 _ZN7android8hardware9BHwB
1153:   FUNC GLOBAL DEFAULT 14 _ZNK7android8hardware9BHw
1154:   FUNC GLOBAL DEFAULT 14 _ZTv0_n24_N7android4hidl7
1155:   FUNC GLOBAL DEFAULT 14 _ZN7android4hidl7manager4
1156:   OBJECT WEAK DEFAULT 18 _ZTVN7android6VectorIPNS_
1157:   OBJECT WEAK DEFAULT 18 _ZTVNSt3__113basic_filebu
1158:   FUNC GLOBAL DEFAULT 14 _ZN7android4hidl7manager4
1159:   FUNC GLOBAL DEFAULT 14 _ZN7android8hardware14IPC
1160:   FUNC GLOBAL DEFAULT 14 _ZNK7android8hardware6Par
1161:   OBJECT WEAK DEFAULT 18 _ZTVN7android12SortedVect
1162:   FUNC WEAK DEFAULT 14 _ZNSt3__116__owns_one_sta
1163:   FUNC WEAK DEFAULT 14 _ZNSt3__16vectorINS_7__st
1164:   FUNC WEAK DEFAULT 14 _ZNSt3__111basic_regexIcN
1165:   FUNC GLOBAL DEFAULT 14 _ZN7android8hardware14IPC
1166:   FUNC GLOBAL DEFAULT 14 _ZN7android8hardware6Stat
1167:   FUNC GLOBAL DEFAULT 14 _ZN7android4hidl7manager4
1168:   FUNC GLOBAL DEFAULT 14 _ZN7android4hidl7manager4
1169:   OBJECT GLOBAL DEFAULT 18 _ZTCN7android4hidl7manage
1170:   FUNC GLOBAL DEFAULT 14 _ZN7android8hardware6Parc
1171:   FUNC WEAK DEFAULT 14 _ZNSt3__111basic_regexIcN
1172:   FUNC WEAK DEFAULT 14 _ZNSt3__113basic_filebufI
1173:   OBJECT WEAK DEFAULT 18 _ZTCNSt3__113basic_fstrea
1174:   FUNC GLOBAL DEFAULT 14 _ZN7android4hidl7manager4
1175:   FUNC WEAK DEFAULT 14 _ZNKSt3__112regex_traitsI
1176:   FUNC WEAK DEFAULT 14 _ZNSt3__111basic_regexIcN
1177:   OBJECT WEAK DEFAULT 18 _ZTCNSt3__113basic_fstrea
1178:   OBJECT WEAK DEFAULT 23 _ZZN7android8hardware25Pa
1179:   FUNC GLOBAL DEFAULT 14 _ZN7android4hidl7manager4
1180:   FUNC GLOBAL DEFAULT 14 _ZN7android4hidl7manager4
1181:   FUNC WEAK DEFAULT 14 _ZNSt3__16vectorINS_9sub_
1182:   FUNC GLOBAL DEFAULT 14 _ZN7android8hardware7deta
1183:   FUNC WEAK DEFAULT 14 _ZN7android2spINS_8hardwa
1184:   FUNC GLOBAL DEFAULT 14 _ZN7android4hidl7manager4
1185:   FUNC GLOBAL DEFAULT 14 _ZN7android4hidl7manager4
1186:   OBJECT GLOBAL DEFAULT 18 _ZTCN7android4hidl4base4V
1187:   FUNC GLOBAL DEFAULT 14 __netf2
1188:   FUNC WEAK DEFAULT 14 _ZNSt3__111basic_regexIcN
1189:   FUNC GLOBAL DEFAULT 14 _ZN7android4hidl4base4V1_
1190:   FUNC GLOBAL DEFAULT 14 _ZN7android8hardware10BpH
1191:   FUNC GLOBAL DEFAULT 14 _ZN7android8hardware12Pro
1192:   FUNC GLOBAL DEFAULT 14 _ZN7android4hidl7manager4
1193:   OBJECT GLOBAL DEFAULT 18 _ZTCN7android4hidl7manage
1194:   FUNC GLOBAL DEFAULT 14 _ZN7android4hidl7manager4
1195:   OBJECT WEAK DEFAULT 18 _ZTVN7android8hardware11B
1196:   FUNC GLOBAL DEFAULT 14 _ZN7android8hardware14IPC
1197:   FUNC GLOBAL DEFAULT 14 _ZN7android8hardware14IPC
1198:   OBJECT WEAK DEFAULT 23 _ZGVZN7android8hardware25
1199:   FUNC GLOBAL DEFAULT 14 _ZN7android4hidl7manager4
1200:   OBJECT GLOBAL DEFAULT 18 _ZTCN7android4hidl7manage
1201:   FUNC GLOBAL DEFAULT 14 _ZN7android8hardware11hid
1202:   FUNC WEAK DEFAULT 14 _ZNSt3__111basic_regexIcN
1203:   FUNC GLOBAL DEFAULT 14 _ZN7android8hardware11BpH
1204:   FUNC GLOBAL DEFAULT 14 _ZN7android4hidl7manager4
1205:   FUNC GLOBAL DEFAULT 14 _ZN7android4hidl7manager4
1206:   FUNC GLOBAL DEFAULT 14 _ZTv0_n24_N7android4hidl7
1207:   FUNC WEAK DEFAULT 14 _ZNSt3__111basic_regexIcN
1208:   FUNC GLOBAL DEFAULT 14 _ZN7android4hidl7manager4
1209:   FUNC GLOBAL DEFAULT 14 _ZN7android4hidl7manager4
1210:   FUNC GLOBAL DEFAULT 14 _ZN7android4hidl7manager4
1211:   FUNC WEAK DEFAULT 14 _ZN7android8hardware6Parc
1212:   FUNC GLOBAL DEFAULT 14 _ZTv0_n40_N7android8hardw
1213:   FUNC GLOBAL DEFAULT 14 _ZN7android8hardware6Parc
1214:   OBJECT WEAK DEFAULT 18 _ZTVNSt3__113__empty_stat
1215:   FUNC GLOBAL DEFAULT 14 _ZN7android4hidl7manager4
1216:   FUNC GLOBAL DEFAULT 14 _ZN7android4hidl7manager4
1217:   FUNC GLOBAL DEFAULT 14 _ZN7android4hidl7manager4
1218:   FUNC GLOBAL DEFAULT 14 _ZN7android4hidl4base4V1_
1219:   FUNC GLOBAL DEFAULT 14 _ZNK7android8hardware6Par
1220:   FUNC GLOBAL DEFAULT 14 _ZN7android4hidl4base4V1_
1221:   FUNC WEAK DEFAULT 14 _ZN7android8hardware7deta
1222:   FUNC GLOBAL DEFAULT 14 _ZNK7android8hardware10Bp
1223:   FUNC GLOBAL DEFAULT 14 _ZTv0_n24_N7android8hardw
1224:   FUNC GLOBAL DEFAULT 14 _ZThn32_N7android4hidl4ba
1225:   FUNC GLOBAL DEFAULT 14 stringForIndent
1226:   FUNC GLOBAL DEFAULT 14 _ZN7android8hardware7deta
1227:   FUNC WEAK DEFAULT 14 _ZN7android8hardware7deta
1228:   OBJECT GLOBAL DEFAULT 18 _ZTVN7android4hidl7manage
1229:   FUNC GLOBAL DEFAULT 14 _ZN7android8hardware21set
1230:   FUNC GLOBAL DEFAULT 14 __lttf2
1231:   FUNC GLOBAL DEFAULT 14 _ZN7android4hidl7manager4
1232:   FUNC GLOBAL DEFAULT 14 _ZN7android8hardware14IPC
1233:   FUNC GLOBAL DEFAULT 14 _ZN7android8hardware11hid
1234:   FUNC GLOBAL DEFAULT 14 __floatditf
1235:   OBJECT WEAK DEFAULT 18 _ZTCN7android4hidl7manage
1236:   FUNC WEAK DEFAULT 14 _ZNSt3__115basic_stringbu
1237:   FUNC WEAK DEFAULT 14 _ZNSt3__111basic_regexIcN
1238:   OBJECT GLOBAL DEFAULT 18 _ZTVN7android4hidl7manage
1239:   OBJECT WEAK DEFAULT 18 _ZTCNSt3__114basic_ifstre
1240:   OBJECT WEAK DEFAULT 18 _ZTCN7android4hidl7manage
1241:   FUNC GLOBAL DEFAULT 14 _ZNK7android8hardware6Par
1242:   FUNC WEAK DEFAULT 14 _ZNSt3__16vectorINS_9sub_
1243:   OBJECT GLOBAL DEFAULT 18 _ZTTN7android8hardware27h
1244:   FUNC GLOBAL DEFAULT 14 _ZN7android8hardware12Pro
1245:   FUNC GLOBAL DEFAULT 14 _ZN7android4hidl4base4V1_
1246:   OBJECT GLOBAL DEFAULT 18 _ZTVN7android4hidl4base4V
1247:   FUNC GLOBAL DEFAULT 14 _ZN7android8hardware14IPC
1248:   FUNC GLOBAL DEFAULT 14 _ZN7android8hardware10BpH
1249:   FUNC GLOBAL DEFAULT 14 _ZN7android8hardware10BpH
1250:   FUNC WEAK DEFAULT 14 _ZNSt3__111basic_regexIcN
1251:   FUNC GLOBAL DEFAULT 14 _ZN7android8hardware11hid
1252:   FUNC GLOBAL DEFAULT 14 _ZN7android8hardware15int
1253:   FUNC WEAK DEFAULT 14 _ZNSt3__16__treeINS_12__v
1254:   FUNC GLOBAL DEFAULT 14 _ZN7android4hidl4base4V1_
1255:   FUNC GLOBAL DEFAULT 14 _ZN7android4hidl7manager4
1256:   FUNC GLOBAL DEFAULT 14 _ZN7android4hidl7manager4
1257:   FUNC GLOBAL DEFAULT 14 _ZN7android8hardware18Buf
1258:   FUNC GLOBAL DEFAULT 14 _ZN7android4hidl4base4V1_
1259:   FUNC GLOBAL DEFAULT 14 _ZN7android4hidl7manager4
1260:   FUNC GLOBAL DEFAULT 14 _ZN7android8hardware7IBin
1261:   FUNC GLOBAL DEFAULT 14 _ZN7android8hardware9BHwB
1262:   FUNC GLOBAL DEFAULT 14 _ZN7android4hidl7manager4
1263:   FUNC GLOBAL DEFAULT 14 _ZNK7android8hardware6Par
1264:   OBJECT WEAK DEFAULT 18 _ZTVNSt3__110__r_anchorIc
1265:   FUNC GLOBAL DEFAULT 14 _ZTv0_n24_N7android8hardw
1266:   FUNC GLOBAL DEFAULT 14 _ZN7android4hidl7manager4
1267:   FUNC GLOBAL DEFAULT 14 _ZN7android4hidl7manager4
1268:   FUNC WEAK DEFAULT 14 _ZNSt3__111basic_regexIcN
1269:   FUNC GLOBAL DEFAULT 14 _ZN7android8hardware9BHwB
1270:   FUNC GLOBAL DEFAULT 14 _ZN7android8hardware6Parc
1271:   FUNC GLOBAL DEFAULT 14 _ZNK7android8hardware6Par
1272:   FUNC WEAK DEFAULT 14 _ZNSt3__16vectorINS_9sub_
1273:   FUNC GLOBAL DEFAULT 14 _ZN7android8hardware7deta
1274:   FUNC GLOBAL DEFAULT 14 _ZN7android4hidl7manager4
1275:   FUNC GLOBAL DEFAULT 14 _ZN7android4hidl7manager4
1276:   FUNC GLOBAL DEFAULT 14 _ZN7android8hardware9BHwB
1277:   FUNC GLOBAL DEFAULT 14 _ZNK7android8hardware11hi
1278:   FUNC GLOBAL DEFAULT 14 _ZN7android8hardware10IIn
1279:   OBJECT GLOBAL DEFAULT 18 _ZTCN7android4hidl7manage
1280:   FUNC GLOBAL DEFAULT 14 _ZNK7android8hardware6Par
1281:   FUNC GLOBAL DEFAULT 14 _ZN7android8hardware6Parc
1282:   FUNC GLOBAL DEFAULT 14 _ZNK7android8hardware6Par
1283:   FUNC WEAK DEFAULT 14 _ZNKSt3__110__back_refIcE
1284:   FUNC GLOBAL DEFAULT 14 _ZN7android8hardware10Hid
1285:   FUNC GLOBAL DEFAULT 14 _ZN7android4hidl7manager4
1286:   FUNC GLOBAL DEFAULT 14 _ZN7android8hardware6Parc
1287:   FUNC WEAK DEFAULT 14 _ZNSt3__116__owns_one_sta
1288:   OBJECT WEAK DEFAULT 18 _ZTVNSt3__119basic_ostrin
1289:   FUNC GLOBAL DEFAULT 14 _ZTv0_n40_N7android8hardw
1290:   OBJECT GLOBAL DEFAULT 11 _ZN7android8hardware11hid
1291:   OBJECT GLOBAL DEFAULT 18 _ZTCN7android4hidl7manage
1292:   FUNC GLOBAL DEFAULT 14 _ZN7android4hidl7manager4
1293:   OBJECT GLOBAL DEFAULT 18 _ZTCN7android4hidl7manage
1294:   FUNC GLOBAL DEFAULT 14 _ZN7android8hardware14IPC
1295:   FUNC GLOBAL DEFAULT 14 _ZN7android8hardware7deta
1296:   FUNC GLOBAL DEFAULT 14 _ZN7android8hardware10Hid
1297:   FUNC GLOBAL DEFAULT 14 _ZN7android8hardware7deta
1298:   FUNC GLOBAL DEFAULT 14 _ZN7android8hardware12Pro
1299:   FUNC GLOBAL DEFAULT 14 _ZN7android4hidl7manager4
1300:   FUNC GLOBAL DEFAULT 14 _ZN7android8hardware9BHwB
1301:   FUNC GLOBAL DEFAULT 14 _ZN7android4hidl7manager4
1302:   FUNC GLOBAL DEFAULT 14 _ZN7android8hardware10Tex
1303:   FUNC GLOBAL DEFAULT 14 _ZNK7android8hardware6Par
1304:   FUNC GLOBAL DEFAULT 14 _ZN7android8hardware11hid
1305:   FUNC GLOBAL DEFAULT 14 _ZN7android8hardwarelsERN
1306:   FUNC GLOBAL DEFAULT 14 _ZNK7android8hardware14IP
1307:   OBJECT WEAK DEFAULT 18 _ZTVNSt3__123__match_any_
1308:   FUNC GLOBAL DEFAULT 14 _ZN7android8hardware12Pro
1309:   FUNC GLOBAL DEFAULT 14 _ZN7android4hidl7manager4
1310:   FUNC GLOBAL DEFAULT 14 _ZN7android4hidl7manager4
1311:   FUNC GLOBAL DEFAULT 14 _ZN7android4hidl7manager4
1312:   FUNC GLOBAL DEFAULT 14 _ZN7android4hidl7manager4
1313:   FUNC WEAK DEFAULT 14 _ZN7android8hardware10fro
1314:   FUNC GLOBAL DEFAULT 14 _ZN7android4hidl7manager4
1315:   FUNC GLOBAL DEFAULT 14 _ZN7android4hidl7manager4
1316:   OBJECT GLOBAL DEFAULT 18 _ZTVN7android8hardware7IB
1317:   FUNC GLOBAL DEFAULT 14 _ZN7android8hardware14IPC
1318:   OBJECT GLOBAL DEFAULT 18 _ZTTN7android4hidl7manage
1319:   OBJECT GLOBAL DEFAULT 18 _ZTTN7android4hidl7manage
1320:   FUNC GLOBAL DEFAULT 14 _ZN7android8hardware14IPC
1321:   FUNC GLOBAL DEFAULT 14 _ZN7android4hidl7manager4
1322:   OBJECT GLOBAL DEFAULT 18 _ZTTN7android4hidl7manage
1323:   FUNC WEAK DEFAULT 14 _ZN7android8hardware7deta
1324:   FUNC GLOBAL DEFAULT 14 _ZN7android8hardware6Parc
1325:   FUNC GLOBAL DEFAULT 14 _ZN7android8hardware12Pro
1326:   FUNC GLOBAL DEFAULT 14 __fe_raise_inexact
1327:   FUNC GLOBAL DEFAULT 14 _ZN7android8hardware11hid
1328:   FUNC GLOBAL DEFAULT 14 _ZN7android8hardware11hid
1329:   FUNC GLOBAL DEFAULT 14 _ZN7android4hidl7manager4
1330:   FUNC GLOBAL DEFAULT 14 _ZN7android4hidl7manager4
1331:   FUNC GLOBAL DEFAULT 14 _ZN7android4hidl4base4V1_
1332:   FUNC GLOBAL DEFAULT 14 _ZN7android8hardware9BHwB
1333:   FUNC GLOBAL DEFAULT 14 _ZN7android8hardware14IPC
1334:   FUNC WEAK DEFAULT 14 _ZNK7android8hardware6Par
1335:   FUNC GLOBAL DEFAULT 14 _ZN7android8hardware11hid
1336:   FUNC GLOBAL DEFAULT 14 _ZN7android4hidl4base4V1_
1337:   FUNC GLOBAL DEFAULT 14 _ZThn32_N7android4hidl7ma
1338:   FUNC GLOBAL DEFAULT 14 _ZN7android4hidl7manager4
1339:   FUNC WEAK DEFAULT 14 _ZNKSt3__16__treeINS_12__
1340:   FUNC GLOBAL DEFAULT 14 _ZN7android4hidl7manager4
1341:   FUNC GLOBAL DEFAULT 14 _ZN7android4hidl7manager4
1342:   OBJECT WEAK DEFAULT 18 _ZTVNSt3__118__match_char
1343:   FUNC GLOBAL DEFAULT 14 _ZN7android8hardware7deta
1344:   FUNC WEAK DEFAULT 14 _ZNSt3__111basic_regexIcN
1345:   OBJECT WEAK DEFAULT 18 _ZTCNSt3__113basic_fstrea
1346:   FUNC WEAK DEFAULT 14 _ZN7android8hardware7deta
1347:   FUNC GLOBAL DEFAULT 14 _ZN7android8hardware7deta
1348:   FUNC WEAK DEFAULT 14 _ZNSt3__16__treeINS_12__v
1349:   OBJECT GLOBAL DEFAULT 18 _ZTCN7android4hidl7manage
1350:   OBJECT GLOBAL DEFAULT 18 _ZTTN7android4hidl4base4V
1351:   FUNC GLOBAL DEFAULT 14 _ZNK7android8hardware6Par
1352:   FUNC WEAK DEFAULT 14 _ZNSt3__16vectorIcNS_9all
1353:   FUNC GLOBAL DEFAULT 14 _ZN7android8hardware6Parc
1354:   FUNC GLOBAL DEFAULT 14 _ZN7android8hardware7deta
1355:   FUNC GLOBAL DEFAULT 14 _ZN7android4hidl7manager4
1356:   FUNC GLOBAL DEFAULT 14 _ZN7android8hardware14IPC
1357:   FUNC GLOBAL DEFAULT 14 _ZN7android8hardware6Parc
1358:   FUNC GLOBAL DEFAULT 14 _ZTv0_n24_N7android8hardw
1359:   FUNC GLOBAL DEFAULT 14 _ZTv0_n24_N7android4hidl7
1360:   FUNC GLOBAL DEFAULT 14 _ZNK7android8hardware6Par
1361:   OBJECT GLOBAL DEFAULT 18 _ZN7android8hardware4aout
1362:   OBJECT WEAK DEFAULT 23 _ZGVZN7android8hardware25
1363:   FUNC WEAK DEFAULT 14 _ZNSt3__16__treeINS_12__v
1364:   OBJECT GLOBAL DEFAULT 18 _ZTCN7android4hidl7manage
1365:   FUNC GLOBAL DEFAULT 14 _ZN7android4hidl7manager4
1366:   FUNC WEAK DEFAULT 14 _ZN7android8hardware10fro
1367:   FUNC GLOBAL DEFAULT 14 _ZN7android8hardware10BpH
1368:   FUNC GLOBAL DEFAULT 14 _ZTv0_n32_N7android8hardw
1369:   OBJECT GLOBAL DEFAULT 18 _ZTTN7android8hardware10B
1370:   FUNC GLOBAL DEFAULT 14 _ZN7android8hardware18Buf
1371:   FUNC WEAK DEFAULT 14 _ZNSt3__15dequeINS_7__sta
1372:   OBJECT WEAK DEFAULT 18 _ZTVNSt3__115__word_bound
1373:   OBJECT GLOBAL DEFAULT 23 _ZN7android8hardware7deta
1374:   FUNC GLOBAL DEFAULT 14 _ZN7android4hidl7manager4
1375:   OBJECT WEAK DEFAULT 18 _ZTVN7android6VectorINS_8
1376:   FUNC GLOBAL DEFAULT 14 _ZNK7android8hardware14IP
1377:   FUNC GLOBAL DEFAULT 14 _ZN7android4hidl4base4V1_
1378:   FUNC GLOBAL DEFAULT 14 _ZN7android8hardwarelsERN
1379:   FUNC WEAK DEFAULT 14 _ZNSt3__120__shared_ptr_p
1380:   FUNC WEAK DEFAULT 14 _ZNSt3__16__treeINS_12__v
1381:   FUNC GLOBAL DEFAULT 14 _ZN7android4hidl7manager4
1382:   FUNC GLOBAL DEFAULT 14 _ZNK7android8hardware6Par
1383:   FUNC WEAK DEFAULT 14 _ZNSt3__16vectorINS_12bas
1384:   OBJECT WEAK DEFAULT 18 _ZTVNSt3__111__match_anyI
1385:   FUNC GLOBAL DEFAULT 14 _ZN7android8hardware24def
1386:   FUNC GLOBAL DEFAULT 14 _ZN7android8hardware12Pro
1387:   FUNC WEAK DEFAULT 14 _ZNKSt3__112regex_traitsI
1388:   OBJECT GLOBAL DEFAULT 11 _ZN7android8hardware11hid
1389:   FUNC GLOBAL DEFAULT 14 _ZN7android4hidl7manager4
1390:   FUNC GLOBAL DEFAULT 14 _ZN7android4hidl7manager4
1391:   FUNC GLOBAL DEFAULT 14 _ZN7android4hidl7manager4
1392:   FUNC GLOBAL DEFAULT 14 _ZN7android8hardware14IPC
1393:   FUNC WEAK DEFAULT 14 _ZNSt3__120__shared_ptr_e
1394:   OBJECT WEAK DEFAULT 18 _ZTCN7android4hidl4base4V
1395:   FUNC GLOBAL DEFAULT 14 _ZN7android8hardware10BpH
1396:   OBJECT GLOBAL DEFAULT 18 _ZTVN7android8hardware10B
1397:   FUNC GLOBAL DEFAULT 14 _ZNK7android8hardware6Par
1398:   FUNC GLOBAL DEFAULT 14 _ZN7android8hardware12Pro
1399:   FUNC WEAK DEFAULT 14 _ZNSt3__112__hash_tableIN
1400:   FUNC GLOBAL DEFAULT 14 _ZN7android4hidl7manager4
1401:   OBJECT GLOBAL DEFAULT 18 _ZTCN7android4hidl7manage
1402:   FUNC GLOBAL DEFAULT 14 __letf2
1403:   FUNC WEAK DEFAULT 14 _ZNSt3__111basic_regexIcN
1404:   FUNC WEAK DEFAULT 14 _ZNSt3__16vectorINS_4pair
1405:   FUNC GLOBAL DEFAULT 14 _ZN7android8hardware7deta
1406:   OBJECT WEAK DEFAULT 18 _ZTVNSt3__120__shared_ptr
1407:   FUNC WEAK DEFAULT 14 _ZNSt3__111basic_regexIcN
1408:   FUNC GLOBAL DEFAULT 14 _ZN7android4hidl7manager4
1409:   FUNC GLOBAL DEFAULT 14 _ZN7android4hidl4base4V1_
1410:   FUNC GLOBAL DEFAULT 14 _ZN7android8hardware7HexD
1411:   FUNC GLOBAL DEFAULT 14 _ZN7android4hidl7manager4
1412:   OBJECT WEAK DEFAULT 18 _ZTCN7android8hardware11B
1413:   FUNC WEAK DEFAULT 14 _ZNKSt3__112__match_charI
1414:   FUNC GLOBAL DEFAULT 14 _ZN7android8hardware11hid
1415:   FUNC GLOBAL DEFAULT 14 _ZN7android4hidl7manager4
1416:   OBJECT GLOBAL DEFAULT 18 _ZTTN7android4hidl4base4V
1417:   FUNC GLOBAL DEFAULT 14 _ZNK7android8hardware14IP
1418:   OBJECT GLOBAL DEFAULT 18 _ZTVN7android8hardware10T
1419:   FUNC GLOBAL DEFAULT 14 _ZN7android8hardware11hid
1420:   FUNC GLOBAL DEFAULT 14 _ZN7android4hidl4base4V1_
1421:   FUNC GLOBAL DEFAULT 14 _ZN7android4hidl7manager4
1422:   FUNC GLOBAL DEFAULT 14 _ZN7android4hidl7manager4
1423:   OBJECT GLOBAL DEFAULT 18 _ZTCN7android4hidl7manage
1424:   OBJECT GLOBAL DEFAULT 18 _ZTCN7android4hidl7manage
1425:   FUNC GLOBAL DEFAULT 14 _ZN7android4hidl4base4V1_
1426:   FUNC GLOBAL DEFAULT 14 _ZN7android4hidl7manager4
1427:   OBJECT GLOBAL DEFAULT 18 _ZTCN7android4hidl7manage
1428:   FUNC GLOBAL DEFAULT 14 _ZNK7android8hardware6Par
1429:   FUNC GLOBAL DEFAULT 14 _ZNK7android8hardware11hi
1430:   FUNC GLOBAL DEFAULT 14 _ZN7android8hardware7deta
1431:   FUNC WEAK DEFAULT 14 _ZN7android8hardware7deta
1432:   OBJECT GLOBAL DEFAULT 18 _ZTCN7android4hidl7manage
1433:   OBJECT GLOBAL DEFAULT 18 _ZTVN7android8hardware9BH
1434:   FUNC GLOBAL DEFAULT 14 _ZN7android8hardware6Parc
1435:   FUNC GLOBAL DEFAULT 14 _ZN7android4hidl4base4V1_
1436:   FUNC GLOBAL DEFAULT 14 _ZN7android4hidl4base4V1_
1437:   FUNC GLOBAL DEFAULT 14 _ZThn32_N7android4hidl7ma
1438:   FUNC GLOBAL DEFAULT 14 _ZN7android4hidl7manager4
1439:   FUNC WEAK DEFAULT 14 _ZNSt3__15dequeINS_8funct
1440:   FUNC GLOBAL DEFAULT 14 _ZN7android8hardware28con
1441:   FUNC GLOBAL DEFAULT 14 _ZN7android8hardware11BpH
1442:   OBJECT GLOBAL DEFAULT 18 _ZTCN7android4hidl7manage
1443:   OBJECT GLOBAL DEFAULT 18 _ZTCN7android4hidl7manage
1444:   OBJECT WEAK DEFAULT 18 _ZTCN7android8hardware11B
1445:   OBJECT GLOBAL DEFAULT 18 _ZTVN7android4hidl4base4V
1446:   FUNC GLOBAL DEFAULT 14 _ZNK7android8hardware6Par
1447:   FUNC WEAK DEFAULT 14 _ZNKSt3__112regex_traitsI
1448:   FUNC WEAK DEFAULT 14 _ZN7android8hardware7deta
1449:   FUNC GLOBAL DEFAULT 14 _ZN7android8hardware14IPC
1450:   FUNC WEAK DEFAULT 14 _ZNSt3__111basic_regexIcN
1451:   FUNC WEAK DEFAULT 14 _ZNSt3__16__treeINS_12__v
1452:   FUNC GLOBAL DEFAULT 14 _ZN7android4hidl7manager4
1453:   FUNC WEAK DEFAULT 14 _ZN7android8hardware6Parc
1454:   OBJECT GLOBAL DEFAULT 16 _ZN7android4hidl7manager4
1455:   FUNC WEAK DEFAULT 14 _ZNSt3__113__vector_baseI
1456:   FUNC WEAK DEFAULT 14 _ZNSt3__15dequeINS_8funct
1457:   FUNC GLOBAL DEFAULT 14 _ZN7android4hidl7manager4
1458:   FUNC GLOBAL DEFAULT 14 _ZN7android4hidl7manager4
1459:   FUNC WEAK DEFAULT 14 _ZNSt3__111basic_regexIcN
1460:   FUNC WEAK DEFAULT 14 _ZNSt3__112__deque_baseIN
1461:   OBJECT WEAK DEFAULT 18 _ZTVNSt3__120__shared_ptr
1462:   FUNC GLOBAL DEFAULT 14 _ZThn32_N7android4hidl7ma
1463:   FUNC GLOBAL DEFAULT 14 _ZTv0_n48_N7android8hardw
1464:   FUNC GLOBAL DEFAULT 14 _ZN7android8hardware7HexD
1465:   FUNC WEAK DEFAULT 14 _ZNSt3__114__split_buffer
1466:   OBJECT GLOBAL DEFAULT 18 _ZTVN7android8hardware7de
1467:   FUNC GLOBAL DEFAULT 14 _ZN7android4hidl7manager4
1468:   FUNC GLOBAL DEFAULT 14 _ZN7android8hardware6Parc
1469:   FUNC GLOBAL DEFAULT 14 _ZN7android8hardware11hid
1470:   FUNC GLOBAL DEFAULT 14 _ZN7android8hardware6Stat
1471:   OBJECT GLOBAL DEFAULT 11 _ZN7android8hardware11hid
1472:   FUNC WEAK DEFAULT 14 _ZNSt3__127__tree_balance
1473:   FUNC GLOBAL DEFAULT 14 _ZN7android8hardware7deta
1474:   OBJECT GLOBAL DEFAULT 18 _ZTCN7android4hidl7manage
1475:   FUNC GLOBAL DEFAULT 14 _ZN7android4hidl7manager4
1476:   FUNC WEAK DEFAULT 14 _ZN7android8hardware7deta
1477:   FUNC GLOBAL DEFAULT 14 _ZN7android4hidl7manager4
1478:   FUNC GLOBAL DEFAULT 14 _ZN7android8hardware9BHwB
1479:   FUNC GLOBAL DEFAULT 14 _ZN7android4hidl7manager4
1480:   FUNC GLOBAL DEFAULT 14 _ZN7android4hidl7manager4
1481:   OBJECT GLOBAL DEFAULT 18 _ZTCN7android4hidl7manage
1482:   FUNC GLOBAL DEFAULT 14 _ZNK7android8hardware11hi
1483:   FUNC WEAK DEFAULT 14 _ZNSt3__16__treeINS_12__v
1484:   FUNC GLOBAL DEFAULT 14 _ZTv0_n24_N7android4hidl4
1485:   FUNC GLOBAL DEFAULT 14 _ZN7android4hidl7manager4
1486:   FUNC GLOBAL DEFAULT 14 _ZN7android8hardware6Parc
1487:   FUNC GLOBAL DEFAULT 14 _ZN7android4hidl7manager4
1488:   FUNC GLOBAL DEFAULT 14 _ZNK7android8hardware6Par
1489:   FUNC GLOBAL DEFAULT 14 _ZN7android4hidl7manager4
1490:   FUNC GLOBAL DEFAULT 14 _ZN7android4hidl7manager4
1491:   FUNC GLOBAL DEFAULT 14 _ZN7android8hardware10BpH
1492:   FUNC GLOBAL DEFAULT 14 _ZN7android8hardware7deta
1493:   FUNC WEAK DEFAULT 14 _ZNSt3__17getlineIcNS_11c
1494:   OBJECT GLOBAL DEFAULT 18 _ZTCN7android4hidl4base4V
1495:   FUNC WEAK DEFAULT 14 _ZN7android8hardware7deta
1496:   FUNC GLOBAL DEFAULT 14 _ZN7android8hardware12Pro
1497:   FUNC GLOBAL DEFAULT 14 _ZN7android8hardware23joi
1498:   FUNC GLOBAL DEFAULT 14 _ZN7android8hardware20Laz
1499:   FUNC GLOBAL DEFAULT 14 _ZN7android8hardware10IIn
1500:   FUNC GLOBAL DEFAULT 14 _ZN7android4hidl7manager4
1501:   FUNC GLOBAL DEFAULT 14 _ZN7android4hidl7manager4
1502:   FUNC GLOBAL DEFAULT 14 _ZN7android4hidl7manager4
1503:   FUNC GLOBAL DEFAULT 14 _ZN7android8hardware10BpH
1504:   FUNC GLOBAL DEFAULT 14 _ZNK7android8hardware12Pr
1505:   FUNC GLOBAL DEFAULT 14 _ZN7android8hardware13wri
1506:   OBJECT GLOBAL DEFAULT 16 _ZN7android4hidl7manager4
1507:   FUNC GLOBAL DEFAULT 14 _ZN7android8hardware7deta
1508:   FUNC WEAK DEFAULT 14 _ZNSt3__113basic_filebufI
1509:   FUNC GLOBAL DEFAULT 14 _ZN7android4hidl7manager4
1510:   FUNC WEAK DEFAULT 14 _ZN7android8hardware7deta
1511:   FUNC GLOBAL DEFAULT 14 _ZN7android4hidl7manager4
1512:   FUNC GLOBAL DEFAULT 14 _ZN7android8hardware18Buf
1513:   FUNC GLOBAL DEFAULT 14 _ZN7android8hardware6Parc
1514:   OBJECT GLOBAL DEFAULT 18 _ZTTN7android4hidl7manage
1515:   OBJECT WEAK DEFAULT 18 _ZTVN7android8hardware18B
1516:   FUNC GLOBAL DEFAULT 14 _ZTv0_n24_N7android8hardw
1517:   FUNC WEAK DEFAULT 14 _ZNSt3__120__shared_ptr_e
1518:   FUNC WEAK DEFAULT 14 _ZNSt3__16vectorIiNS_9all
1519:   FUNC GLOBAL DEFAULT 14 _ZN7android4hidl7manager4
1520:   FUNC GLOBAL DEFAULT 14 _ZN7android4hidl7manager4
1521:   FUNC GLOBAL DEFAULT 14 _ZN7android8hardware14IPC
1522:   FUNC GLOBAL DEFAULT 14 _ZNK7android8hardware6Par
1523:   FUNC WEAK DEFAULT 14 _ZNSt3__111basic_regexIcN
1524:   FUNC GLOBAL DEFAULT 14 _ZN7android8hardware6Parc
1525:   FUNC GLOBAL DEFAULT 14 _ZN7android4hidl7manager4
1526:   FUNC GLOBAL DEFAULT 14 _ZN7android4hidl7manager4
1527:   FUNC GLOBAL DEFAULT 14 printTypeCode
1528:   FUNC GLOBAL DEFAULT 14 _ZN7android8hardware12Pro
