 0x000000000000000e (SONAME)             Library soname: [libdl.so]
  
Symbol   contains 8 entries:
Num:   Type Bind Vis Ndx Name
0:   NOTYPE LOCAL DEFAULT UND
1:   FUNC GLOBAL DEFAULT 7 android_dlopen_ext@@LIBC
2:   FUNC GLOBAL DEFAULT 7 dl_iterate_phdr@@LIBC
3:   FUNC GLOBAL DEFAULT 7 dladdr@@LIBC
4:   FUNC GLOBAL DEFAULT 7 dlclose@@LIBC
5:   FUNC GLOBAL DEFAULT 7 dlerror@@LIBC
6:   FUNC GLOBAL DEFAULT 7 dlopen@@LIBC
7:   FUNC GLOBAL DEFAULT 7 dlsym@@LIBC
