 0x000000000000000e (SONAME)             Library soname: [libadbd_services.so]
  
Symbol   contains 747 entries:
Num:   Type Bind Vis Ndx Name
0:   NOTYPE LOCAL DEFAULT UND
1:   FUNC GLOBAL DEFAULT UND __cxa_finalize@LIBC (2)
2:   FUNC GLOBAL DEFAULT UND __cxa_atexit@LIBC (2)
3:   FUNC GLOBAL DEFAULT UND _ZN7android4base10LogMess
4:   FUNC GLOBAL DEFAULT UND _ZN7android4base10LogMess
5:   FUNC GLOBAL DEFAULT UND _ZN7android4base10LogMess
6:   FUNC GLOBAL DEFAULT UND _ZN7android4base10StartsW
7:   FUNC GLOBAL DEFAULT UND _ZN7android4base12StringP
8:   FUNC GLOBAL DEFAULT UND _ZN7android4base21GetMini
9:   FUNC GLOBAL DEFAULT UND _ZN7android4base5SplitERK
10:   FUNC GLOBAL DEFAULT UND _ZN7android4base7DirnameE
11:   FUNC GLOBAL DEFAULT UND _ZN7android4base8Readlink
12:   FUNC GLOBAL DEFAULT UND _ZNKSt3__112basic_stringI
13:   FUNC GLOBAL DEFAULT UND _ZNKSt3__112basic_stringI
14:   FUNC GLOBAL DEFAULT UND _ZNKSt3__121__basic_strin
15:   FUNC GLOBAL DEFAULT UND _ZNKSt3__16locale9use_fac
16:   FUNC GLOBAL DEFAULT UND _ZNKSt3__18ios_base6getlo
17:   FUNC GLOBAL DEFAULT UND _ZNSt3__112basic_stringIc
18:   FUNC GLOBAL DEFAULT UND _ZNSt3__112basic_stringIc
19:   FUNC GLOBAL DEFAULT UND _ZNSt3__112basic_stringIc
20:   FUNC GLOBAL DEFAULT UND _ZNSt3__113basic_ostreamI
21:   FUNC GLOBAL DEFAULT UND _ZNSt3__113basic_ostreamI
22:   OBJECT GLOBAL DEFAULT UND _ZNSt3__15ctypeIcE2idE
23:   FUNC GLOBAL DEFAULT UND _ZNSt3__16localeD1Ev
24:   FUNC GLOBAL DEFAULT UND _ZNSt3__18ios_base5clearE
25:   FUNC GLOBAL DEFAULT UND _ZdlPv
26:   FUNC GLOBAL DEFAULT UND _Znwm
27:   FUNC GLOBAL DEFAULT UND __android_log_security_bs@LIBLOG_PRIVATE (3)
28:   FUNC GLOBAL DEFAULT UND __errno@LIBC (2)
29:   FUNC GLOBAL DEFAULT UND __open_2@LIBC (2)
30:   FUNC GLOBAL DEFAULT UND __read_chk@LIBC (2)
31:   FUNC GLOBAL DEFAULT UND __stack_chk_fail@LIBC (2)
32:   FUNC WEAK DEFAULT UND android_fdsan_close_with_@LIBC_Q (4)
33:   FUNC WEAK DEFAULT UND android_fdsan_create_owne@LIBC_Q (4)
34:   FUNC WEAK DEFAULT UND android_fdsan_exchange_ow@LIBC_Q (4)
35:   FUNC GLOBAL DEFAULT UND atrace_begin_body
36:   OBJECT GLOBAL DEFAULT UND atrace_enabled_tags
37:   FUNC GLOBAL DEFAULT UND atrace_end_body
38:   OBJECT GLOBAL DEFAULT UND atrace_is_ready
39:   FUNC GLOBAL DEFAULT UND atrace_setup
40:   FUNC GLOBAL DEFAULT UND chown@LIBC (2)
41:   FUNC GLOBAL DEFAULT UND close@LIBC (2)
42:   FUNC GLOBAL DEFAULT UND closedir@LIBC (2)
43:   FUNC GLOBAL DEFAULT UND fchmod@LIBC (2)
44:   FUNC GLOBAL DEFAULT UND fchown@LIBC (2)
45:   FUNC GLOBAL DEFAULT UND fcntl@LIBC (2)
46:   FUNC GLOBAL DEFAULT UND fs_config
47:   FUNC GLOBAL DEFAULT UND lstat@LIBC (2)
48:   FUNC GLOBAL DEFAULT UND lutimes@LIBC_O (5)
49:   FUNC GLOBAL DEFAULT UND memcpy@LIBC (2)
50:   FUNC GLOBAL DEFAULT UND memset@LIBC (2)
51:   FUNC GLOBAL DEFAULT UND mkdir@LIBC (2)
52:   FUNC GLOBAL DEFAULT UND open@LIBC (2)
53:   FUNC GLOBAL DEFAULT UND opendir@LIBC (2)
54:   FUNC GLOBAL DEFAULT UND posix_fadvise@LIBC (2)
55:   FUNC GLOBAL DEFAULT UND readdir@LIBC (2)
56:   FUNC GLOBAL DEFAULT UND removexattr@LIBC (2)
57:   FUNC GLOBAL DEFAULT UND selinux_android_restoreco
58:   FUNC GLOBAL DEFAULT UND setxattr@LIBC (2)
59:   FUNC GLOBAL DEFAULT UND stat@LIBC (2)
60:   FUNC GLOBAL DEFAULT UND strerror@LIBC (2)
61:   FUNC GLOBAL DEFAULT UND strlen@LIBC (2)
62:   FUNC GLOBAL DEFAULT UND strtoul@LIBC (2)
63:   FUNC GLOBAL DEFAULT UND symlink@LIBC (2)
64:   FUNC GLOBAL DEFAULT UND unlink@LIBC (2)
65:   FUNC GLOBAL DEFAULT UND _ZNSt3__112basic_stringIc
66:   FUNC GLOBAL DEFAULT UND _ZNSt3__113basic_ostreamI
67:   FUNC GLOBAL DEFAULT UND _ZNSt3__113basic_ostreamI
68:   FUNC GLOBAL DEFAULT UND _ZNSt3__113basic_ostreamI
69:   FUNC GLOBAL DEFAULT UND _ZNSt3__119__shared_weak_
70:   FUNC GLOBAL DEFAULT UND _ZdaPv
71:   FUNC GLOBAL DEFAULT UND _Znam
72:   FUNC GLOBAL DEFAULT UND __android_log_is_debuggab@LIBLOG_O (6)
73:   FUNC GLOBAL DEFAULT UND abort@LIBC (2)
74:   FUNC GLOBAL DEFAULT UND memchr@LIBC (2)
75:   FUNC GLOBAL DEFAULT UND memcmp@LIBC (2)
76:   FUNC GLOBAL DEFAULT UND pipe2@LIBC (2)
77:   FUNC GLOBAL DEFAULT UND socketpair@LIBC (2)
78:   FUNC GLOBAL DEFAULT UND sscanf@LIBC (2)
79:   FUNC GLOBAL DEFAULT UND _Exit@LIBC (2)
80:   FUNC GLOBAL DEFAULT UND _ZN7android4base11GetProp
81:   FUNC GLOBAL DEFAULT UND _ZNKSt3__120__vector_base
82:   FUNC GLOBAL DEFAULT UND _ZNSt3__112__next_primeEm
83:   FUNC GLOBAL DEFAULT UND _ZNSt3__112basic_stringIc
84:   FUNC GLOBAL DEFAULT UND _ZNSt3__112basic_stringIc
85:   FUNC GLOBAL DEFAULT UND _ZNSt3__112basic_stringIc
86:   FUNC GLOBAL DEFAULT UND _ZNSt3__115__thread_struc
87:   FUNC GLOBAL DEFAULT UND _ZNSt3__115__thread_struc
88:   FUNC GLOBAL DEFAULT UND _ZNSt3__119__thread_local
89:   FUNC GLOBAL DEFAULT UND _ZNSt3__120__throw_system
90:   FUNC GLOBAL DEFAULT UND _ZNSt3__16thread6detachEv
91:   FUNC GLOBAL DEFAULT UND _ZNSt3__16threadD1Ev
92:   FUNC GLOBAL DEFAULT UND __FD_CLR_chk@LIBC (2)
93:   FUNC GLOBAL DEFAULT UND __FD_ISSET_chk@LIBC (2)
94:   FUNC GLOBAL DEFAULT UND __FD_SET_chk@LIBC (2)
95:   FUNC GLOBAL DEFAULT UND __strlen_chk@LIBC (2)
96:   FUNC GLOBAL DEFAULT UND __write_chk@LIBC_N (7)
97:   FUNC GLOBAL DEFAULT UND cfmakeraw@LIBC (2)
98:   FUNC GLOBAL DEFAULT UND dup@LIBC (2)
99:   FUNC GLOBAL DEFAULT UND dup2@LIBC (2)
100:   OBJECT GLOBAL DEFAULT UND environ@LIBC (2)
101:   FUNC GLOBAL DEFAULT UND execle@LIBC (2)
102:   FUNC GLOBAL DEFAULT UND fork@LIBC (2)
103:   FUNC GLOBAL DEFAULT UND forkpty@LIBC (2)
104:   FUNC GLOBAL DEFAULT UND freecon
105:   FUNC GLOBAL DEFAULT UND getcon
106:   FUNC GLOBAL DEFAULT UND gethostname@LIBC (2)
107:   FUNC GLOBAL DEFAULT UND getpwuid@LIBC (2)
108:   FUNC GLOBAL DEFAULT UND getuid@LIBC (2)
109:   FUNC GLOBAL DEFAULT UND ioctl@LIBC (2)
110:   FUNC GLOBAL DEFAULT UND kill@LIBC (2)
111:   FUNC GLOBAL DEFAULT UND pthread_create@LIBC (2)
112:   FUNC GLOBAL DEFAULT UND pthread_self@LIBC (2)
113:   FUNC GLOBAL DEFAULT UND pthread_setname_np@LIBC (2)
114:   FUNC GLOBAL DEFAULT UND pthread_setspecific@LIBC (2)
115:   FUNC GLOBAL DEFAULT UND read@LIBC (2)
116:   FUNC GLOBAL DEFAULT UND select@LIBC (2)
117:   FUNC GLOBAL DEFAULT UND selinux_android_setcon
118:   FUNC GLOBAL DEFAULT UND setsid@LIBC (2)
119:   FUNC GLOBAL DEFAULT UND shutdown@LIBC (2)
120:   FUNC GLOBAL DEFAULT UND signal@LIBC (2)
121:   FUNC GLOBAL DEFAULT UND strchr@LIBC (2)
122:   FUNC GLOBAL DEFAULT UND strcmp@LIBC (2)
123:   FUNC GLOBAL DEFAULT UND strncpy@LIBC (2)
124:   FUNC GLOBAL DEFAULT UND tcgetattr@LIBC (2)
125:   FUNC GLOBAL DEFAULT UND tcsetattr@LIBC (2)
126:   FUNC GLOBAL DEFAULT UND waitpid@LIBC (2)
127:   FUNC GLOBAL DEFAULT UND write@LIBC (2)
128:   FUNC GLOBAL DEFAULT UND execvp@LIBC (2)
129:   FUNC GLOBAL DEFAULT UND DNSServiceRefDeallocate
130:   FUNC GLOBAL DEFAULT UND DNSServiceRegister
131:   FUNC GLOBAL DEFAULT UND _ZN7android4base11SetProp
132:   FUNC GLOBAL DEFAULT UND _ZN7android4base15WaitFor
133:   FUNC GLOBAL DEFAULT UND _ZNSt3__15mutex4lockEv
134:   FUNC GLOBAL DEFAULT UND _ZNSt3__15mutex6unlockEv
135:   FUNC GLOBAL DEFAULT UND _ZN7android4base15GetBool
136:   FUNC GLOBAL DEFAULT UND __strncpy_chk2@LIBC (2)
137:   FUNC GLOBAL DEFAULT UND access@LIBC (2)
138:   FUNC GLOBAL DEFAULT UND connect@LIBC (2)
139:   FUNC GLOBAL DEFAULT UND pause@LIBC (2)
140:   FUNC GLOBAL DEFAULT UND socket@LIBC (2)
141:   FUNC GLOBAL DEFAULT UND sync@LIBC (2)
142:   FUNC GLOBAL DEFAULT UND _exit@LIBC (2)
143:   FUNC GLOBAL DEFAULT UND execl@LIBC (2)
144:   FUNC GLOBAL DEFAULT UND strsignal@LIBC (2)
145:   FUNC GLOBAL DEFAULT UND _Z22fs_mgr_overlayfs_setu
146:   FUNC GLOBAL DEFAULT UND _Z25fs_mgr_overlayfs_tear
147:   FUNC GLOBAL DEFAULT UND _ZN7android6fs_mgr16ReadD
148:   FUNC GLOBAL DEFAULT UND fec_close
149:   FUNC GLOBAL DEFAULT UND fec_open
150:   FUNC GLOBAL DEFAULT UND fec_verity_get_metadata
151:   FUNC GLOBAL DEFAULT UND fec_verity_set_status
152:   FUNC GLOBAL DEFAULT UND __system_property_find@LIBC (2)
153:   FUNC GLOBAL DEFAULT UND __system_property_read_ca@LIBC_O (5)
154:   FUNC GLOBAL DEFAULT UND _ZN7android6fs_mgr17ReadF
155:   FUNC GLOBAL DEFAULT UND _ZN7android6fs_mgr21GetEn
156:   FUNC GLOBAL DEFAULT UND fputs@LIBC (2)
157:   FUNC GLOBAL DEFAULT UND free@LIBC (2)
158:   FUNC GLOBAL DEFAULT UND malloc@LIBC (2)
159:   OBJECT GLOBAL DEFAULT UND stderr@LIBC (2)
160:   FUNC GLOBAL DEFAULT UND calloc@LIBC (2)
161:   FUNC GLOBAL DEFAULT UND lseek@LIBC (2)
162:   FUNC GLOBAL DEFAULT UND strdup@LIBC (2)
163:   FUNC GLOBAL DEFAULT UND strrchr@LIBC (2)
164:   FUNC GLOBAL DEFAULT UND _ZN7android4base17GetExec
165:   FUNC GLOBAL DEFAULT UND _ZN7android4base4JoinINSt
166:   FUNC GLOBAL DEFAULT UND _ZNSt3__111this_thread9sl
167:   FUNC GLOBAL DEFAULT UND _ZNSt3__112basic_stringIc
168:   FUNC GLOBAL DEFAULT UND _ZNSt3__113basic_ostreamI
169:   FUNC GLOBAL DEFAULT UND memmove@LIBC (2)
170:   FUNC GLOBAL DEFAULT UND printf@LIBC (2)
171:   FUNC GLOBAL DEFAULT UND strncmp@LIBC (2)
172:   FUNC GLOBAL DEFAULT UND _ZN7android4base13StringA
173:   FUNC GLOBAL DEFAULT UND _ZNSt3__112basic_stringIc
174:   FUNC GLOBAL DEFAULT UND sched_yield@LIBC (2)
175:   FUNC GLOBAL DEFAULT UND _ZN7android4base13StringA
176:   FUNC GLOBAL DEFAULT UND accept@LIBC (2)
177:   FUNC GLOBAL DEFAULT UND setsockopt@LIBC (2)
178:   FUNC GLOBAL DEFAULT UND _ZN7android4base10LogdLog
179:   FUNC GLOBAL DEFAULT UND _ZN7android4base10LogdLog
180:   FUNC GLOBAL DEFAULT UND _ZN7android4base11InitLog
181:   FUNC GLOBAL DEFAULT UND _ZN7android4base12StderrL
182:   FUNC GLOBAL DEFAULT UND _ZN7android4base14Default
183:   FUNC GLOBAL DEFAULT UND _ZN7android4base21SetMini
184:   FUNC GLOBAL DEFAULT UND fprintf@LIBC (2)
185:   FUNC GLOBAL DEFAULT UND getenv@LIBC (2)
186:   FUNC GLOBAL DEFAULT UND getpid@LIBC (2)
187:   FUNC GLOBAL DEFAULT UND isatty@LIBC (2)
188:   FUNC GLOBAL DEFAULT UND localtime_r@LIBC (2)
189:   FUNC GLOBAL DEFAULT UND strftime@LIBC (2)
190:   FUNC GLOBAL DEFAULT UND time@LIBC (2)
191:   FUNC GLOBAL DEFAULT UND tzset@LIBC (2)
192:   FUNC GLOBAL DEFAULT UND _ZN7android4base8Basename
193:   FUNC GLOBAL DEFAULT UND _ZNKSt3__112basic_stringI
194:   FUNC GLOBAL DEFAULT UND _ZNSt3__112basic_stringIc
195:   FUNC GLOBAL DEFAULT UND __vsnprintf_chk@LIBC (2)
196:   FUNC GLOBAL DEFAULT UND exit@LIBC (2)
197:   FUNC GLOBAL DEFAULT UND fflush@LIBC (2)
198:   FUNC GLOBAL DEFAULT UND getcwd@LIBC (2)
199:   FUNC GLOBAL DEFAULT UND getpwuid_r@LIBC (2)
200:   FUNC GLOBAL DEFAULT UND isprint@LIBC (2)
201:   FUNC GLOBAL DEFAULT UND isspace@LIBC (2)
202:   FUNC GLOBAL DEFAULT UND putc@LIBC (2)
203:   OBJECT GLOBAL DEFAULT UND stdout@LIBC (2)
204:   FUNC GLOBAL DEFAULT UND strtoll@LIBC (2)
205:   FUNC GLOBAL DEFAULT UND sysconf@LIBC (2)
206:   FUNC GLOBAL DEFAULT UND vfprintf@LIBC (2)
207:   FUNC GLOBAL DEFAULT UND _ZN7android4base10boot_cl
208:   FUNC GLOBAL DEFAULT UND _ZN7android4base11GetThre
209:   FUNC GLOBAL DEFAULT UND _ZNSt3__16chrono12steady_
210:   FUNC GLOBAL DEFAULT UND __cxa_guard_acquire
211:   FUNC GLOBAL DEFAULT UND __cxa_guard_release
212:   FUNC GLOBAL DEFAULT UND poll@LIBC (2)
213:   FUNC GLOBAL DEFAULT UND puts@LIBC (2)
214:   FUNC GLOBAL DEFAULT UND _ZNKSt3__119__shared_weak
215:   FUNC GLOBAL DEFAULT UND _ZNSt3__112basic_stringIc
216:   FUNC GLOBAL DEFAULT UND _ZNSt3__115recursive_mute
217:   FUNC GLOBAL DEFAULT UND _ZNSt3__115recursive_mute
218:   FUNC GLOBAL DEFAULT UND _ZNSt3__115recursive_mute
219:   FUNC GLOBAL DEFAULT UND _ZNSt3__119__shared_weak_
220:   FUNC GLOBAL DEFAULT UND writev@LIBC (2)
221:   FUNC GLOBAL DEFAULT UND _ZN7android4base15ParseNe
222:   FUNC GLOBAL DEFAULT UND _ZNSt3__112basic_stringIc
223:   FUNC GLOBAL DEFAULT UND __strchr_chk@LIBC (2)
224:   FUNC GLOBAL DEFAULT UND bind@LIBC (2)
225:   FUNC GLOBAL DEFAULT UND getsockname@LIBC (2)
226:   FUNC GLOBAL DEFAULT UND listen@LIBC (2)
227:   FUNC GLOBAL DEFAULT UND socket_get_local_port
228:   FUNC GLOBAL DEFAULT UND socket_inaddr_any_server
229:   FUNC GLOBAL DEFAULT UND socket_local_client
230:   FUNC GLOBAL DEFAULT UND socket_local_server
231:   FUNC GLOBAL DEFAULT UND strtoull@LIBC (2)
232:   FUNC GLOBAL DEFAULT UND tolower@LIBC (2)
233:   FUNC GLOBAL DEFAULT UND _ZNSt3__111__call_onceERV
234:   FUNC GLOBAL DEFAULT UND _ZNSt3__113basic_ostreamI
235:   FUNC GLOBAL DEFAULT UND _ZNSt3__113basic_ostreamI
236:   FUNC GLOBAL DEFAULT UND _ZNSt3__113basic_ostreamI
237:   FUNC GLOBAL DEFAULT UND _ZNSt3__113basic_ostreamI
238:   FUNC GLOBAL DEFAULT UND _ZNSt3__115basic_streambu
239:   FUNC GLOBAL DEFAULT UND _ZNSt3__115basic_streambu
240:   FUNC GLOBAL DEFAULT UND _ZNSt3__115basic_streambu
241:   FUNC GLOBAL DEFAULT UND _ZNSt3__115basic_streambu
242:   FUNC GLOBAL DEFAULT UND _ZNSt3__115basic_streambu
243:   FUNC GLOBAL DEFAULT UND _ZNSt3__115basic_streambu
244:   FUNC GLOBAL DEFAULT UND _ZNSt3__115basic_streambu
245:   FUNC GLOBAL DEFAULT UND _ZNSt3__115basic_streambu
246:   FUNC GLOBAL DEFAULT UND _ZNSt3__115basic_streambu
247:   FUNC GLOBAL DEFAULT UND _ZNSt3__118condition_vari
248:   FUNC GLOBAL DEFAULT UND _ZNSt3__118condition_vari
249:   FUNC GLOBAL DEFAULT UND _ZNSt3__118condition_vari
250:   FUNC GLOBAL DEFAULT UND _ZNSt3__118condition_vari
251:   FUNC GLOBAL DEFAULT UND _ZNSt3__15mutexD1Ev
252:   FUNC GLOBAL DEFAULT UND _ZNSt3__16chrono12system_
253:   FUNC GLOBAL DEFAULT UND _ZNSt3__16thread4joinEv
254:   FUNC GLOBAL DEFAULT UND _ZNSt3__18ios_base4initEP
255:   FUNC GLOBAL DEFAULT UND _ZNSt3__19basic_iosIcNS_1
256:   FUNC GLOBAL DEFAULT UND _ZSt9terminatev
257:   FUNC GLOBAL DEFAULT UND _ZTv0_n24_NSt3__113basic_
258:   FUNC GLOBAL DEFAULT UND _ZTv0_n24_NSt3__113basic_
259:   FUNC GLOBAL DEFAULT UND __cxa_pure_virtual
260:   FUNC GLOBAL DEFAULT UND isalnum@LIBC (2)
261:   FUNC GLOBAL DEFAULT UND _ZNSt3__1plIcNS_11char_tr
262:   FUNC GLOBAL DEFAULT UND gai_strerror@LIBC (2)
263:   OBJECT GLOBAL DEFAULT UND in6addr_loopback@LIBC_N (7)
264:   FUNC GLOBAL DEFAULT UND socket_network_client_tim
265:   FUNC GLOBAL DEFAULT UND RSA_free
266:   FUNC GLOBAL DEFAULT UND RSA_verify
267:   FUNC GLOBAL DEFAULT UND _ZN7android4base16ReadFil
268:   FUNC GLOBAL DEFAULT UND __b64_pton@LIBC (2)
269:   FUNC GLOBAL DEFAULT UND android_get_control_socke
270:   FUNC GLOBAL DEFAULT UND android_pubkey_decode
271:   FUNC GLOBAL DEFAULT UND fclose@LIBC (2)
272:   FUNC GLOBAL DEFAULT UND fopen@LIBC (2)
273:   FUNC GLOBAL DEFAULT UND fread@LIBC (2)
274:   FUNC GLOBAL DEFAULT UND strpbrk@LIBC (2)
275:   FUNC GLOBAL DEFAULT UND _ZN7android4base24SendFil
276:   FUNC GLOBAL DEFAULT UND _ZNSt3__19to_stringEi
277:   FUNC GLOBAL DEFAULT UND recvfrom@LIBC (2)
278:   FUNC GLOBAL DEFAULT UND _ZN7android4base10WriteFu
279:   FUNC GLOBAL DEFAULT UND _ZN7android4base9ReadFull
280:   FUNC GLOBAL DEFAULT UND io_getevents
281:   FUNC GLOBAL DEFAULT UND io_prep
282:   FUNC GLOBAL DEFAULT UND io_setup
283:   FUNC GLOBAL DEFAULT UND io_submit
284:   FUNC GLOBAL DEFAULT UND posix_madvise@LIBC (2)
285:   FUNC WEAK DEFAULT UND android_set_abort_message@LIBC (2)
286:   FUNC GLOBAL DEFAULT 14 _Z26create_jdwp_service_s
287:   FUNC GLOBAL DEFAULT 14 avb_strdup
288:   FUNC GLOBAL DEFAULT 14 _ZNK10atransport21connect
289:   FUNC GLOBAL DEFAULT 14 avb_replace
290:   OBJECT GLOBAL DEFAULT 16 adb_device_banner
291:   FUNC WEAK DEFAULT 14 _ZNSt3__110__function6__f
292:   FUNC GLOBAL DEFAULT 14 _Z16directory_existsRKNSt
293:   FUNC GLOBAL DEFAULT 14 _Z18qemu_socket_threadi
294:   FUNC GLOBAL DEFAULT 14 _Z14handle_offlineP10atra
295:   FUNC GLOBAL DEFAULT 14 _ZN9alistenerC2ERKNSt3__1
296:   FUNC GLOBAL DEFAULT 14 _Z11dump_packetPKcS0_PK7a
297:   FUNC WEAK DEFAULT 14 _ZNSt3__112__hash_tableIN
298:   FUNC GLOBAL DEFAULT 14 _Z24daemon_service_to_soc
299:   FUNC GLOBAL DEFAULT 14 _Z10WriteFdFmtiPKcz
300:   FUNC WEAK DEFAULT 14 _ZNSt3__114__split_buffer
301:   FUNC WEAK DEFAULT 14 _ZNSt3__112__hash_tableIN
302:   FUNC GLOBAL DEFAULT 14 __lttf2
303:   FUNC GLOBAL DEFAULT 14 __subtf3
304:   FUNC WEAK DEFAULT 14 _ZNKSt3__110__function6__
305:   FUNC GLOBAL DEFAULT 14 avb_crc32
306:   FUNC GLOBAL DEFAULT 14 _Z16adb_trace_enable8AdbT
307:   FUNC GLOBAL DEFAULT 14 _ZN25BlockingConnectionAd
308:   FUNC WEAK DEFAULT 14 _ZNSt3__120__shared_ptr_p
309:   FUNC WEAK DEFAULT 14 _ZNSt3__16vectorIN7androi
310:   FUNC GLOBAL DEFAULT 14 _Z13handle_onlineP10atran
311:   FUNC WEAK DEFAULT 14 _ZNSt3__14listIP11adiscon
312:   FUNC GLOBAL DEFAULT 14 __eqtf2
313:   FUNC GLOBAL DEFAULT 14 avb_user_verity_get
314:   FUNC GLOBAL DEFAULT 14 avb_strdupv
315:   FUNC GLOBAL DEFAULT 14 _Z16format_listenersv
316:   FUNC WEAK DEFAULT 14 _ZNSt3__1plIcNS_11char_tr
317:   FUNC GLOBAL DEFAULT 14 _ZN12FdConnection5CloseEv
318:   FUNC GLOBAL DEFAULT 14 _Z9usb_writeP10usb_handle
319:   FUNC GLOBAL DEFAULT 14 _Z17check_main_threadv
320:   FUNC GLOBAL DEFAULT 14 _Z17reconnect_serviceN7an
321:   FUNC WEAK DEFAULT 14 _ZNKSt3__110__function6__
322:   FUNC GLOBAL DEFAULT 14 avb_memset
323:   FUNC GLOBAL DEFAULT 14 _Z16start_device_logv
324:   FUNC WEAK DEFAULT 14 _ZNSt3__110__function6__f
325:   FUNC WEAK DEFAULT 14 _ZNSt3__112__hash_tableIN
326:   FUNC WEAK DEFAULT 14 _ZNSt3__120__shared_ptr_p
327:   FUNC GLOBAL DEFAULT 14 qemu_pipe_open
328:   FUNC WEAK DEFAULT 14 _ZNSt3__112__hash_tableIN
329:   OBJECT GLOBAL DEFAULT 18 _ZTV10atransport
330:   FUNC GLOBAL DEFAULT 14 _Z20restart_root_serviceN
331:   FUNC GLOBAL DEFAULT 14 avb_rsa_public_key_header
332:   FUNC GLOBAL DEFAULT 14 _Z6getcwdPNSt3__112basic_
333:   FUNC WEAK DEFAULT 14 _ZNSt3__120__shared_ptr_e
334:   FUNC GLOBAL DEFAULT 14 avb_strv_find_str
335:   FUNC WEAK DEFAULT 14 _ZNSt3__112__hash_tableIN
336:   FUNC GLOBAL DEFAULT 14 _ZN25BlockingConnectionAd
337:   OBJECT GLOBAL DEFAULT 18 kFeatureFixedPushSymlinkT
338:   FUNC GLOBAL DEFAULT 14 _Z14adbd_auth_initv
339:   FUNC GLOBAL DEFAULT 14 _ZN25BlockingConnectionAd
340:   FUNC GLOBAL DEFAULT 14 _Z10setup_mdnsi
341:   FUNC GLOBAL DEFAULT 14 _Z32set_verity_enabled_st
342:   OBJECT WEAK DEFAULT 18 _ZTVNSt3__110__function6_
343:   FUNC GLOBAL DEFAULT 14 avb_sha256_final
344:   FUNC WEAK DEFAULT 14 _ZNSt3__112__hash_tableIN
345:   OBJECT GLOBAL DEFAULT 18 kFeatureAbb
346:   FUNC GLOBAL DEFAULT 14 _Z15StartSubprocessNSt3__
347:   FUNC GLOBAL DEFAULT 14 _Z21tcp_listen_inaddr_any
348:   FUNC GLOBAL DEFAULT 14 avb_ab_data_update_crc_an
349:   FUNC GLOBAL DEFAULT 14 _Z15remove_listenerPKcP10
350:   FUNC WEAK DEFAULT 14 _ZNKSt3__110__function6__
351:   FUNC WEAK DEFAULT 14 _ZNSt3__110__function6__f
352:   FUNC GLOBAL DEFAULT 14 _ZN13ShellProtocolC2Ei
353:   FUNC GLOBAL DEFAULT 14 avb_strlen
354:   FUNC GLOBAL DEFAULT 14 avb_slot_verify
355:   FUNC WEAK DEFAULT 14 _ZNSt3__16vectorI5iovecNS
356:   OBJECT WEAK DEFAULT 18 _ZTVNSt3__110__function6_
357:   FUNC GLOBAL DEFAULT 14 _ZN10atransport14RunDisco
358:   FUNC GLOBAL DEFAULT 14 _Z15open_functionfsPN7and
359:   FUNC GLOBAL DEFAULT 14 _Z15usb_init_legacyv
360:   FUNC GLOBAL DEFAULT 14 avb_ops_user_free
361:   FUNC WEAK DEFAULT 14 _ZNSt3__110__function6__f
362:   FUNC GLOBAL DEFAULT 14 avb_uppercase
363:   FUNC WEAK DEFAULT 14 _ZNSt3__114__split_buffer
364:   OBJECT WEAK DEFAULT 18 _ZTVNSt3__119basic_ostrin
365:   FUNC GLOBAL DEFAULT 14 __addtf3
366:   FUNC WEAK DEFAULT 14 _ZNSt3__124__put_characte
367:   FUNC GLOBAL DEFAULT 14 _Z18adbd_auth_verifiedP10
368:   FUNC GLOBAL DEFAULT 14 _Z9AdbLoggerN7android4bas
369:   FUNC GLOBAL DEFAULT 14 _ZN10atransportD1Ev
370:   OBJECT WEAK DEFAULT 18 _ZTTNSt3__119basic_ostrin
371:   FUNC GLOBAL DEFAULT 14 _Z23getEmulatorSerialStri
372:   FUNC GLOBAL DEFAULT 14 qemu_pipe_frame_send
373:   FUNC GLOBAL DEFAULT 14 _Z29UsbNoPermissionsShort
374:   FUNC GLOBAL DEFAULT 14 _Z13errno_to_wirei
375:   FUNC WEAK DEFAULT 14 _ZNSt3__112__deque_baseIN
376:   FUNC GLOBAL DEFAULT 14 _Z14connect_deviceRKNSt3_
377:   FUNC GLOBAL DEFAULT 14 avb_sub_cmdline
378:   FUNC GLOBAL DEFAULT 14 avb_descriptor_validate_a
379:   FUNC WEAK DEFAULT 14 _ZNSt3__110__function6__f
380:   FUNC GLOBAL DEFAULT 14 _Z22register_usb_transpor
381:   FUNC GLOBAL DEFAULT 14 _Z14reboot_serviceN7andro
382:   FUNC GLOBAL DEFAULT 14 _Z8SendFailiNSt3__117basi
383:   FUNC GLOBAL DEFAULT 14 _Z6mkdirsRKNSt3__112basic
384:   FUNC GLOBAL DEFAULT 14 _ZN13UsbConnectionD2Ev
385:   FUNC WEAK DEFAULT 14 _ZNKSt3__110__function6__
386:   FUNC WEAK DEFAULT 14 _ZNSt3__112__hash_tableIN
387:   FUNC GLOBAL DEFAULT 14 avb_ops_user_new
388:   FUNC GLOBAL DEFAULT 14 avb_strcmp
389:   FUNC GLOBAL DEFAULT 14 _Z15fdevent_destroyP7fdev
390:   FUNC GLOBAL DEFAULT 14 _Z18register_transportP10
391:   OBJECT GLOBAL DEFAULT 18 kFeatureCmd
392:   FUNC WEAK DEFAULT 14 _ZNSt3__16vectorIN7androi
393:   FUNC WEAK DEFAULT 14 _ZNSt3__16vectorIiNS_9all
394:   FUNC GLOBAL DEFAULT 14 _Z14WriteFdExactlyiPKvm
395:   FUNC WEAK DEFAULT 14 _ZNSt3__110__function6__f
396:   FUNC GLOBAL DEFAULT 14 _Z19ReadOrderlyShutdowni
397:   FUNC WEAK DEFAULT 14 _ZNSt3__112__deque_baseIN
398:   FUNC WEAK DEFAULT 14 _ZNSt3__110__function6__f
399:   FUNC GLOBAL DEFAULT 14 __gttf2
400:   FUNC WEAK DEFAULT 14 _ZNKSt3__110__function6__
401:   OBJECT WEAK DEFAULT 18 _ZTVNSt3__110__function6_
402:   FUNC GLOBAL DEFAULT 14 _Z10escape_argRKNSt3__112
403:   FUNC GLOBAL DEFAULT 14 _Z20adb_get_homedir_pathv
404:   FUNC GLOBAL DEFAULT 14 _Z22fdevent_terminate_loo
405:   FUNC WEAK DEFAULT 14 _ZNSt3__112__hash_tableIN
406:   FUNC WEAK DEFAULT 14 _ZNSt3__114__split_buffer
407:   FUNC GLOBAL DEFAULT 14 _Z20daemon_service_to_fdN
408:   FUNC WEAK DEFAULT 14 _ZNSt3__16vectorIPKcNS_9a
409:   FUNC GLOBAL DEFAULT 14 _Z15StartSubprocessNSt3__
410:   FUNC GLOBAL DEFAULT 14 avb_ab_mark_slot_unbootab
411:   FUNC GLOBAL DEFAULT 14 _Z17update_transportsv
412:   FUNC WEAK DEFAULT 14 _ZNSt3__114__split_buffer
413:   OBJECT WEAK DEFAULT 18 _ZTVNSt3__120__shared_ptr
414:   FUNC GLOBAL DEFAULT 14 _Z22restart_unroot_servic
415:   FUNC GLOBAL DEFAULT 14 avb_hash_descriptor_valid
416:   FUNC GLOBAL DEFAULT 14 _Z11adb_versionv
417:   FUNC GLOBAL DEFAULT 14 _Z18socket_spec_listenNSt
418:   FUNC WEAK DEFAULT 14 _ZNSt3__112__hash_tableIN
419:   OBJECT GLOBAL DEFAULT 18 _ZTV10Connection
420:   FUNC WEAK DEFAULT 14 _ZNSt3__114__thread_proxy
421:   FUNC GLOBAL DEFAULT 14 _Z19restart_tcp_serviceN7
422:   FUNC GLOBAL DEFAULT 14 _ZN13ShellProtocolD1Ev
423:   FUNC WEAK DEFAULT 14 _ZNSt3__14listIP10atransp
424:   FUNC GLOBAL DEFAULT 14 _Z13local_connecti
425:   FUNC GLOBAL DEFAULT 14 _ZN13UsbConnectionD0Ev
426:   FUNC WEAK DEFAULT 14 _ZNSt3__114__thread_proxy
427:   FUNC GLOBAL DEFAULT 14 _Z19fdevent_set_timeoutP7
428:   FUNC WEAK DEFAULT 14 _ZNSt3__114__split_buffer
429:   FUNC GLOBAL DEFAULT 14 _ZNK10atransport20get_pro
430:   FUNC GLOBAL DEFAULT 14 __fe_raise_inexact
431:   FUNC WEAK DEFAULT 14 _ZNSt3__110__function6__f
432:   FUNC GLOBAL DEFAULT 14 avb_htobe64
433:   FUNC GLOBAL DEFAULT 14 _Z11send_packetP7apacketP
434:   FUNC GLOBAL DEFAULT 14 _ZN10atransport11SetFeatu
435:   FUNC GLOBAL DEFAULT 14 __netf2
436:   FUNC WEAK DEFAULT 14 _ZNKSt3__110__function6__
437:   FUNC GLOBAL DEFAULT 14 _Z11fdevent_delP7fdeventj
438:   FUNC GLOBAL DEFAULT 14 _Z23fdevent_installed_cou
439:   FUNC WEAK DEFAULT 14 _ZNSt3__114__thread_proxy
440:   FUNC WEAK DEFAULT 14 _ZNSt3__112__hash_tableIN
441:   FUNC GLOBAL DEFAULT 14 _ZN10atransport5ResetEv
442:   FUNC WEAK DEFAULT 14 _ZNSt3__15dequeINS_10uniq
443:   FUNC GLOBAL DEFAULT 14 _Z19restart_usb_serviceN7
444:   FUNC WEAK DEFAULT 14 _ZNSt3__110__function6__f
445:   FUNC GLOBAL DEFAULT 14 _Z14WriteFdExactlyiRKNSt3
446:   FUNC GLOBAL DEFAULT 14 avb_chain_partition_descr
447:   FUNC GLOBAL DEFAULT 14 _Z23network_loopback_clie
448:   FUNC GLOBAL DEFAULT 14 _Z17set_tcp_keepaliveii
449:   FUNC GLOBAL DEFAULT 14 _Z21create_service_thread
450:   FUNC GLOBAL DEFAULT 14 _Z26fdevent_run_on_main_t
451:   FUNC GLOBAL DEFAULT 14 avb_footer_validate_and_b
452:   FUNC GLOBAL DEFAULT 14 avb_vbmeta_image_header_t
453:   FUNC GLOBAL DEFAULT 14 avb_ab_mark_slot_successf
454:   FUNC GLOBAL DEFAULT 14 _Z22handle_forward_reques
455:   FUNC GLOBAL DEFAULT 14 _Z35adbd_notify_framework
456:   FUNC GLOBAL DEFAULT 14 _Z11fdevent_addP7fdeventj
457:   FUNC GLOBAL DEFAULT 14 _Z12parse_bannerRKNSt3__1
458:   FUNC GLOBAL DEFAULT 14 _ZN9alistenerD2Ev
459:   FUNC WEAK DEFAULT 14 _ZNKSt3__110__function6__
460:   FUNC WEAK DEFAULT 14 _ZNSt3__110__function6__f
461:   FUNC GLOBAL DEFAULT 14 _Z24adb_get_android_dir_p
462:   FUNC WEAK DEFAULT 14 _ZNSt3__112__hash_tableIN
463:   FUNC GLOBAL DEFAULT 14 _ZNK10atransport13Matches
464:   OBJECT GLOBAL DEFAULT 18 _ZTV13ShellProtocol
465:   FUNC WEAK DEFAULT 14 _ZNSt3__112__hash_tableIN
466:   FUNC WEAK DEFAULT 14 _ZNSt3__114__thread_proxy
467:   FUNC WEAK DEFAULT 14 _ZNSt3__114__split_buffer
468:   OBJECT GLOBAL DEFAULT 18 kFeatureFixedPushMkdir
469:   FUNC WEAK DEFAULT 14 _ZNKSt3__110__function6__
470:   FUNC GLOBAL DEFAULT 14 avb_add_root_digest_subst
471:   FUNC WEAK DEFAULT 14 _ZN7android4base9ParseUin
472:   FUNC GLOBAL DEFAULT 14 _ZN10atransport13SetConne
473:   FUNC GLOBAL DEFAULT 14 avb_kernel_cmdline_descri
474:   FUNC GLOBAL DEFAULT 14 avb_be32toh
475:   FUNC GLOBAL DEFAULT 14 _Z20remove_all_listenersv
476:   FUNC GLOBAL DEFAULT 14 __multf3
477:   FUNC GLOBAL DEFAULT 14 _Z15reverse_serviceNSt3__
478:   FUNC WEAK DEFAULT 14 _ZNSt3__110__function6__f
479:   FUNC GLOBAL DEFAULT 14 avb_slot_verify_data_free
480:   FUNC GLOBAL DEFAULT 14 _Z13ReadFdExactlyiPvm
481:   FUNC GLOBAL DEFAULT 14 _Z25create_jdwp_connectio
482:   FUNC GLOBAL DEFAULT 14 avb_ab_data_verify_and_by
483:   FUNC GLOBAL DEFAULT 14 _Z14fdevent_createiPFvijP
484:   FUNC GLOBAL DEFAULT 14 _ZNK7asocket15get_max_pay
485:   FUNC GLOBAL DEFAULT 14 avb_bin2hex
486:   OBJECT GLOBAL DEFAULT 18 kFeatureStat2
487:   FUNC WEAK DEFAULT 14 _ZNSt3__110__function6__f
488:   FUNC GLOBAL DEFAULT 14 _Z15network_connectRKNSt3
489:   FUNC GLOBAL DEFAULT 14 avb_htobe32
490:   FUNC WEAK DEFAULT 14 _ZNSt3__112__hash_tableIN
491:   FUNC WEAK DEFAULT 14 _ZNSt3__110__function6__f
492:   FUNC WEAK DEFAULT 14 _ZNSt3__112__hash_tableIN
493:   FUNC GLOBAL DEFAULT 14 _Z13service_to_fdNSt3__11
494:   FUNC GLOBAL DEFAULT 14 _ZN18ConnectionWaitable17
495:   FUNC GLOBAL DEFAULT 14 _Z11tcp_connectRKNSt3__11
496:   FUNC GLOBAL DEFAULT 14 _ZN13ShellProtocol5WriteE
497:   FUNC GLOBAL DEFAULT 14 avb_str_concat
498:   FUNC WEAK DEFAULT 14 _ZNSt3__112__deque_baseIN
499:   FUNC WEAK DEFAULT 14 _ZNSt3__114__split_buffer
500:   FUNC WEAK DEFAULT 14 _ZNSt3__110__function6__f
501:   FUNC WEAK DEFAULT 14 _ZNSt3__110__function6__f
502:   OBJECT WEAK DEFAULT 18 _ZTVNSt3__110__function6_
503:   FUNC GLOBAL DEFAULT 14 avb_sha256_init
504:   FUNC GLOBAL DEFAULT 14 avb_be64toh
505:   FUNC GLOBAL DEFAULT 14 avb_safe_add
506:   FUNC GLOBAL DEFAULT 14 avb_ab_data_write
507:   FUNC GLOBAL DEFAULT 14 _ZN10atransport24SetConne
508:   FUNC GLOBAL DEFAULT 14 _Z10local_initi
509:   FUNC WEAK DEFAULT 14 _ZNKSt3__110__function6__
510:   OBJECT GLOBAL DEFAULT 16 auth_required
511:   FUNC GLOBAL DEFAULT 14 _ZN10atransport16RemoveDi
512:   FUNC GLOBAL DEFAULT 14 __fe_getround
513:   FUNC GLOBAL DEFAULT 14 avb_ab_data_read
514:   FUNC GLOBAL DEFAULT 14 _Z10perror_strPKc
515:   FUNC GLOBAL DEFAULT 14 _Z12fdevent_loopv
516:   FUNC WEAK DEFAULT 14 _ZNKSt3__112__hash_tableI
517:   FUNC WEAK DEFAULT 14 _ZNSt3__16vectorI4iocbNS_
518:   FUNC GLOBAL DEFAULT 14 _Z17file_sync_serviceN7an
519:   FUNC GLOBAL DEFAULT 14 _Z11get_apacketv
520:   FUNC GLOBAL DEFAULT 14 _Z17send_auth_requestP10a
521:   FUNC GLOBAL DEFAULT 14 _Z14is_socket_specNSt3__1
522:   FUNC GLOBAL DEFAULT 14 _ZN13UsbConnection4ReadEP
523:   FUNC GLOBAL DEFAULT 14 avb_malloc_
524:   FUNC GLOBAL DEFAULT 14 _Z26calculate_apacket_che
525:   FUNC GLOBAL DEFAULT 14 _Z26get_trace_setting_fro
526:   FUNC GLOBAL DEFAULT 14 _Z11dump_headerPK8amessag
527:   FUNC GLOBAL DEFAULT 14 _Z15NextTransportIdv
528:   FUNC GLOBAL DEFAULT 14 _Z18SendProtocolStringiNS
529:   FUNC WEAK DEFAULT 14 _ZNKSt3__110__function6__
530:   FUNC GLOBAL DEFAULT 14 avb_slot_verify_data_calc
531:   FUNC GLOBAL DEFAULT 14 _Z21parse_tcp_socket_spec
532:   FUNC GLOBAL DEFAULT 14 _Z9usb_closeP10usb_handle
533:   FUNC WEAK DEFAULT 14 _ZNSt3__110__function6__f
534:   FUNC GLOBAL DEFAULT 14 _ZN13ShellProtocol4ReadEv
535:   FUNC GLOBAL DEFAULT 14 avb_slot_verify_result_to
536:   FUNC GLOBAL DEFAULT 14 avb_div_by_10
537:   FUNC GLOBAL DEFAULT 14 _Z16install_listenerRKNSt
538:   FUNC WEAK DEFAULT 14 _ZNKSt3__110__function6__
539:   FUNC WEAK DEFAULT 14 _ZNSt3__16vectorINS_12bas
540:   FUNC WEAK DEFAULT 14 _ZNSt3__110__function6__f
541:   FUNC WEAK DEFAULT 14 _ZNSt3__110__function6__f
542:   FUNC WEAK DEFAULT 14 _ZNSt3__110__function6__f
543:   FUNC GLOBAL DEFAULT 14 _Z23network_loopback_serv
544:   FUNC GLOBAL DEFAULT 14 _ZN25BlockingConnectionAd
545:   FUNC WEAK DEFAULT 14 _ZNSt3__16vectorI6pollfdN
546:   FUNC GLOBAL DEFAULT 14 _ZNK10atransport11has_fea
547:   OBJECT WEAK DEFAULT 18 _ZTV12SourceSocket
548:   FUNC GLOBAL DEFAULT 14 _ZN25BlockingConnectionAd
549:   FUNC WEAK DEFAULT 14 _ZNSt3__110__function6__f
550:   FUNC GLOBAL DEFAULT 14 avb_sha512_update
551:   FUNC GLOBAL DEFAULT 14 _ZN13UsbConnection5CloseE
552:   FUNC GLOBAL DEFAULT 14 _Z21get_connection_string
553:   FUNC GLOBAL DEFAULT 14 _Z11fdevent_setP7fdeventj
554:   FUNC GLOBAL DEFAULT 14 _Z20is_local_socket_specN
555:   FUNC GLOBAL DEFAULT 14 _ZN25BlockingConnectionAd
556:   OBJECT GLOBAL DEFAULT 18 kFeatureApex
557:   FUNC GLOBAL DEFAULT 14 _Z17create_usb_handlejj
558:   FUNC GLOBAL DEFAULT 14 _Z8dump_hexPKvm
559:   FUNC GLOBAL DEFAULT 14 avb_sha256_update
560:   FUNC WEAK DEFAULT 14 _ZNSt3__114__split_buffer
561:   FUNC GLOBAL DEFAULT 14 avb_malloc
562:   FUNC GLOBAL DEFAULT 14 _Z13handle_packetP7apacke
563:   FUNC GLOBAL DEFAULT 14 _Z9init_jdwpv
564:   FUNC WEAK DEFAULT 14 _ZNSt3__112__hash_tableIN
565:   FUNC GLOBAL DEFAULT 14 __letf2
566:   FUNC GLOBAL DEFAULT 14 _Z19socket_spec_connectPN
567:   FUNC GLOBAL DEFAULT 14 _Z13CanUseFeatureRKNSt3__
568:   FUNC GLOBAL DEFAULT 14 _Z22handle_forward_reques
569:   FUNC GLOBAL DEFAULT 14 avb_vbmeta_verify_result_
570:   OBJECT WEAK DEFAULT 18 _ZTVNSt3__110__function6_
571:   FUNC GLOBAL DEFAULT 14 _Z29local_connect_arbitra
572:   FUNC GLOBAL DEFAULT 14 avb_validate_utf8
573:   FUNC GLOBAL DEFAULT 14 _Z11close_stdinv
574:   FUNC WEAK DEFAULT 14 _ZNKSt3__115basic_stringb
575:   FUNC WEAK DEFAULT 14 _ZNSt3__15dequeINS_10uniq
576:   OBJECT WEAK DEFAULT 18 _ZTVNSt3__115basic_string
577:   FUNC WEAK DEFAULT 14 _ZNSt3__16vectorI8io_even
578:   FUNC GLOBAL DEFAULT 14 _Z18close_smartsocketsv
579:   FUNC GLOBAL DEFAULT 14 _Z15fdevent_releaseP7fdev
580:   OBJECT WEAK DEFAULT 18 _ZTVNSt3__120__shared_ptr
581:   FUNC GLOBAL DEFAULT 14 _Z18init_usb_transportP10
582:   FUNC WEAK DEFAULT 14 _ZNSt3__112__hash_tableIN
583:   FUNC GLOBAL DEFAULT 14 _Z14adb_trace_initPPc
584:   FUNC GLOBAL DEFAULT 14 _Z21StartCommandInProcess
585:   FUNC GLOBAL DEFAULT 14 _Z12send_connectP10atrans
586:   FUNC WEAK DEFAULT 14 _ZNSt3__112__hash_tableIN
587:   FUNC GLOBAL DEFAULT 14 avb_ab_mark_slot_active
588:   FUNC GLOBAL DEFAULT 14 _Z21acquire_one_transport
589:   FUNC WEAK DEFAULT 14 _ZNSt3__114__split_buffer
590:   FUNC WEAK DEFAULT 14 _ZNSt3__16vectorINS_10uni
591:   FUNC GLOBAL DEFAULT 14 _ZN10atransport18SetConne
592:   FUNC GLOBAL DEFAULT 14 _Z25forward_targets_are_v
593:   FUNC GLOBAL DEFAULT 14 _Z19kick_all_transportsv
594:   FUNC GLOBAL DEFAULT 14 _ZN10atransportD2Ev
595:   FUNC GLOBAL DEFAULT 14 _Z17should_use_libusbv
596:   FUNC GLOBAL DEFAULT 14 avb_get_algorithm_data
597:   FUNC GLOBAL DEFAULT 14 avb_ab_data_init
598:   FUNC GLOBAL DEFAULT 14 _ZN13ShellProtocolC1Ei
599:   FUNC GLOBAL DEFAULT 14 avb_abort
600:   FUNC GLOBAL DEFAULT 14 avb_ab_flow
601:   FUNC WEAK DEFAULT 14 _ZNSt3__14listIP7fdeventN
602:   FUNC WEAK DEFAULT 14 _ZNSt3__112__hash_tableIN
603:   FUNC GLOBAL DEFAULT 14 _Z14kick_transportP10atra
604:   FUNC GLOBAL DEFAULT 14 avb_user_verity_set
605:   FUNC GLOBAL DEFAULT 14 _Z20create_remote_socketj
606:   FUNC GLOBAL DEFAULT 14 _Z8SendOkayi
607:   OBJECT GLOBAL DEFAULT 18 kFeatureShell2
608:   FUNC GLOBAL DEFAULT 14 _Z20server_socket_threadN
609:   FUNC GLOBAL DEFAULT 14 _Z14WriteFdExactlyiPKc
610:   FUNC GLOBAL DEFAULT 14 _ZN10atransport13AddDisco
611:   FUNC WEAK DEFAULT 14 _ZNSt3__110__function6__f
612:   FUNC GLOBAL DEFAULT 14 _ZN13UsbConnection5ResetE
613:   FUNC GLOBAL DEFAULT 14 _Z11ReportError18Subproce
614:   FUNC GLOBAL DEFAULT 14 qemu_pipe_frame_recv
615:   FUNC GLOBAL DEFAULT 14 _ZNK10atransport15get_max
616:   FUNC GLOBAL DEFAULT 14 _Z18ReadProtocolStringiPN
617:   FUNC GLOBAL DEFAULT 14 _ZN10atransport9Reconnect
618:   FUNC GLOBAL DEFAULT 14 _ZN12FdConnection4ReadEP7
619:   FUNC GLOBAL DEFAULT 14 _ZN13UsbConnection5WriteE
620:   FUNC WEAK DEFAULT 14 _ZNKSt3__110__function6__
621:   FUNC WEAK DEFAULT 14 _ZNSt3__115basic_stringbu
622:   FUNC GLOBAL DEFAULT 14 _ZN10atransportD0Ev
623:   FUNC WEAK DEFAULT 14 _ZNSt3__115basic_stringbu
624:   FUNC WEAK DEFAULT 14 _ZNSt3__16vectorIP4iocbNS
625:   FUNC GLOBAL DEFAULT 14 _Z18supported_featuresv
626:   FUNC GLOBAL DEFAULT 14 _Z21adbd_auth_confirm_key
627:   FUNC GLOBAL DEFAULT 14 _Z14GetLogFilePathv
628:   FUNC WEAK DEFAULT 14 _ZNSt3__112__hash_tableIN
629:   OBJECT GLOBAL DEFAULT 16 os_desc_compat
630:   FUNC WEAK DEFAULT 14 _ZNSt3__110__function6__f
631:   FUNC WEAK DEFAULT 14 _ZNSt3__115basic_stringbu
632:   OBJECT WEAK DEFAULT 18 _ZTCNSt3__119basic_ostrin
633:   OBJECT WEAK DEFAULT 18 _ZTVNSt3__110__function6_
634:   FUNC GLOBAL DEFAULT 14 _ZNK10atransport18GetConn
635:   FUNC GLOBAL DEFAULT 14 _Z25register_socket_trans
636:   FUNC GLOBAL DEFAULT 14 _ZN13ShellProtocolD2Ev
637:   FUNC GLOBAL DEFAULT 14 avb_memcpy
638:   FUNC GLOBAL DEFAULT 14 _Z14fdevent_createiPFvP7f
639:   FUNC GLOBAL DEFAULT 14 _ZN13UsbConnectionD1Ev
640:   FUNC GLOBAL DEFAULT 14 avb_rsa_verify
641:   FUNC GLOBAL DEFAULT 14 avb_strstr
642:   FUNC GLOBAL DEFAULT 14 _Z22connect_to_smartsocke
643:   FUNC GLOBAL DEFAULT 14 _Z18StringToFeatureSetRKN
644:   OBJECT GLOBAL DEFAULT 18 _ZTV12FdConnection
645:   FUNC GLOBAL DEFAULT 14 __floatditf
646:   FUNC GLOBAL DEFAULT 14 _Z17use_qemu_goldfishv
647:   FUNC GLOBAL DEFAULT 14 __unordtf2
648:   FUNC GLOBAL DEFAULT 14 avb_hashtree_descriptor_v
649:   FUNC GLOBAL DEFAULT 14 avb_safe_memcmp
650:   FUNC GLOBAL DEFAULT 14 _Z11put_apacketP7apacket
651:   FUNC GLOBAL DEFAULT 14 _Z17close_all_socketsP10a
652:   OBJECT GLOBAL DEFAULT 18 _ZTV25BlockingConnectionA
653:   FUNC GLOBAL DEFAULT 14 avb_free
654:   FUNC GLOBAL DEFAULT 14 _Z19create_local_socketN7
655:   FUNC GLOBAL DEFAULT 14 _Z21init_socket_transport
656:   FUNC WEAK DEFAULT 14 _ZNSt3__114__split_buffer
657:   FUNC WEAK DEFAULT 14 _ZNSt3__120__shared_ptr_e
658:   FUNC GLOBAL DEFAULT 14 _Z17find_local_socketjj
659:   FUNC WEAK DEFAULT 14 _ZNSt3__115basic_stringbu
660:   FUNC GLOBAL DEFAULT 14 __getf2
661:   FUNC GLOBAL DEFAULT 14 _ZN13ShellProtocolD0Ev
662:   FUNC GLOBAL DEFAULT 14 _Z20suggest_run_adb_rooti
663:   FUNC GLOBAL DEFAULT 14 avb_memcmp
664:   FUNC WEAK DEFAULT 14 _ZNSt3__15dequeINS_10shar
665:   OBJECT GLOBAL DEFAULT 18 _ZTV13UsbConnection
666:   OBJECT WEAK DEFAULT 18 _ZTV10SinkSocket
667:   FUNC GLOBAL DEFAULT 14 _Z27create_local_service_
668:   FUNC GLOBAL DEFAULT 14 _ZN25BlockingConnectionAd
669:   OBJECT GLOBAL DEFAULT 18 kFeaturePushSync
670:   FUNC GLOBAL DEFAULT 14 _Z8usb_kickP10usb_handle
671:   OBJECT GLOBAL DEFAULT 16 kADBServiceType
672:   FUNC GLOBAL DEFAULT 14 avb_ab_flow_result_to_str
673:   FUNC GLOBAL DEFAULT 14 _Z17get_trace_settingv
674:   FUNC GLOBAL DEFAULT 14 _Z28UsbNoPermissionsLongH
675:   FUNC WEAK DEFAULT 14 _ZN7android4base4JoinINSt
676:   FUNC GLOBAL DEFAULT 14 _Z12ShellServiceNSt3__117
677:   FUNC WEAK DEFAULT 14 _ZNSt3__16vectorINS_12bas
678:   OBJECT GLOBAL DEFAULT 18 kFeatureLibusb
679:   OBJECT WEAK DEFAULT 18 _ZTVNSt3__110__function6_
680:   FUNC WEAK DEFAULT 14 _ZNSt3__16vectorINS_12bas
681:   FUNC GLOBAL DEFAULT 14 _Z13fdevent_resetv
682:   FUNC WEAK DEFAULT 14 _ZNSt3__15dequeINS_8funct
683:   FUNC GLOBAL DEFAULT 14 __cmptf2
684:   FUNC WEAK DEFAULT 14 _ZNSt3__110__function6__f
685:   FUNC GLOBAL DEFAULT 14 _ZN10atransport14update_v
686:   FUNC GLOBAL DEFAULT 14 _ZN10atransport4KickEv
687:   FUNC GLOBAL DEFAULT 14 _ZN25BlockingConnectionAd
688:   FUNC WEAK DEFAULT 14 _ZNKSt3__110__function6__
689:   FUNC GLOBAL DEFAULT 14 _ZN25BlockingConnectionAd
690:   FUNC GLOBAL DEFAULT 14 _Z16is_adb_interfaceiii
691:   FUNC GLOBAL DEFAULT 14 avb_sha512_final
692:   FUNC GLOBAL DEFAULT 14 _ZN9alistenerD1Ev
693:   FUNC WEAK DEFAULT 14 _ZNKSt3__110__function6__
694:   FUNC GLOBAL DEFAULT 14 avb_vbmeta_image_verify
695:   FUNC GLOBAL DEFAULT 14 _Z16adbd_auth_verifyPKcmR
696:   FUNC WEAK DEFAULT 14 _ZNSt3__120__shared_ptr_p
697:   FUNC GLOBAL DEFAULT 14 _Z15remount_serviceN7andr
698:   FUNC WEAK DEFAULT 14 _ZNKSt3__110__function6__
699:   OBJECT WEAK DEFAULT 18 _ZTV13ServiceSocket
700:   FUNC GLOBAL DEFAULT 14 avb_free_cmdline_subst_li
701:   FUNC GLOBAL DEFAULT 14 avb_safe_add_to
702:   FUNC GLOBAL DEFAULT 14 _Z18FeatureSetToStringRKN
703:   OBJECT GLOBAL DEFAULT 23 adb_trace_mask
704:   FUNC GLOBAL DEFAULT 14 _Z11perror_exitPKcz
705:   FUNC WEAK DEFAULT 14 _ZNSt3__15dequeINS_10shar
706:   FUNC GLOBAL DEFAULT 14 _ZN18ConnectionWaitable24
707:   FUNC GLOBAL DEFAULT 14 avb_sha512_init
708:   FUNC GLOBAL DEFAULT 14 avb_calloc
709:   FUNC GLOBAL DEFAULT 14 _Z12check_headerP7apacket
710:   FUNC GLOBAL DEFAULT 14 _Z27init_transport_regist
711:   FUNC WEAK DEFAULT 14 _ZNSt3__114__split_buffer
712:   FUNC GLOBAL DEFAULT 14 _Z8usb_readP10usb_handleP
713:   FUNC GLOBAL DEFAULT 14 _Z9usb_resetP10usb_handle
714:   FUNC GLOBAL DEFAULT 14 _Z13remove_socketP7asocke
715:   FUNC WEAK DEFAULT 14 _ZNSt3__16vectorIP7asocke
716:   FUNC GLOBAL DEFAULT 14 _Z15errno_from_wirei
717:   FUNC GLOBAL DEFAULT 14 _ZN10Connection5ResetEv
718:   OBJECT WEAK DEFAULT 18 _ZTVNSt3__120__shared_ptr
719:   OBJECT WEAK DEFAULT 18 _ZTVNSt3__110__function6_
720:   FUNC GLOBAL DEFAULT 14 avb_descriptor_get_all
721:   FUNC WEAK DEFAULT 14 _ZNSt3__112__hash_tableIN
722:   FUNC GLOBAL DEFAULT 14 _Z24adbd_cloexec_auth_soc
723:   FUNC GLOBAL DEFAULT 14 _Z34create_jdwp_tracker_s
724:   FUNC WEAK DEFAULT 14 _ZNSt3__110__function6__f
725:   FUNC GLOBAL DEFAULT 14 _Z19set_file_block_modeib
726:   FUNC WEAK DEFAULT 14 _ZNSt3__120__shared_ptr_p
727:   FUNC GLOBAL DEFAULT 14 _ZN10atransport5WriteEP7a
728:   FUNC GLOBAL DEFAULT 14 _Z15set_main_threadv
729:   OBJECT GLOBAL DEFAULT 23 gListenAll
730:   FUNC WEAK DEFAULT 14 _ZNSt3__114__split_buffer
731:   FUNC GLOBAL DEFAULT 14 avb_new_cmdline_subst_lis
732:   FUNC GLOBAL DEFAULT 14 _Z20install_local_socketP
733:   FUNC WEAK DEFAULT 14 _ZNSt3__112__hash_tableIN
734:   FUNC GLOBAL DEFAULT 14 _ZN12FdConnection5WriteEP
735:   FUNC WEAK DEFAULT 14 _ZNSt3__112__hash_tableIN
736:   FUNC WEAK DEFAULT 14 _ZNSt3__114__thread_proxy
737:   FUNC GLOBAL DEFAULT 14 _Z19framebuffer_serviceN7
738:   FUNC GLOBAL DEFAULT 14 avb_append_options
739:   FUNC GLOBAL DEFAULT 14 avb_descriptor_foreach
740:   FUNC GLOBAL DEFAULT 14 avb_basename
741:   FUNC GLOBAL DEFAULT 14 avb_print
742:   FUNC GLOBAL DEFAULT 14 avb_printv
743:   FUNC GLOBAL DEFAULT 14 _Z17connect_to_remoteP7as
744:   FUNC GLOBAL DEFAULT 14 _ZN9alistenerC1ERKNSt3__1
745:   FUNC GLOBAL DEFAULT 14 _Z10error_exitPKcz
746:   FUNC WEAK DEFAULT 14 _ZNKSt3__110__function6__
