 0x000000000000000e (SONAME)             Library soname: [libminadbd_services.so]
  
Symbol   contains 77 entries:
Num:   Type Bind Vis Ndx Name
0:   NOTYPE LOCAL DEFAULT UND
1:   FUNC GLOBAL DEFAULT UND __cxa_finalize@LIBC (2)
2:   FUNC GLOBAL DEFAULT UND __cxa_atexit@LIBC (2)
3:   FUNC GLOBAL DEFAULT UND _Z10WriteFdFmtiPKcz
4:   FUNC GLOBAL DEFAULT UND _Z13ReadFdExactlyiPvm
5:   FUNC GLOBAL DEFAULT UND _ZdlPv
6:   FUNC GLOBAL DEFAULT UND __errno@LIBC (2)
7:   FUNC GLOBAL DEFAULT UND fprintf@LIBC (2)
8:   OBJECT GLOBAL DEFAULT UND stderr@LIBC (2)
9:   FUNC GLOBAL DEFAULT UND strerror@LIBC (2)
10:   FUNC GLOBAL DEFAULT UND _Z17run_fuse_sideloadONSt
11:   FUNC GLOBAL DEFAULT UND _Z21create_service_thread
12:   FUNC GLOBAL DEFAULT UND _ZN7android4base10LogMess
13:   FUNC GLOBAL DEFAULT UND _ZN7android4base10LogMess
14:   FUNC GLOBAL DEFAULT UND _ZN7android4base10LogMess
15:   FUNC GLOBAL DEFAULT UND _ZN7android4base10StartsW
16:   FUNC GLOBAL DEFAULT UND _ZN7android4base10WriteFu
17:   FUNC GLOBAL DEFAULT UND _ZN7android4base11GetProp
18:   FUNC GLOBAL DEFAULT UND _ZN7android4base21GetMini
19:   FUNC GLOBAL DEFAULT UND _ZN7android4base5SplitERK
20:   FUNC GLOBAL DEFAULT UND _ZN7android4base9ReadFull
21:   FUNC GLOBAL DEFAULT UND _ZNKSt3__112basic_stringI
22:   FUNC GLOBAL DEFAULT UND _ZNKSt3__121__basic_strin
23:   FUNC GLOBAL DEFAULT UND _ZNKSt3__16locale9use_fac
24:   FUNC GLOBAL DEFAULT UND _ZNKSt3__18ios_base6getlo
25:   FUNC GLOBAL DEFAULT UND _ZNSt3__112basic_stringIc
26:   FUNC GLOBAL DEFAULT UND _ZNSt3__112basic_stringIc
27:   FUNC GLOBAL DEFAULT UND _ZNSt3__112basic_stringIc
28:   FUNC GLOBAL DEFAULT UND _ZNSt3__112basic_stringIc
29:   FUNC GLOBAL DEFAULT UND _ZNSt3__112basic_stringIc
30:   FUNC GLOBAL DEFAULT UND _ZNSt3__112basic_stringIc
31:   FUNC GLOBAL DEFAULT UND _ZNSt3__112basic_stringIc
32:   FUNC GLOBAL DEFAULT UND _ZNSt3__113basic_ostreamI
33:   FUNC GLOBAL DEFAULT UND _ZNSt3__113basic_ostreamI
34:   FUNC GLOBAL DEFAULT UND _ZNSt3__113basic_ostreamI
35:   FUNC GLOBAL DEFAULT UND _ZNSt3__113basic_ostreamI
36:   OBJECT GLOBAL DEFAULT UND _ZNSt3__15ctypeIcE2idE
37:   FUNC GLOBAL DEFAULT UND _ZNSt3__16localeD1Ev
38:   FUNC GLOBAL DEFAULT UND _ZNSt3__18ios_base5clearE
39:   FUNC GLOBAL DEFAULT UND _ZNSt3__1plIcNS_11char_tr
40:   FUNC GLOBAL DEFAULT UND _Znwm
41:   FUNC GLOBAL DEFAULT UND __cxa_guard_acquire
42:   FUNC GLOBAL DEFAULT UND __cxa_guard_release
43:   FUNC GLOBAL DEFAULT UND __stack_chk_fail@LIBC (2)
44:   FUNC GLOBAL DEFAULT UND __strchr_chk@LIBC (2)
45:   FUNC WEAK DEFAULT UND android_fdsan_close_with_@LIBC_Q (3)
46:   FUNC WEAK DEFAULT UND android_fdsan_create_owne@LIBC_Q (3)
47:   FUNC WEAK DEFAULT UND android_fdsan_exchange_ow@LIBC_Q (3)
48:   FUNC GLOBAL DEFAULT UND close@LIBC (2)
49:   FUNC GLOBAL DEFAULT UND exit@LIBC (2)
50:   FUNC GLOBAL DEFAULT UND isspace@LIBC (2)
51:   FUNC GLOBAL DEFAULT UND memcmp@LIBC (2)
52:   FUNC GLOBAL DEFAULT UND memcpy@LIBC (2)
53:   FUNC GLOBAL DEFAULT UND memset@LIBC (2)
54:   FUNC GLOBAL DEFAULT UND strlen@LIBC (2)
55:   FUNC GLOBAL DEFAULT UND strtoll@LIBC (2)
56:   FUNC GLOBAL DEFAULT UND strtoull@LIBC (2)
57:   FUNC GLOBAL DEFAULT UND tolower@LIBC (2)
58:   FUNC GLOBAL DEFAULT 14 _ZNK19FuseAdbDataProvider
59:   FUNC GLOBAL DEFAULT 14 _Z21SetSideloadMountPoint
60:   FUNC WEAK DEFAULT 14 _ZNSt3__16__treeINS_12bas
61:   OBJECT GLOBAL DEFAULT 18 _ZTV19FuseAdbDataProvider
62:   FUNC GLOBAL DEFAULT 14 _Z20SetMinadbdRescueModeb
63:   FUNC GLOBAL DEFAULT 14 _Z20daemon_service_to_fdN
64:   FUNC WEAK DEFAULT 14 _ZNKSt3__110__function6__
65:   FUNC WEAK DEFAULT 14 _ZNKSt3__16__treeINS_12ba
66:   FUNC WEAK DEFAULT 14 _ZNSt3__110__function6__f
67:   FUNC WEAK DEFAULT 14 _ZNSt3__16__treeINS_12bas
68:   OBJECT WEAK DEFAULT 18 _ZTVNSt3__110__function6_
69:   FUNC GLOBAL DEFAULT 14 _Z18SetMinadbdSocketFdi
70:   FUNC WEAK DEFAULT 14 _ZN7android4base9ParseUin
71:   FUNC WEAK DEFAULT 14 _ZNKSt3__110__function6__
72:   FUNC WEAK DEFAULT 14 _ZNSt3__110__function6__f
73:   FUNC WEAK DEFAULT 14 _ZNSt3__110__function6__f
74:   FUNC WEAK DEFAULT 14 _ZNSt3__124__put_characte
75:   FUNC WEAK DEFAULT 14 _ZNSt3__127__tree_balance
76:   FUNC WEAK DEFAULT 14 _ZNSt3__16__treeINS_12bas
