 0x000000000000000e (SONAME)             Library soname: [libsquashfs_utils.so]
  
Symbol   contains 12 entries:
Num:   Type Bind Vis Ndx Name
0:   NOTYPE LOCAL DEFAULT UND
1:   FUNC GLOBAL DEFAULT UND __cxa_finalize@LIBC (2)
2:   FUNC GLOBAL DEFAULT UND __errno@LIBC (2)
3:   FUNC GLOBAL DEFAULT UND __open_2@LIBC (2)
4:   FUNC GLOBAL DEFAULT UND __read_chk@LIBC (2)
5:   FUNC GLOBAL DEFAULT UND __stack_chk_fail@LIBC (2)
6:   FUNC GLOBAL DEFAULT UND close@LIBC (2)
7:   FUNC GLOBAL DEFAULT UND klog_write
8:   FUNC GLOBAL DEFAULT UND strerror@LIBC (2)
9:   FUNC GLOBAL DEFAULT 13 squashfs_get_sb_size
10:   FUNC GLOBAL DEFAULT 13 squashfs_parse_sb
11:   FUNC GLOBAL DEFAULT 13 squashfs_parse_sb_buffer
