 0x000000000000000e (SONAME)             Library soname: [libhidl-gen-host-utils.so]
  
Symbol   contains 636 entries:
Num:   Type Bind Vis Ndx Name
0:   NOTYPE LOCAL DEFAULT UND
1:   NOTYPE WEAK DEFAULT UND __gmon_start__
2:   NOTYPE WEAK DEFAULT UND _ITM_deregisterTMCloneTab
3:   NOTYPE WEAK DEFAULT UND _ITM_registerTMCloneTable
4:   FUNC WEAK DEFAULT UND __cxa_finalize@GLIBC_2.2.5 (2)
5:   NOTYPE WEAK DEFAULT UND _Jv_RegisterClasses
6:   FUNC GLOBAL DEFAULT UND _ZN7android4base10LogMess
7:   FUNC GLOBAL DEFAULT UND _ZN7android4base10LogMess
8:   FUNC GLOBAL DEFAULT UND _ZN7android4base10LogMess
9:   FUNC GLOBAL DEFAULT UND _ZNKSt3__112basic_stringI
10:   FUNC GLOBAL DEFAULT UND _ZNKSt3__16locale9use_fac
11:   FUNC GLOBAL DEFAULT UND _ZNKSt3__18ios_base6getlo
12:   FUNC GLOBAL DEFAULT UND _ZNSt3__112basic_stringIc
13:   FUNC GLOBAL DEFAULT UND _ZNSt3__112basic_stringIc
14:   FUNC GLOBAL DEFAULT UND _ZNSt3__112basic_stringIc
15:   FUNC GLOBAL DEFAULT UND _ZNSt3__112basic_stringIc
16:   FUNC GLOBAL DEFAULT UND _ZNSt3__112basic_stringIc
17:   FUNC GLOBAL DEFAULT UND _ZNSt3__112basic_stringIc
18:   FUNC GLOBAL DEFAULT UND _ZNSt3__113basic_ostreamI
19:   FUNC GLOBAL DEFAULT UND _ZNSt3__113basic_ostreamI
20:   OBJECT GLOBAL DEFAULT UND _ZNSt3__15ctypeIcE2idE
21:   FUNC GLOBAL DEFAULT UND _ZNSt3__16localeD1Ev
22:   FUNC GLOBAL DEFAULT UND _ZNSt3__18ios_base5clearE
23:   FUNC GLOBAL DEFAULT UND _ZNSt3__19to_stringEd
24:   FUNC GLOBAL DEFAULT UND _ZNSt3__19to_stringEe
25:   FUNC GLOBAL DEFAULT UND _ZNSt3__19to_stringEf
26:   FUNC GLOBAL DEFAULT UND _ZNSt3__19to_stringEi
27:   FUNC GLOBAL DEFAULT UND _ZNSt3__19to_stringEj
28:   FUNC GLOBAL DEFAULT UND _ZNSt3__19to_stringEl
29:   FUNC GLOBAL DEFAULT UND _ZNSt3__19to_stringEm
30:   FUNC GLOBAL DEFAULT UND _ZNSt3__19to_stringEx
31:   FUNC GLOBAL DEFAULT UND _ZNSt3__19to_stringEy
32:   FUNC GLOBAL DEFAULT UND __stack_chk_fail@GLIBC_2.4 (3)
33:   FUNC GLOBAL DEFAULT UND abort@GLIBC_2.2.5 (2)
34:   FUNC GLOBAL DEFAULT UND fclose@GLIBC_2.2.5 (2)
35:   FUNC GLOBAL DEFAULT UND fprintf@GLIBC_2.2.5 (2)
36:   FUNC GLOBAL DEFAULT UND memset@GLIBC_2.2.5 (2)
37:   OBJECT GLOBAL DEFAULT UND stdout@GLIBC_2.2.5 (2)
38:   FUNC GLOBAL DEFAULT UND strlen@GLIBC_2.2.5 (2)
39:   FUNC GLOBAL DEFAULT UND _ZN7android4base21GetMini
40:   FUNC GLOBAL DEFAULT UND _ZNKSt3__112basic_stringI
41:   FUNC GLOBAL DEFAULT UND _ZNKSt3__120__vector_base
42:   FUNC GLOBAL DEFAULT UND _ZNKSt3__121__basic_strin
43:   FUNC GLOBAL DEFAULT UND _ZNKSt3__123__match_any_b
44:   FUNC GLOBAL DEFAULT UND _ZNKSt3__16locale4nameEv
45:   FUNC GLOBAL DEFAULT UND _ZNSt3__112basic_stringIc
46:   FUNC GLOBAL DEFAULT UND _ZNSt3__112basic_stringIc
47:   FUNC GLOBAL DEFAULT UND _ZNSt3__112basic_stringIc
48:   FUNC GLOBAL DEFAULT UND _ZNSt3__115__get_classnam
49:   FUNC GLOBAL DEFAULT UND _ZNSt3__119__shared_weak_
50:   FUNC GLOBAL DEFAULT UND _ZNSt3__119__shared_weak_
51:   FUNC GLOBAL DEFAULT UND _ZNSt3__120__get_collatio
52:   FUNC GLOBAL DEFAULT UND _ZNSt3__16localeC1ERKS0_
53:   FUNC GLOBAL DEFAULT UND _ZNSt3__16localeC1Ev
54:   OBJECT GLOBAL DEFAULT UND _ZNSt3__17collateIcE2idE
55:   OBJECT GLOBAL DEFAULT UND _ZTINSt3__119__shared_wea
56:   OBJECT GLOBAL DEFAULT UND _ZTVN10__cxxabiv117__clas
57:   OBJECT GLOBAL DEFAULT UND _ZTVN10__cxxabiv120__si_c
58:   OBJECT GLOBAL DEFAULT UND _ZTVNSt3__114__shared_cou
59:   OBJECT GLOBAL DEFAULT UND _ZTVNSt3__119__shared_wea
60:   FUNC GLOBAL DEFAULT UND _ZdlPv
61:   FUNC GLOBAL DEFAULT UND _ZdlPvSt11align_val_t
62:   FUNC GLOBAL DEFAULT UND _Znwm
63:   FUNC GLOBAL DEFAULT UND _ZnwmSt11align_val_t
64:   FUNC GLOBAL DEFAULT UND __cxa_atexit@GLIBC_2.2.5 (2)
65:   FUNC GLOBAL DEFAULT UND __errno_location@GLIBC_2.2.5 (4)
66:   FUNC GLOBAL DEFAULT UND memcmp@GLIBC_2.2.5 (2)
67:   FUNC GLOBAL DEFAULT UND memcpy@GLIBC_2.14 (5)
68:   FUNC GLOBAL DEFAULT UND memmove@GLIBC_2.2.5 (2)
69:   FUNC GLOBAL DEFAULT UND tolower@GLIBC_2.2.5 (2)
70:   FUNC GLOBAL DEFAULT UND toupper@GLIBC_2.2.5 (2)
71:   FUNC WEAK DEFAULT 12 _ZNKSt3__112regex_traitsI
72:   FUNC WEAK DEFAULT 12 _ZNSt3__116allocator_trai
73:   FUNC WEAK DEFAULT 12 _ZNSt3__117_DeallocateCal
74:   FUNC WEAK DEFAULT 12 _ZNSt3__16vectorINS_9sub_
75:   OBJECT WEAK DEFAULT 21 _ZTVNSt3__120__match_char
76:   FUNC WEAK DEFAULT 12 _ZNSt3__111basic_regexIcN
77:   FUNC WEAK DEFAULT 12 _ZNSt3__111char_traitsIcE
78:   FUNC WEAK DEFAULT 12 _ZNSt3__112basic_stringIc
79:   FUNC WEAK DEFAULT 12 _ZNSt3__122__compressed_p
80:   OBJECT WEAK DEFAULT 21 _ZTVNSt3__123__match_any_
81:   FUNC GLOBAL DEFAULT 12 _ZN7android9FormatterlsER
82:   FUNC WEAK DEFAULT 12 _ZNSt3__112basic_stringIc
83:   FUNC WEAK DEFAULT 12 _ZNSt3__111basic_regexIcN
84:   FUNC WEAK DEFAULT 12 _ZNSt3__114__split_buffer
85:   FUNC WEAK DEFAULT 12 _ZNSt3__114__split_buffer
86:   FUNC WEAK DEFAULT 12 _ZNSt3__116allocator_trai
87:   FUNC WEAK DEFAULT 12 _ZNSt3__117__compressed_p
88:   FUNC WEAK DEFAULT 12 _ZNSt3__16vectorINS_4pair
89:   FUNC WEAK DEFAULT 12 _ZNSt3__113__vector_baseI
90:   FUNC WEAK DEFAULT 12 _ZNSt3__116allocator_trai
91:   FUNC WEAK DEFAULT 12 _ZNSt3__116allocator_trai
92:   FUNC WEAK DEFAULT 12 _ZNSt3__122__compressed_p
93:   FUNC GLOBAL DEFAULT 12 _ZN7android12StringHelper
94:   FUNC WEAK DEFAULT 12 _ZNSt3__111basic_regexIcN
95:   FUNC WEAK DEFAULT 12 _ZNSt3__113__vector_baseI
96:   FUNC WEAK DEFAULT 12 _ZNSt3__116allocator_trai
97:   OBJECT WEAK DEFAULT 21 _ZTVNSt3__120__shared_ptr
98:   FUNC WEAK DEFAULT 12 _ZNSt3__116allocator_trai
99:   FUNC WEAK DEFAULT 12 _ZNKSt3__121__empty_non_o
100:   OBJECT WEAK DEFAULT 21 _ZTINSt3__118__back_ref_c
101:   FUNC WEAK DEFAULT 12 _ZNSt3__110__back_refIcED
102:   FUNC WEAK DEFAULT 12 _ZNSt3__113__vector_baseI
103:   FUNC WEAK DEFAULT 12 _ZNSt3__116allocator_trai
104:   FUNC WEAK DEFAULT 12 _ZNSt3__116allocator_trai
105:   OBJECT WEAK DEFAULT 21 _ZTINSt3__120__match_char
106:   OBJECT WEAK DEFAULT 9 _ZTSNSt3__111__match_anyI
107:   FUNC WEAK DEFAULT 12 _ZNSt3__112__match_charIc
108:   FUNC WEAK DEFAULT 12 _ZNSt3__112basic_stringIc
109:   FUNC WEAK DEFAULT 12 _ZNSt3__112regex_traitsIc
110:   FUNC WEAK DEFAULT 12 _ZNSt3__111__alternateIcE
111:   FUNC WEAK DEFAULT 12 _ZNSt3__112basic_stringIc
112:   FUNC WEAK DEFAULT 12 _ZNSt3__114__split_buffer
113:   FUNC WEAK DEFAULT 12 _ZNSt3__120__shared_ptr_p
114:   FUNC WEAK DEFAULT 12 _ZNSt3__122__compressed_p
115:   FUNC WEAK DEFAULT 12 _ZNSt3__16vectorINS_9sub_
116:   FUNC WEAK DEFAULT 12 _ZNSt3__114__split_buffer
117:   FUNC WEAK DEFAULT 12 _ZNSt3__122__compressed_p
118:   OBJECT WEAK DEFAULT 9 _ZTSNSt3__111__alternateI
119:   FUNC WEAK DEFAULT 12 _ZNSt3__111basic_regexIcN
120:   FUNC WEAK DEFAULT 12 _ZNSt3__111basic_regexIcN
121:   OBJECT WEAK DEFAULT 9 _ZTSNSt3__110__l_anchorIc
122:   OBJECT WEAK DEFAULT 9 _ZTSNSt3__112__match_char
123:   FUNC GLOBAL DEFAULT 12 _ZN7android9Formatter6ind
124:   FUNC WEAK DEFAULT 12 _ZNSt3__116allocator_trai
125:   FUNC WEAK DEFAULT 12 _ZNSt3__117__compressed_p
126:   FUNC WEAK DEFAULT 12 _ZNSt3__19allocatorINS_20
127:   OBJECT WEAK DEFAULT 21 _ZTINSt3__126__end_marked
128:   OBJECT WEAK DEFAULT 9 _ZTSNSt3__120__shared_ptr
129:   FUNC WEAK DEFAULT 12 _ZNSt3__111basic_regexIcN
130:   FUNC WEAK DEFAULT 12 _ZNSt3__117__owns_two_sta
131:   FUNC WEAK DEFAULT 12 _ZNKSt3__18functionIFvvEE
132:   FUNC WEAK DEFAULT 12 _ZNSt3__114__split_buffer
133:   FUNC WEAK DEFAULT 12 _ZNSt3__116__back_ref_ica
134:   FUNC WEAK DEFAULT 12 _ZNSt3__117__compressed_p
135:   FUNC GLOBAL DEFAULT 12 _ZN7android9Formatter3sIf
136:   FUNC WEAK DEFAULT 12 _ZNKSt3__111__end_stateIc
137:   FUNC WEAK DEFAULT 12 _ZNSt3__117__compressed_p
138:   FUNC WEAK DEFAULT 12 _ZNSt3__16vectorINS_9sub_
139:   FUNC WEAK DEFAULT 12 _ZNSt3__117__compressed_p
140:   FUNC WEAK DEFAULT 12 _ZNKSt3__117__repeat_one_
141:   FUNC WEAK DEFAULT 12 _ZNSt3__123__match_any_bu
142:   FUNC WEAK DEFAULT 12 _ZNSt3__128__begin_marked
143:   FUNC WEAK DEFAULT 12 _ZNKSt3__112regex_traitsI
144:   FUNC WEAK DEFAULT 12 _ZNSt3__111basic_regexIcN
145:   FUNC WEAK DEFAULT 12 _ZNKSt3__111__alternateIc
146:   FUNC WEAK DEFAULT 12 _ZNSt3__116allocator_trai
147:   OBJECT WEAK DEFAULT 21 _ZTINSt3__117__owns_two_s
148:   OBJECT WEAK DEFAULT 21 _ZTINSt3__128__begin_mark
149:   OBJECT WEAK DEFAULT 9 _ZTSNSt3__120__bracket_ex
150:   FUNC GLOBAL DEFAULT 12 _ZN7android9FormatterlsEa
151:   FUNC WEAK DEFAULT 12 _ZNSt3__111basic_regexIcN
152:   FUNC WEAK DEFAULT 12 _ZNSt3__111basic_regexIcN
153:   FUNC WEAK DEFAULT 12 _ZNSt3__117__compressed_p
154:   OBJECT WEAK DEFAULT 21 _ZTVNSt3__110__r_anchorIc
155:   FUNC WEAK DEFAULT 12 _ZNSt3__15dequeINS_7__sta
156:   FUNC WEAK DEFAULT 12 _ZNSt3__17__stateIcEaSERK
157:   FUNC WEAK DEFAULT 12 _ZNSt3__19allocatorINS_4p
158:   FUNC GLOBAL DEFAULT 12 _ZN7android9FormatterlsEc
159:   FUNC WEAK DEFAULT 12 _ZNKSt3__111basic_regexIc
160:   FUNC WEAK DEFAULT 12 _ZNSt3__111__match_anyIcE
161:   FUNC WEAK DEFAULT 12 _ZNSt3__113__vector_baseI
162:   FUNC WEAK DEFAULT 12 _ZNSt3__16vectorINS_4pair
163:   FUNC WEAK DEFAULT 12 _ZNSt3__19allocatorINS_12
164:   FUNC GLOBAL DEFAULT 12 _ZN7android9Formatter6sCa
165:   FUNC GLOBAL DEFAULT 12 _ZN7android9FormatterlsEd
166:   FUNC WEAK DEFAULT 12 _ZNSt3__113__vector_baseI
167:   FUNC WEAK DEFAULT 12 _ZNSt3__116allocator_trai
168:   FUNC GLOBAL DEFAULT 12 _ZN7android9FormatterlsEe
169:   FUNC WEAK DEFAULT 12 _ZNSt3__124__put_characte
170:   FUNC WEAK DEFAULT 12 _ZNSt3__115__word_boundar
171:   FUNC WEAK DEFAULT 12 _ZNSt3__116allocator_trai
172:   FUNC GLOBAL DEFAULT 12 _ZN7android9FormatterlsEf
173:   FUNC WEAK DEFAULT 12 _ZNKSt3__16__loopIcE12__e
174:   FUNC WEAK DEFAULT 12 _ZNSt3__113__vector_baseI
175:   FUNC WEAK DEFAULT 12 _ZNSt3__114__split_buffer
176:   FUNC WEAK DEFAULT 12 _ZNSt3__116allocator_trai
177:   FUNC WEAK DEFAULT 12 _ZNSt3__116allocator_trai
178:   FUNC WEAK DEFAULT 12 _ZNSt3__116allocator_trai
179:   FUNC WEAK DEFAULT 12 _ZNSt3__117__compressed_p
180:   FUNC WEAK DEFAULT 12 _ZNSt3__122__compressed_p
181:   FUNC WEAK DEFAULT 12 _ZNSt3__15dequeINS_7__sta
182:   FUNC WEAK DEFAULT 12 _ZNSt3__16vectorINS_12bas
183:   FUNC WEAK DEFAULT 12 _ZNSt3__111basic_regexIcN
184:   FUNC WEAK DEFAULT 12 _ZNSt3__16vectorINS_12bas
185:   OBJECT WEAK DEFAULT 21 _ZTVNSt3__128__begin_mark
186:   FUNC GLOBAL DEFAULT 12 _ZN7android9FormatterlsEh
187:   FUNC WEAK DEFAULT 12 _ZNSt3__110unique_ptrINS_
188:   FUNC WEAK DEFAULT 12 _ZNSt3__111basic_regexIcN
189:   FUNC WEAK DEFAULT 12 _ZNSt3__111basic_regexIcN
190:   FUNC WEAK DEFAULT 12 _ZNSt3__114__split_buffer
191:   FUNC WEAK DEFAULT 12 _ZNSt3__117__compressed_p
192:   FUNC WEAK DEFAULT 12 _ZNSt3__16vectorINS_12bas
193:   FUNC WEAK DEFAULT 12 _ZNSt3__16vectorINS_4pair
194:   FUNC GLOBAL DEFAULT 12 _ZN7android9FormatterlsEi
195:   OBJECT WEAK DEFAULT 9 _ZTSNSt3__110__back_refIc
196:   OBJECT WEAK DEFAULT 9 _ZTSNSt3__123__match_any_
197:   FUNC GLOBAL DEFAULT 12 _ZN7android9Formatter4sTr
198:   FUNC GLOBAL DEFAULT 12 _ZN7android9FormatterlsEj
199:   FUNC WEAK DEFAULT 12 _ZNSt3__122__compressed_p
200:   OBJECT WEAK DEFAULT 21 _ZTINSt3__123__match_any_
201:   OBJECT WEAK DEFAULT 21 _ZTVNSt3__111__lookaheadI
202:   FUNC WEAK DEFAULT 12 _ZNSt3__113match_resultsI
203:   FUNC WEAK DEFAULT 12 _ZNSt3__117_DeallocateCal
204:   FUNC WEAK DEFAULT 12 _ZNSt3__19allocatorINS_4p
205:   OBJECT WEAK DEFAULT 21 _ZTVNSt3__115__has_one_st
206:   FUNC GLOBAL DEFAULT 12 _ZN7android9FormatterlsEl
207:   FUNC WEAK DEFAULT 12 _ZNSt3__110__l_anchorIcED
208:   FUNC WEAK DEFAULT 12 _ZNSt3__113__empty_stateI
209:   FUNC WEAK DEFAULT 12 _ZNSt3__116allocator_trai
210:   FUNC WEAK DEFAULT 12 _ZNSt3__117_DeallocateCal
211:   OBJECT WEAK DEFAULT 9 _ZTSNSt3__117__owns_two_s
212:   FUNC GLOBAL DEFAULT 12 _ZN7android9FormatterlsEm
213:   FUNC GLOBAL DEFAULT 12 _ZN7android12StringHelper
214:   FUNC WEAK DEFAULT 12 _ZNSt3__116allocator_trai
215:   FUNC WEAK DEFAULT 12 _ZNSt3__110__r_anchorIcED
216:   FUNC WEAK DEFAULT 12 _ZNSt3__111__end_stateIcE
217:   FUNC WEAK DEFAULT 12 _ZNSt3__116allocator_trai
218:   FUNC WEAK DEFAULT 12 _ZNSt3__16vectorINS_7__st
219:   OBJECT WEAK DEFAULT 21 _ZTINSt3__110__r_anchorIc
220:   FUNC GLOBAL DEFAULT 12 _ZN7android12StringHelper
221:   FUNC WEAK DEFAULT 12 _ZNSt3__111basic_regexIcN
222:   FUNC WEAK DEFAULT 12 _ZNSt3__16vectorINS_4pair
223:   FUNC WEAK DEFAULT 12 _ZNSt3__17__stateIcEC2EOS
224:   FUNC WEAK DEFAULT 12 _ZNKSt3__111basic_regexIc
225:   FUNC WEAK DEFAULT 12 _ZNKSt3__120__match_char_
226:   FUNC WEAK DEFAULT 12 _ZNKSt3__16vectorINS_4pai
227:   FUNC WEAK DEFAULT 12 _ZNSt3__116allocator_trai
228:   FUNC WEAK DEFAULT 12 _ZNSt3__16vectorINS_9sub_
229:   FUNC WEAK DEFAULT 12 _ZNSt3__111basic_regexIcN
230:   FUNC WEAK DEFAULT 12 _ZNSt3__113match_resultsI
231:   FUNC WEAK DEFAULT 12 _ZNSt3__116allocator_trai
232:   FUNC WEAK DEFAULT 12 _ZNSt3__117__compressed_p
233:   FUNC GLOBAL DEFAULT 12 _ZN7android9Formatter5blo
234:   FUNC GLOBAL DEFAULT 12 _ZN7android9FormatterlsEs
235:   FUNC WEAK DEFAULT 12 _ZNSt3__112basic_stringIc
236:   FUNC WEAK DEFAULT 12 _ZNSt3__117__compressed_p
237:   FUNC WEAK DEFAULT 12 _ZNSt3__122__compressed_p
238:   FUNC GLOBAL DEFAULT 12 _ZN7android9FormatterlsEt
239:   FUNC GLOBAL DEFAULT 12 _ZN7android12StringHelper
240:   FUNC WEAK DEFAULT 12 _ZNSt3__120__match_char_c
241:   FUNC WEAK DEFAULT 12 _ZNSt3__14pairIccEC2ILb1E
242:   FUNC GLOBAL DEFAULT 12 _ZN7android9Formatter7sEl
243:   FUNC WEAK DEFAULT 12 _ZNSt3__111basic_regexIcN
244:   FUNC WEAK DEFAULT 12 _ZNSt3__16vectorINS_9sub_
245:   FUNC WEAK DEFAULT 12 _ZNKSt3__112regex_traitsI
246:   FUNC WEAK DEFAULT 12 _ZNSt3__111basic_regexIcN
247:   FUNC WEAK DEFAULT 12 _ZNSt3__14pairINS_12basic
248:   OBJECT WEAK DEFAULT 9 _ZTSNSt3__118__match_char
249:   FUNC WEAK DEFAULT 12 _ZNKSt3__112regex_traitsI
250:   FUNC WEAK DEFAULT 12 _ZNSt3__112__deque_baseIN
251:   FUNC WEAK DEFAULT 12 _ZNSt3__114__split_buffer
252:   FUNC WEAK DEFAULT 12 _ZNSt3__116allocator_trai
253:   FUNC WEAK DEFAULT 12 _ZNSt3__122__compressed_p
254:   FUNC GLOBAL DEFAULT 12 _ZN7android9FormatterlsEx
255:   FUNC WEAK DEFAULT 12 _ZN7android4base13ErrnoRe
256:   FUNC WEAK DEFAULT 12 _ZNSt3__114__split_buffer
257:   OBJECT WEAK DEFAULT 21 _ZTINSt3__120__shared_ptr
258:   OBJECT WEAK DEFAULT 9 _ZTSNSt3__128__begin_mark
259:   FUNC GLOBAL DEFAULT 12 _ZN7android9FormatterlsEy
260:   FUNC WEAK DEFAULT 12 _ZNSt3__113__vector_baseI
261:   FUNC WEAK DEFAULT 12 _ZNSt3__117__compressed_p
262:   FUNC WEAK DEFAULT 12 _ZNSt3__118__match_char_i
263:   OBJECT WEAK DEFAULT 9 _ZTSNSt3__120__match_char
264:   FUNC WEAK DEFAULT 12 _ZNSt3__111basic_regexIcN
265:   FUNC WEAK DEFAULT 12 _ZNSt3__116allocator_trai
266:   FUNC WEAK DEFAULT 12 _ZNSt3__117__compressed_p
267:   FUNC WEAK DEFAULT 12 _ZNSt3__117__compressed_p
268:   FUNC WEAK DEFAULT 12 _ZNSt3__117__repeat_one_l
269:   FUNC WEAK DEFAULT 12 _ZNSt3__122__compressed_p
270:   FUNC WEAK DEFAULT 12 _ZNSt3__16vectorINS_9sub_
271:   OBJECT WEAK DEFAULT 21 _ZTINSt3__111__end_stateI
272:   OBJECT WEAK DEFAULT 21 _ZTVNSt3__118__match_char
273:   FUNC WEAK DEFAULT 12 _ZNSt3__122__compressed_p
274:   FUNC WEAK DEFAULT 12 _ZNSt3__15dequeINS_7__sta
275:   FUNC WEAK DEFAULT 12 _ZNSt3__16__loopIcED2Ev
276:   FUNC WEAK DEFAULT 12 _ZNSt3__120__shared_ptr_p
277:   FUNC WEAK DEFAULT 12 _ZNSt3__122__compressed_p
278:   FUNC WEAK DEFAULT 12 _ZNSt3__15dequeINS_7__sta
279:   FUNC WEAK DEFAULT 12 _ZNSt3__16vectorIcNS_9all
280:   OBJECT WEAK DEFAULT 21 _ZTINSt3__112__match_char
281:   OBJECT WEAK DEFAULT 21 _ZTINSt3__113__empty_stat
282:   FUNC WEAK DEFAULT 12 _ZNKSt3__112regex_traitsI
283:   FUNC WEAK DEFAULT 12 _ZNKSt3__128__begin_marke
284:   FUNC WEAK DEFAULT 12 _ZNSt3__111basic_regexIcN
285:   FUNC WEAK DEFAULT 12 _ZNSt3__111basic_regexIcN
286:   FUNC WEAK DEFAULT 12 _ZNSt3__122__compressed_p
287:   FUNC WEAK DEFAULT 12 _ZNSt3__16vectorINS_9sub_
288:   OBJECT WEAK DEFAULT 9 _ZTSNSt3__126__end_marked
289:   FUNC WEAK DEFAULT 12 _ZNSt3__111basic_regexIcN
290:   FUNC WEAK DEFAULT 12 _ZNSt3__114__split_buffer
291:   FUNC WEAK DEFAULT 12 _ZNSt3__117__compressed_p
292:   FUNC WEAK DEFAULT 12 _ZNSt3__118__back_ref_col
293:   FUNC WEAK DEFAULT 12 _ZNSt3__110unique_ptrINS_
294:   FUNC WEAK DEFAULT 12 _ZNSt3__116allocator_trai
295:   OBJECT WEAK DEFAULT 21 _ZTVNSt3__115__word_bound
296:   FUNC WEAK DEFAULT 12 _ZNSt3__111basic_regexIcN
297:   FUNC WEAK DEFAULT 12 _ZNSt3__112__deque_baseIN
298:   FUNC WEAK DEFAULT 12 _ZNKSt3__112basic_stringI
299:   FUNC WEAK DEFAULT 12 _ZNSt3__111basic_regexIcN
300:   FUNC WEAK DEFAULT 12 _ZNSt3__111basic_regexIcN
301:   FUNC WEAK DEFAULT 12 _ZNSt3__112regex_traitsIc
302:   FUNC GLOBAL DEFAULT 12 _ZN7android9FormatterD2Ev
303:   FUNC WEAK DEFAULT 12 _ZNSt3__111basic_regexIcN
304:   FUNC WEAK DEFAULT 12 _ZNSt3__116__owns_one_sta
305:   FUNC WEAK DEFAULT 12 _ZNKSt3__112regex_traitsI
306:   FUNC WEAK DEFAULT 12 _ZNSt3__116allocator_trai
307:   FUNC WEAK DEFAULT 12 _ZNSt3__116allocator_trai
308:   FUNC WEAK DEFAULT 12 _ZNSt3__122__compressed_p
309:   FUNC WEAK DEFAULT 12 _ZNSt3__19allocatorINS_12
310:   FUNC WEAK DEFAULT 12 _ZNKSt3__112regex_traitsI
311:   FUNC WEAK DEFAULT 12 _ZNKSt3__112regex_traitsI
312:   FUNC WEAK DEFAULT 12 _ZNKSt3__120__bracket_exp
313:   FUNC WEAK DEFAULT 12 _ZNSt3__110shared_ptrINS_
314:   FUNC WEAK DEFAULT 12 _ZNSt3__111basic_regexIcN
315:   FUNC WEAK DEFAULT 12 _ZNSt3__116allocator_trai
316:   FUNC WEAK DEFAULT 12 _ZNSt3__121__empty_non_ow
317:   FUNC WEAK DEFAULT 12 _ZNSt3__16vectorINS_4pair
318:   OBJECT WEAK DEFAULT 21 _ZTINSt3__115__word_bound
319:   FUNC GLOBAL DEFAULT 12 _ZN7android9Formatter15un
320:   FUNC WEAK DEFAULT 12 _ZNSt3__111char_traitsIcE
321:   FUNC WEAK DEFAULT 12 _ZNSt3__122__compressed_p
322:   FUNC WEAK DEFAULT 12 _ZNSt3__122__compressed_p
323:   FUNC WEAK DEFAULT 12 _ZNSt3__122__compressed_p
324:   FUNC WEAK DEFAULT 12 _ZNSt3__19allocatorIcE9co
325:   OBJECT WEAK DEFAULT 9 _ZTSNSt3__114default_dele
326:   OBJECT WEAK DEFAULT 21 _ZTVNSt3__117__repeat_one
327:   FUNC WEAK DEFAULT 12 _ZNSt3__117__compressed_p
328:   FUNC WEAK DEFAULT 12 _ZNSt3__19allocatorINS_4p
329:   OBJECT WEAK DEFAULT 21 _ZTINSt3__111__match_anyI
330:   FUNC GLOBAL DEFAULT 12 _ZN7android9Formatter8sFi
331:   FUNC WEAK DEFAULT 12 _ZNKSt3__112regex_traitsI
332:   FUNC WEAK DEFAULT 12 _ZNSt3__111basic_regexIcN
333:   FUNC WEAK DEFAULT 12 _ZNSt3__113match_resultsI
334:   OBJECT WEAK DEFAULT 9 _ZTSNSt3__116__owns_one_s
335:   FUNC WEAK DEFAULT 12 _ZNSt3__110unique_ptrIPNS
336:   FUNC WEAK DEFAULT 12 _ZNSt3__111__lookaheadIcN
337:   FUNC WEAK DEFAULT 12 _ZNSt3__111basic_regexIcN
338:   FUNC WEAK DEFAULT 12 _ZNSt3__117__compressed_p
339:   FUNC WEAK DEFAULT 12 _ZNSt3__120__shared_ptr_p
340:   OBJECT WEAK DEFAULT 21 _ZTINSt3__114default_dele
341:   FUNC WEAK DEFAULT 12 _ZNKSt3__115__word_bounda
342:   FUNC WEAK DEFAULT 12 _ZNSt3__111basic_regexIcN
343:   FUNC WEAK DEFAULT 12 _ZNSt3__116allocator_trai
344:   FUNC WEAK DEFAULT 12 _ZNSt3__117__compressed_p
345:   FUNC WEAK DEFAULT 12 _ZNSt3__16vectorINS_4pair
346:   OBJECT WEAK DEFAULT 21 _ZTINSt3__111__alternateI
347:   FUNC WEAK DEFAULT 12 _ZN7android4base13ErrnoRe
348:   FUNC WEAK DEFAULT 12 _ZNSt3__114__split_buffer
349:   FUNC WEAK DEFAULT 12 _ZNSt3__117__compressed_p
350:   FUNC GLOBAL DEFAULT 14 _fini
351:   FUNC WEAK DEFAULT 12 _ZNSt3__111basic_regexIcN
352:   FUNC WEAK DEFAULT 12 _ZNSt3__111basic_regexIcN
353:   FUNC WEAK DEFAULT 12 _ZNSt3__114__split_buffer
354:   FUNC WEAK DEFAULT 12 _ZNSt3__116allocator_trai
355:   FUNC WEAK DEFAULT 12 _ZNSt3__16vectorINS_9sub_
356:   OBJECT WEAK DEFAULT 21 _ZTINSt3__116__back_ref_i
357:   FUNC WEAK DEFAULT 12 _ZNSt3__111basic_regexIcN
358:   FUNC WEAK DEFAULT 12 _ZNSt3__112__deque_baseIN
359:   FUNC WEAK DEFAULT 12 _ZNSt3__114__split_buffer
360:   FUNC WEAK DEFAULT 12 _ZNSt3__117__compressed_p
361:   FUNC WEAK DEFAULT 12 _ZNSt3__126__end_marked_s
362:   FUNC GLOBAL DEFAULT 12 _ZN7android12StringHelper
363:   FUNC WEAK DEFAULT 12 _ZNKSt3__118__back_ref_co
364:   FUNC WEAK DEFAULT 12 _ZNSt3__111basic_regexIcN
365:   FUNC WEAK DEFAULT 12 _ZNSt3__114__split_buffer
366:   FUNC WEAK DEFAULT 12 _ZNSt3__114__split_buffer
367:   FUNC WEAK DEFAULT 12 _ZNSt3__16vectorINS_9sub_
368:   FUNC WEAK DEFAULT 12 _ZNSt3__111basic_regexIcN
369:   FUNC WEAK DEFAULT 12 _ZNSt3__111basic_regexIcN
370:   FUNC WEAK DEFAULT 12 _ZNSt3__112basic_stringIc
371:   FUNC WEAK DEFAULT 12 _ZNSt3__113__vector_baseI
372:   FUNC WEAK DEFAULT 12 _ZNSt3__16vectorINS_7__st
373:   FUNC WEAK DEFAULT 12 _ZNSt3__16vectorIcNS_9all
374:   FUNC WEAK DEFAULT 12 _ZNSt3__19allocatorINS_7_
375:   FUNC WEAK DEFAULT 12 _ZNSt3__1lsIcNS_11char_tr
376:   OBJECT WEAK DEFAULT 9 _ZTSNSt3__118__back_ref_c
377:   FUNC GLOBAL DEFAULT 12 _ZN7android9Formatter4end
378:   FUNC WEAK DEFAULT 12 _ZNSt3__117__compressed_p
379:   FUNC WEAK DEFAULT 12 _ZNSt3__15dequeINS_7__sta
380:   FUNC GLOBAL DEFAULT 12 _ZN7android12StringHelper
381:   FUNC WEAK DEFAULT 12 _ZNSt3__112regex_traitsIc
382:   FUNC WEAK DEFAULT 12 _ZNSt3__116allocator_trai
383:   FUNC GLOBAL DEFAULT 12 _ZN7android9Formatter5sEl
384:   FUNC WEAK DEFAULT 12 _ZNSt3__114__split_buffer
385:   FUNC WEAK DEFAULT 12 _ZNSt3__115__has_one_stat
386:   FUNC WEAK DEFAULT 12 _ZNSt3__117__compressed_p
387:   FUNC WEAK DEFAULT 12 _ZNSt3__14pairINS_12basic
388:   FUNC WEAK DEFAULT 12 _ZNSt3__111basic_regexIcN
389:   FUNC WEAK DEFAULT 12 _ZNSt3__112__match_charIc
390:   OBJECT WEAK DEFAULT 21 _ZTVNSt3__118__back_ref_c
391:   FUNC GLOBAL DEFAULT 12 _ZN7android9FormatterC2Ev
392:   FUNC WEAK DEFAULT 12 _ZNKSt3__111__lookaheadIc
393:   FUNC WEAK DEFAULT 12 _ZNSt3__111__alternateIcE
394:   FUNC WEAK DEFAULT 12 _ZNSt3__122__compressed_p
395:   FUNC WEAK DEFAULT 12 _ZNSt3__17__stateIcEC2ERK
396:   FUNC GLOBAL DEFAULT 12 _ZN7android9Formatter4sFo
397:   FUNC WEAK DEFAULT 12 _ZNSt3__114__split_buffer
398:   FUNC WEAK DEFAULT 12 _ZNSt3__117__compressed_p
399:   FUNC WEAK DEFAULT 12 _ZNSt3__122__compressed_p
400:   FUNC WEAK DEFAULT 12 _ZNKSt3__111__match_anyIc
401:   FUNC WEAK DEFAULT 12 _ZNSt3__14pairIccEC2IccLb
402:   OBJECT WEAK DEFAULT 21 _ZTVNSt3__116__back_ref_i
403:   FUNC GLOBAL DEFAULT 12 _ZN7android9Formatter12se
404:   FUNC WEAK DEFAULT 12 _ZNKSt3__16vectorIcNS_9al
405:   FUNC WEAK DEFAULT 12 _ZNSt3__120__bracket_expr
406:   FUNC WEAK DEFAULT 12 _ZNSt3__14pairIccEC2IRcS3
407:   FUNC WEAK DEFAULT 12 _ZNSt3__122__compressed_p
408:   OBJECT WEAK DEFAULT 9 _ZTSNSt3__111__lookaheadI
409:   FUNC WEAK DEFAULT 12 _ZNSt3__112basic_stringIc
410:   FUNC WEAK DEFAULT 12 _ZNSt3__116allocator_trai
411:   FUNC WEAK DEFAULT 12 _ZNSt3__117__compressed_p
412:   FUNC WEAK DEFAULT 12 _ZNSt3__19allocatorIPNS_7
413:   OBJECT WEAK DEFAULT 21 _ZTVNSt3__113__empty_stat
414:   FUNC GLOBAL DEFAULT 12 _ZN7android9Formatter8uni
415:   FUNC WEAK DEFAULT 12 _ZNSt3__111basic_regexIcN
416:   FUNC WEAK DEFAULT 12 _ZNSt3__116allocator_trai
417:   FUNC WEAK DEFAULT 12 _ZNSt3__117__compressed_p
418:   FUNC WEAK DEFAULT 12 _ZNSt3__117__compressed_p
419:   FUNC WEAK DEFAULT 12 _ZNSt3__117__owns_two_sta
420:   FUNC WEAK DEFAULT 12 _ZNSt3__14pairINS_11__wra
421:   FUNC WEAK DEFAULT 12 _ZNKSt3__110__r_anchorIcE
422:   FUNC WEAK DEFAULT 12 _ZNKSt3__16vectorINS_4pai
423:   FUNC WEAK DEFAULT 12 _ZNSt3__111basic_regexIcN
424:   OBJECT WEAK DEFAULT 21 _ZTINSt3__16__nodeIcEE
425:   FUNC WEAK DEFAULT 12 _ZNSt3__111basic_regexIcN
426:   FUNC WEAK DEFAULT 12 _ZNSt3__116allocator_trai
427:   OBJECT WEAK DEFAULT 21 _ZTINSt3__116__owns_one_s
428:   OBJECT WEAK DEFAULT 9 _ZTSNSt3__110__r_anchorIc
429:   FUNC WEAK DEFAULT 12 _ZNSt3__112regex_traitsIc
430:   FUNC WEAK DEFAULT 12 _ZNSt3__114__split_buffer
431:   FUNC WEAK DEFAULT 12 _ZNSt3__116allocator_trai
432:   FUNC WEAK DEFAULT 12 _ZNSt3__128__begin_marked
433:   FUNC GLOBAL DEFAULT 13 _init
434:   FUNC WEAK DEFAULT 12 _ZNSt3__110shared_ptrINS_
435:   FUNC WEAK DEFAULT 12 _ZNSt3__111basic_regexIcN
436:   FUNC WEAK DEFAULT 12 _ZNSt3__116allocator_trai
437:   FUNC GLOBAL DEFAULT 12 _ZN7android12StringHelper
438:   FUNC WEAK DEFAULT 12 _ZNKSt3__111__alternateIc
439:   FUNC WEAK DEFAULT 12 _ZNSt3__110__back_refIcED
440:   FUNC WEAK DEFAULT 12 _ZNSt3__111basic_regexIcN
441:   FUNC WEAK DEFAULT 12 _ZNSt3__112basic_stringIc
442:   OBJECT WEAK DEFAULT 9 _ZTSNSt3__16__nodeIcEE
443:   OBJECT WEAK DEFAULT 21 _ZTVNSt3__16__nodeIcEE
444:   FUNC WEAK DEFAULT 12 _ZNSt3__16vectorIcNS_9all
445:   FUNC GLOBAL DEFAULT 12 _ZN7android12StringHelper
446:   FUNC WEAK DEFAULT 12 _ZNSt3__112regex_traitsIc
447:   FUNC WEAK DEFAULT 12 _ZNSt3__116allocator_trai
448:   OBJECT WEAK DEFAULT 21 _ZTINSt3__16__loopIcEE
449:   FUNC WEAK DEFAULT 12 _ZNSt3__111char_traitsIcE
450:   FUNC WEAK DEFAULT 12 _ZNKSt3__16vectorINS_7__s
451:   FUNC WEAK DEFAULT 12 _ZNSt3__111basic_regexIcN
452:   FUNC WEAK DEFAULT 12 _ZNSt3__115__word_boundar
453:   FUNC WEAK DEFAULT 12 _ZNSt3__117_DeallocateCal
454:   FUNC WEAK DEFAULT 12 _ZNSt3__122__compressed_p
455:   FUNC WEAK DEFAULT 12 _ZNSt3__14pairIPKcS2_EC2I
456:   FUNC WEAK DEFAULT 12 _ZNSt3__19allocatorIcE9co
457:   FUNC GLOBAL DEFAULT 12 _ZN7android12StringHelper
458:   FUNC WEAK DEFAULT 12 _ZNKSt3__112regex_traitsI
459:   FUNC WEAK DEFAULT 12 _ZNSt3__114__split_buffer
460:   FUNC WEAK DEFAULT 12 _ZNSt3__114__split_buffer
461:   FUNC WEAK DEFAULT 12 _ZNSt3__14pairIPKcS2_EC2I
462:   OBJECT WEAK DEFAULT 21 _ZTINSt3__121__empty_non_
463:   OBJECT WEAK DEFAULT 21 _ZTVNSt3__117__owns_two_s
464:   FUNC WEAK DEFAULT 12 _ZNSt3__116allocator_trai
465:   FUNC WEAK DEFAULT 12 _ZNKSt3__113__empty_state
466:   FUNC WEAK DEFAULT 12 _ZNSt3__111basic_regexIcN
467:   FUNC WEAK DEFAULT 12 _ZNSt3__116allocator_trai
468:   OBJECT WEAK DEFAULT 9 _ZTSNSt3__16__loopIcEE
469:   OBJECT WEAK DEFAULT 21 _ZTVNSt3__111__end_stateI
470:   FUNC GLOBAL DEFAULT 12 _ZN7android9FormatterD1Ev
471:   FUNC WEAK DEFAULT 12 _ZNSt3__114__split_buffer
472:   FUNC WEAK DEFAULT 12 _ZNSt3__114__split_buffer
473:   OBJECT WEAK DEFAULT 21 _ZTVNSt3__16__loopIcEE
474:   FUNC WEAK DEFAULT 12 _ZNSt3__116__back_ref_ica
475:   OBJECT WEAK DEFAULT 21 _ZTINSt3__115__has_one_st
476:   OBJECT WEAK DEFAULT 21 _ZTVNSt3__110__l_anchorIc
477:   OBJECT WEAK DEFAULT 21 _ZTVNSt3__121__empty_non_
478:   FUNC WEAK DEFAULT 12 _ZNSt3__113__empty_stateI
479:   FUNC WEAK DEFAULT 12 _ZNSt3__113match_resultsI
480:   FUNC WEAK DEFAULT 12 _ZNSt3__116allocator_trai
481:   FUNC WEAK DEFAULT 12 _ZNSt3__122__compressed_p
482:   FUNC GLOBAL DEFAULT 12 _ZN7android9FormatterC1EP
483:   FUNC WEAK DEFAULT 12 _ZNSt3__114__split_buffer
484:   FUNC WEAK DEFAULT 12 _ZNSt3__116allocator_trai
485:   FUNC WEAK DEFAULT 12 _ZNSt3__117__compressed_p
486:   FUNC WEAK DEFAULT 12 _ZNSt3__123__match_any_bu
487:   FUNC WEAK DEFAULT 12 _ZNSt3__16vectorINS_4pair
488:   OBJECT WEAK DEFAULT 21 _ZTVNSt3__116__owns_one_s
489:   FUNC WEAK DEFAULT 12 _ZNKSt3__16vectorINS_9sub
490:   FUNC WEAK DEFAULT 12 _ZNSt3__16vectorINS_4pair
491:   FUNC WEAK DEFAULT 12 _ZNKSt3__110__back_refIcE
492:   FUNC WEAK DEFAULT 12 _ZNSt3__111basic_regexIcN
493:   FUNC WEAK DEFAULT 12 _ZNSt3__114__split_buffer
494:   FUNC WEAK DEFAULT 12 _ZNSt3__16vectorINS_4pair
495:   FUNC WEAK DEFAULT 12 _ZNSt3__14pairIPKcS2_EC2I
496:   FUNC WEAK DEFAULT 12 _ZNSt3__16vectorINS_9sub_
497:   FUNC WEAK DEFAULT 12 _ZNKSt3__120__shared_ptr_
498:   FUNC WEAK DEFAULT 12 _ZNKSt3__126__end_marked_
499:   FUNC WEAK DEFAULT 12 _ZNSt3__111basic_regexIcN
500:   FUNC WEAK DEFAULT 12 _ZNSt3__116allocator_trai
501:   FUNC WEAK DEFAULT 12 _ZNSt3__116allocator_trai
502:   FUNC GLOBAL DEFAULT 12 _ZNK7android9Formatter7is
503:   FUNC WEAK DEFAULT 12 _ZNKSt3__111basic_regexIc
504:   FUNC WEAK DEFAULT 12 _ZNSt3__110shared_ptrINS_
505:   FUNC WEAK DEFAULT 12 _ZNSt3__111__match_anyIcE
506:   FUNC WEAK DEFAULT 12 _ZNSt3__114__split_buffer
507:   FUNC WEAK DEFAULT 12 _ZNSt3__116allocator_trai
508:   FUNC GLOBAL DEFAULT 12 _ZN7android12StringHelper
509:   FUNC WEAK DEFAULT 12 _ZNSt3__116allocator_trai
510:   FUNC WEAK DEFAULT 12 _ZNSt3__18__searchIRNS_10
511:   FUNC WEAK DEFAULT 12 _ZNSt3__1lsINS_11char_tra
512:   FUNC WEAK DEFAULT 12 _ZNKSt3__112regex_traitsI
513:   FUNC WEAK DEFAULT 12 _ZNSt3__16vectorINS_4pair
514:   FUNC WEAK DEFAULT 12 _ZNSt3__16vectorINS_9sub_
515:   OBJECT WEAK DEFAULT 9 _ZTSNSt3__113__empty_stat
516:   OBJECT WEAK DEFAULT 21 _ZTVNSt3__111__match_anyI
517:   FUNC GLOBAL DEFAULT 12 _ZN7android9Formatter6ind
518:   FUNC WEAK DEFAULT 12 _ZNSt3__111basic_regexIcN
519:   FUNC WEAK DEFAULT 12 _ZNSt3__111basic_regexIcN
520:   FUNC WEAK DEFAULT 12 _ZNSt3__113match_resultsI
521:   FUNC WEAK DEFAULT 12 _ZNSt3__122__compressed_p
522:   FUNC GLOBAL DEFAULT 12 _ZN7android12StringHelper
523:   FUNC WEAK DEFAULT 12 _ZNSt3__116allocator_trai
524:   FUNC WEAK DEFAULT 12 _ZNSt3__122__compressed_p
525:   OBJECT WEAK DEFAULT 21 _ZTVNSt3__111__alternateI
526:   FUNC WEAK DEFAULT 12 _ZNSt3__122__compressed_p
527:   OBJECT WEAK DEFAULT 21 _ZTINSt3__110__l_anchorIc
528:   FUNC WEAK DEFAULT 12 _ZNSt3__111basic_regexIcN
529:   FUNC WEAK DEFAULT 12 _ZNSt3__112basic_stringIc
530:   FUNC WEAK DEFAULT 12 _ZNSt3__117__compressed_p
531:   FUNC WEAK DEFAULT 12 _ZNSt3__117__repeat_one_l
532:   FUNC WEAK DEFAULT 12 _ZNSt3__122__compressed_p
533:   FUNC GLOBAL DEFAULT 12 _ZN7android9Formatter6ind
534:   FUNC GLOBAL DEFAULT 12 _ZN7android9Formatter6sWh
535:   FUNC WEAK DEFAULT 12 _ZNSt3__110__l_anchorIcED
536:   FUNC WEAK DEFAULT 12 _ZNSt3__16vectorINS_4pair
537:   FUNC WEAK DEFAULT 12 _ZNSt3__16vectorINS_4pair
538:   FUNC GLOBAL DEFAULT 12 _ZN7android9FormatterC1Ev
539:   FUNC GLOBAL DEFAULT 12 _ZN7android12StringHelper
540:   OBJECT WEAK DEFAULT 21 _ZTVNSt3__110__back_refIc
541:   OBJECT WEAK DEFAULT 21 _ZTVNSt3__112__match_char
542:   FUNC WEAK DEFAULT 12 _ZNSt3__110__r_anchorIcED
543:   FUNC WEAK DEFAULT 12 _ZNSt3__111__end_stateIcE
544:   FUNC WEAK DEFAULT 12 _ZNSt3__111basic_regexIcN
545:   FUNC WEAK DEFAULT 12 _ZNSt3__111basic_regexIcN
546:   FUNC WEAK DEFAULT 12 _ZNSt3__122__compressed_p
547:   FUNC WEAK DEFAULT 12 _ZNKSt3__16vectorINS_9sub
548:   FUNC WEAK DEFAULT 12 _ZNSt3__111basic_regexIcN
549:   OBJECT WEAK DEFAULT 9 _ZTSNSt3__121__empty_non_
550:   FUNC WEAK DEFAULT 12 _ZNKSt3__118__match_char_
551:   FUNC WEAK DEFAULT 12 _ZNSt3__111basic_regexIcN
552:   FUNC WEAK DEFAULT 12 _ZNSt3__117__compressed_p
553:   FUNC GLOBAL DEFAULT 12 _ZNK7android9Formatter6ou
554:   FUNC WEAK DEFAULT 12 _ZNSt3__112__deque_baseIN
555:   FUNC WEAK DEFAULT 12 _ZNSt3__113match_resultsI
556:   FUNC WEAK DEFAULT 12 _ZNSt3__116allocator_trai
557:   FUNC WEAK DEFAULT 12 _ZNSt3__111basic_regexIcN
558:   FUNC WEAK DEFAULT 12 _ZNSt3__116allocator_trai
559:   FUNC WEAK DEFAULT 12 _ZNSt3__116allocator_trai
560:   FUNC WEAK DEFAULT 12 _ZNKSt3__110__l_anchorIcE
561:   FUNC WEAK DEFAULT 12 _ZNKSt3__112regex_traitsI
562:   FUNC WEAK DEFAULT 12 _ZNSt3__116__owns_one_sta
563:   FUNC WEAK DEFAULT 12 _ZNSt3__19allocatorINS_9s
564:   FUNC WEAK DEFAULT 12 _ZNSt3__111char_traitsIcE
565:   FUNC GLOBAL DEFAULT 12 _ZN7android12StringHelper
566:   FUNC WEAK DEFAULT 12 _ZNSt3__120__match_char_c
567:   OBJECT WEAK DEFAULT 9 _ZTSNSt3__115__word_bound
568:   FUNC GLOBAL DEFAULT 12 _ZN7android12StringHelper
569:   FUNC WEAK DEFAULT 12 _ZNKSt3__112__match_charI
570:   FUNC WEAK DEFAULT 12 _ZNSt3__111basic_regexIcN
571:   FUNC WEAK DEFAULT 12 _ZNSt3__19allocatorINS_9s
572:   OBJECT WEAK DEFAULT 21 _ZTVNSt3__120__bracket_ex
573:   FUNC GLOBAL DEFAULT 12 _ZN7android9FormatterC2EP
574:   FUNC WEAK DEFAULT 12 _ZNKSt3__116__back_ref_ic
575:   FUNC WEAK DEFAULT 12 _ZNSt3__114__split_buffer
576:   FUNC WEAK DEFAULT 12 _ZNKSt3__111basic_regexIc
577:   FUNC WEAK DEFAULT 12 _ZNKSt3__112regex_traitsI
578:   FUNC WEAK DEFAULT 12 _ZNSt3__16vectorINS_4pair
579:   OBJECT WEAK DEFAULT 21 _ZTINSt3__118__match_char
580:   FUNC WEAK DEFAULT 12 _ZNSt3__110unique_ptrINS_
581:   FUNC WEAK DEFAULT 12 _ZNSt3__118__match_char_i
582:   FUNC WEAK DEFAULT 12 _ZNSt3__16vectorINS_9sub_
583:   OBJECT WEAK DEFAULT 21 _ZTINSt3__117__repeat_one
584:   FUNC WEAK DEFAULT 12 _ZNKSt3__112regex_traitsI
585:   FUNC WEAK DEFAULT 12 _ZNSt3__111basic_regexIcN
586:   FUNC WEAK DEFAULT 12 _ZNSt3__116allocator_trai
587:   FUNC WEAK DEFAULT 12 _ZNSt3__16__loopIcED0Ev
588:   OBJECT WEAK DEFAULT 21 _ZTINSt3__110__back_refIc
589:   FUNC GLOBAL DEFAULT 12 _ZN7android12StringHelper
590:   FUNC WEAK DEFAULT 12 _ZNSt3__111basic_regexIcN
591:   FUNC WEAK DEFAULT 12 _ZNSt3__120__shared_ptr_p
592:   FUNC WEAK DEFAULT 12 _ZNSt3__111basic_regexIcN
593:   FUNC WEAK DEFAULT 12 _ZNSt3__114__split_buffer
594:   FUNC WEAK DEFAULT 12 _ZNSt3__126__end_marked_s
595:   OBJECT WEAK DEFAULT 21 _ZTINSt3__111__lookaheadI
596:   FUNC WEAK DEFAULT 12 _ZNSt3__118__back_ref_col
597:   FUNC WEAK DEFAULT 12 _ZNSt3__15dequeINS_7__sta
598:   OBJECT WEAK DEFAULT 21 _ZTINSt3__120__bracket_ex
599:   FUNC WEAK DEFAULT 12 _ZNKSt3__16__loopIcE6__ex
600:   FUNC WEAK DEFAULT 12 _ZNKSt3__16vectorINS_4pai
601:   FUNC WEAK DEFAULT 12 _ZNSt3__14pairImPKcEC2ILb
602:   FUNC WEAK DEFAULT 12 _ZNSt3__16vectorINS_9sub_
603:   FUNC WEAK DEFAULT 12 _ZNSt3__17__stateIcED2Ev
604:   FUNC WEAK DEFAULT 12 _ZNSt3__116allocator_trai
605:   FUNC WEAK DEFAULT 12 _ZNSt3__122__compressed_p
606:   FUNC WEAK DEFAULT 12 _ZNSt3__19allocatorIPNS_7
607:   OBJECT WEAK DEFAULT 9 _ZTSNSt3__115__has_one_st
608:   OBJECT WEAK DEFAULT 21 _ZTVNSt3__126__end_marked
609:   FUNC WEAK DEFAULT 12 _ZNSt3__116allocator_trai
610:   FUNC WEAK DEFAULT 12 _ZNKSt3__16vectorINS_12ba
611:   FUNC WEAK DEFAULT 12 _ZNSt3__116allocator_trai
612:   FUNC GLOBAL DEFAULT 12 _ZN7android9Formatter13se
613:   FUNC WEAK DEFAULT 12 _ZNK7android4base13ErrnoR
614:   FUNC WEAK DEFAULT 12 _ZNSt3__112basic_stringIc
615:   FUNC WEAK DEFAULT 12 _ZNSt3__115__has_one_stat
616:   FUNC WEAK DEFAULT 12 _ZNSt3__117__compressed_p
617:   FUNC WEAK DEFAULT 12 _ZNSt3__111basic_regexIcN
618:   FUNC WEAK DEFAULT 12 _ZNSt3__111char_traitsIcE
619:   FUNC WEAK DEFAULT 12 _ZNSt3__116allocator_trai
620:   FUNC WEAK DEFAULT 12 _ZNSt3__121__empty_non_ow
621:   FUNC WEAK DEFAULT 12 _ZNSt3__19sub_matchIPKcEa
622:   OBJECT WEAK DEFAULT 9 _ZTSNSt3__116__back_ref_i
623:   OBJECT WEAK DEFAULT 9 _ZTSNSt3__117__repeat_one
624:   FUNC WEAK DEFAULT 12 _ZNKSt3__111basic_regexIc
625:   FUNC WEAK DEFAULT 12 _ZNSt3__122__compressed_p
626:   FUNC WEAK DEFAULT 12 _ZNSt3__122__compressed_p
627:   FUNC WEAK DEFAULT 12 _ZNSt3__14pairINS_12basic
628:   OBJECT WEAK DEFAULT 9 _ZTSNSt3__111__end_stateI
629:   FUNC GLOBAL DEFAULT 12 _ZN7android12StringHelper
630:   FUNC WEAK DEFAULT 12 _ZNSt3__122__compressed_p
631:   FUNC GLOBAL DEFAULT 12 _ZN7android12StringHelper
632:   FUNC WEAK DEFAULT 12 _ZNSt3__111__lookaheadIcN
633:   FUNC WEAK DEFAULT 12 _ZNSt3__114__split_buffer
634:   FUNC WEAK DEFAULT 12 _ZNSt3__120__bracket_expr
635:   FUNC WEAK DEFAULT 12 _ZNSt3__122__compressed_p
