 0x000000000000000e (SONAME)             Library soname: [libstatssocket.so]
  
Symbol   contains 28 entries:
Num:   Type Bind Vis Ndx Name
0:   NOTYPE LOCAL DEFAULT UND
1:   FUNC GLOBAL DEFAULT UND __cxa_finalize@LIBC (2)
2:   FUNC GLOBAL DEFAULT UND __errno@LIBC (2)
3:   FUNC GLOBAL DEFAULT UND __stack_chk_fail@LIBC (2)
4:   FUNC GLOBAL DEFAULT UND clock_gettime@LIBC (2)
5:   FUNC GLOBAL DEFAULT UND memcpy@LIBC (2)
6:   FUNC GLOBAL DEFAULT UND memset@LIBC (2)
7:   FUNC GLOBAL DEFAULT UND access@LIBC (2)
8:   FUNC GLOBAL DEFAULT UND close@LIBC (2)
9:   FUNC GLOBAL DEFAULT UND connect@LIBC (2)
10:   FUNC GLOBAL DEFAULT UND gettid@LIBC (2)
11:   FUNC GLOBAL DEFAULT UND pthread_mutex_lock@LIBC (2)
12:   FUNC GLOBAL DEFAULT UND pthread_mutex_trylock@LIBC (2)
13:   FUNC GLOBAL DEFAULT UND pthread_mutex_unlock@LIBC (2)
14:   FUNC GLOBAL DEFAULT UND setsockopt@LIBC (2)
15:   FUNC GLOBAL DEFAULT UND socket@LIBC (2)
16:   FUNC GLOBAL DEFAULT UND writev@LIBC (2)
17:   FUNC GLOBAL DEFAULT 14 android_log_write_char_ar
18:   FUNC GLOBAL DEFAULT 14 note_log_drop
19:   FUNC GLOBAL DEFAULT 14 stats_log_close
20:   FUNC GLOBAL DEFAULT 14 statsd_writer_init_unlock
21:   OBJECT GLOBAL DEFAULT 16 write_to_statsd
22:   FUNC GLOBAL DEFAULT 14 statd_writer_trylock
23:   FUNC GLOBAL DEFAULT 14 reset_log_context
24:   FUNC GLOBAL DEFAULT 14 stats_write_list
25:   OBJECT GLOBAL DEFAULT 16 statsdLoggerWrite
26:   FUNC GLOBAL DEFAULT 14 statsd_writer_init_lock
27:   FUNC GLOBAL DEFAULT 14 write_to_logger
