 0x000000000000000e (SONAME)             Library soname: [libvndksupport.so]
  
Symbol   contains 13 entries:
Num:   Type Bind Vis Ndx Name
0:   NOTYPE LOCAL DEFAULT UND
1:   FUNC GLOBAL DEFAULT UND __cxa_finalize@LIBC (3)
2:   FUNC GLOBAL DEFAULT UND __android_log_print@LIBLOG (4)
3:   FUNC GLOBAL DEFAULT UND __stack_chk_fail@LIBC (3)
4:   FUNC WEAK DEFAULT UND android_dlopen_ext@LIBC (5)
5:   FUNC WEAK DEFAULT UND android_get_exported_name@LIBDL_ANDROID (6)
6:   FUNC GLOBAL DEFAULT UND dlclose@LIBC (5)
7:   FUNC GLOBAL DEFAULT UND dlerror@LIBC (5)
8:   FUNC GLOBAL DEFAULT UND dlopen@LIBC (5)
9:   FUNC GLOBAL DEFAULT UND getpid@LIBC (3)
10:   FUNC GLOBAL DEFAULT 15 android_is_in_vendor_proc@@LIBVNDKSUPPORT
11:   FUNC GLOBAL DEFAULT 15 android_load_sphal_librar@@LIBVNDKSUPPORT
12:   FUNC GLOBAL DEFAULT 15 android_unload_sphal_libr@@LIBVNDKSUPPORT
