 0x000000000000000e (SONAME)             Library soname: [libbacktrace.so]
  
Symbol   contains 240 entries:
Num:   Type Bind Vis Ndx Name
0:   NOTYPE LOCAL DEFAULT UND
1:   FUNC GLOBAL DEFAULT UND __cxa_finalize@LIBC (2)
2:   FUNC GLOBAL DEFAULT UND _ZN7android4base12StringP
3:   FUNC GLOBAL DEFAULT UND _ZN7android4base16ReadFil
4:   FUNC GLOBAL DEFAULT UND _ZNSt3__112basic_stringIc
5:   FUNC GLOBAL DEFAULT UND _ZNSt3__112basic_stringIc
6:   FUNC GLOBAL DEFAULT UND _ZNSt3__112basic_stringIc
7:   FUNC GLOBAL DEFAULT UND _ZNSt3__112basic_stringIc
8:   FUNC GLOBAL DEFAULT UND _ZNSt3__112basic_stringIc
9:   FUNC GLOBAL DEFAULT UND _ZNSt3__19to_stringEi
10:   FUNC GLOBAL DEFAULT UND _ZdlPv
11:   FUNC GLOBAL DEFAULT UND _Znwm
12:   FUNC GLOBAL DEFAULT UND __stack_chk_fail@LIBC (2)
13:   FUNC GLOBAL DEFAULT UND abort@LIBC (2)
14:   FUNC GLOBAL DEFAULT UND getpid@LIBC (2)
15:   FUNC GLOBAL DEFAULT UND isxdigit@LIBC (2)
16:   FUNC GLOBAL DEFAULT UND memmove@LIBC (2)
17:   FUNC GLOBAL DEFAULT UND strchr@LIBC (2)
18:   FUNC GLOBAL DEFAULT UND strtoull@LIBC (2)
19:   FUNC GLOBAL DEFAULT UND _ZN7android4base11GetThre
20:   FUNC GLOBAL DEFAULT UND _ZNSt3__112basic_stringIc
21:   FUNC GLOBAL DEFAULT UND _ZNSt3__112basic_stringIc
22:   FUNC GLOBAL DEFAULT UND _ZNSt3__112basic_stringIc
23:   FUNC GLOBAL DEFAULT UND _ZNSt3__1plIcNS_11char_tr
24:   FUNC GLOBAL DEFAULT UND __android_log_print@LIBLOG (3)
25:   FUNC GLOBAL DEFAULT UND __cxa_pure_virtual
26:   FUNC GLOBAL DEFAULT UND _ZNKSt3__112basic_stringI
27:   FUNC GLOBAL DEFAULT UND _ZNKSt3__121__basic_strin
28:   FUNC GLOBAL DEFAULT UND __errno@LIBC (2)
29:   FUNC GLOBAL DEFAULT UND __gnu_basename@LIBC (2)
30:   FUNC GLOBAL DEFAULT UND memcpy@LIBC (2)
31:   FUNC GLOBAL DEFAULT UND pthread_mutex_lock@LIBC (2)
32:   FUNC GLOBAL DEFAULT UND pthread_mutex_unlock@LIBC (2)
33:   FUNC GLOBAL DEFAULT UND sigaction@LIBC (2)
34:   FUNC GLOBAL DEFAULT UND sigemptyset@LIBC (2)
35:   FUNC GLOBAL DEFAULT UND strerror@LIBC (2)
36:   FUNC GLOBAL DEFAULT UND strlen@LIBC (2)
37:   FUNC GLOBAL DEFAULT UND tgkill@LIBC (2)
38:   FUNC GLOBAL DEFAULT UND ptrace@LIBC (2)
39:   FUNC GLOBAL DEFAULT UND clock_gettime@LIBC (2)
40:   FUNC GLOBAL DEFAULT UND pthread_cond_destroy@LIBC (2)
41:   FUNC GLOBAL DEFAULT UND pthread_cond_init@LIBC (2)
42:   FUNC GLOBAL DEFAULT UND pthread_cond_signal@LIBC (2)
43:   FUNC GLOBAL DEFAULT UND pthread_cond_timedwait@LIBC (2)
44:   FUNC GLOBAL DEFAULT UND pthread_condattr_init@LIBC (2)
45:   FUNC GLOBAL DEFAULT UND pthread_condattr_setclock@LIBC (2)
46:   FUNC GLOBAL DEFAULT UND _ZN11unwindstack12MemoryR
47:   FUNC GLOBAL DEFAULT UND _ZN11unwindstack3Elf17Set
48:   FUNC GLOBAL DEFAULT UND _ZN11unwindstack4Regs11Cu
49:   FUNC GLOBAL DEFAULT UND _ZN11unwindstack4Regs15Cr
50:   FUNC GLOBAL DEFAULT UND _ZN11unwindstack4Regs18Cr
51:   FUNC GLOBAL DEFAULT UND _ZN11unwindstack4Regs9Rem
52:   FUNC GLOBAL DEFAULT UND _ZN11unwindstack8Unwinder
53:   FUNC GLOBAL DEFAULT UND _ZN11unwindstack8Unwinder
54:   FUNC GLOBAL DEFAULT UND _ZNKSt3__120__vector_base
55:   FUNC GLOBAL DEFAULT UND _ZNKSt3__120__vector_base
56:   FUNC GLOBAL DEFAULT UND _ZNSt3__119__shared_weak_
57:   OBJECT GLOBAL DEFAULT UND _ZTVN11unwindstack12Memor
58:   FUNC GLOBAL DEFAULT UND memset@LIBC (2)
59:   FUNC GLOBAL DEFAULT UND _ZN11unwindstack19MemoryO
60:   FUNC GLOBAL DEFAULT UND _ZN11unwindstack19MemoryO
61:   FUNC GLOBAL DEFAULT UND _ZN11unwindstack3Elf15Get
62:   FUNC GLOBAL DEFAULT UND _ZN11unwindstack3Elf8GetR
63:   FUNC GLOBAL DEFAULT UND _ZN11unwindstack4Maps3Add
64:   FUNC GLOBAL DEFAULT UND _ZN11unwindstack4Maps4Fin
65:   FUNC GLOBAL DEFAULT UND _ZN11unwindstack4Maps5Par
66:   FUNC GLOBAL DEFAULT UND _ZN11unwindstack6Memory19
67:   FUNC GLOBAL DEFAULT UND _ZN11unwindstack7MapInfo1
68:   FUNC GLOBAL DEFAULT UND _ZN11unwindstack7MapInfo6
69:   FUNC GLOBAL DEFAULT UND _ZN11unwindstack7MapInfoD
70:   FUNC GLOBAL DEFAULT UND _ZN11unwindstack8JitDebug
71:   FUNC GLOBAL DEFAULT UND _ZNK11unwindstack10Remote
72:   FUNC GLOBAL DEFAULT UND _ZNKSt3__119__shared_weak
73:   FUNC GLOBAL DEFAULT UND _ZNSt3__119__shared_weak_
74:   OBJECT GLOBAL DEFAULT UND _ZTVN11unwindstack10Remot
75:   OBJECT GLOBAL DEFAULT UND _ZTVN11unwindstack4MapsE
76:   FUNC GLOBAL DEFAULT UND _ZNSt3__112basic_stringIc
77:   FUNC GLOBAL DEFAULT UND __memcpy_chk@LIBC (2)
78:   FUNC GLOBAL DEFAULT UND islower@LIBC (2)
79:   FUNC GLOBAL DEFAULT UND isupper@LIBC (2)
80:   FUNC GLOBAL DEFAULT UND strcmp@LIBC (2)
81:   FUNC GLOBAL DEFAULT UND strtoul@LIBC (2)
82:   FUNC GLOBAL DEFAULT UND __assert@LIBC (2)
83:   FUNC GLOBAL DEFAULT UND __strlcpy_chk@LIBC (2)
84:   FUNC GLOBAL DEFAULT UND __strlen_chk@LIBC (2)
85:   FUNC GLOBAL DEFAULT UND android_set_abort_message@LIBC (2)
86:   FUNC GLOBAL DEFAULT UND connect@LIBC (2)
87:   FUNC GLOBAL DEFAULT UND gettid@LIBC (2)
88:   FUNC GLOBAL DEFAULT UND socket@LIBC (2)
89:   FUNC GLOBAL DEFAULT UND syscall@LIBC (2)
90:   FUNC GLOBAL DEFAULT UND write@LIBC (2)
91:   FUNC GLOBAL DEFAULT UND writev@LIBC (2)
92:   FUNC WEAK DEFAULT 14 _ZNSt3__114__split_buffer
93:   FUNC GLOBAL DEFAULT 14 _ZN14UnwindStackMapC2Ei
94:   FUNC GLOBAL DEFAULT 14 _ZN9Demangler18ParseCompl
95:   FUNC WEAK DEFAULT 14 _ZNSt3__16vectorINS_12bas
96:   FUNC GLOBAL DEFAULT 14 _ZN9BacktraceD0Ev
97:   FUNC GLOBAL DEFAULT 14 _ZN9Demangler13AppendCurr
98:   FUNC GLOBAL DEFAULT 14 _ZN11ThreadEntry4WakeEv
99:   FUNC GLOBAL DEFAULT 14 _ZN16BacktraceCurrent6Unw
100:   FUNC GLOBAL DEFAULT 14 _ZN16BacktraceCurrent8Rea
101:   FUNC GLOBAL DEFAULT 14 _ZN9Demangler16FindFuncti
102:   FUNC WEAK DEFAULT 14 _ZNSt3__114__split_buffer
103:   FUNC GLOBAL DEFAULT 14 _ZN9Demangler5ParseEPKcm
104:   OBJECT WEAK DEFAULT 18 _ZN9Demangler6kTypesE
105:   FUNC WEAK DEFAULT 14 _ZNSt3__114__split_buffer
106:   FUNC WEAK DEFAULT 14 _ZNSt3__114__split_buffer
107:   FUNC GLOBAL DEFAULT 14 _ZN11ThreadEntry26CopyUco
108:   FUNC GLOBAL DEFAULT 14 _ZN18UnwindStackCurrent17
109:   FUNC GLOBAL DEFAULT 14 _ZN18UnwindStackOfflineC2
110:   FUNC GLOBAL DEFAULT 14 _ZN9Demangler24ParseArgum
111:   FUNC WEAK DEFAULT 14 _ZNSt3__1plIcNS_11char_tr
112:   FUNC GLOBAL DEFAULT 14 async_safe_format_fd_va_l
113:   FUNC GLOBAL DEFAULT 14 _ZN18UnwindStackCurrentC1
114:   FUNC GLOBAL DEFAULT 14 _ZN15BacktracePtrace8Read
115:   FUNC GLOBAL DEFAULT 14 _ZN18UnwindStackCurrent18
116:   FUNC WEAK DEFAULT 14 _ZNSt3__120__shared_ptr_p
117:   FUNC GLOBAL DEFAULT 14 _Z8demanglePKc
118:   FUNC GLOBAL DEFAULT 14 _ZN9Backtrace6CreateEiiP1
119:   FUNC WEAK DEFAULT 14 _ZNSt3__15dequeI15backtra
120:   FUNC GLOBAL DEFAULT 14 _ZN12BacktraceMapC2Ei
121:   OBJECT GLOBAL DEFAULT 18 _ZTV9Backtrace
122:   FUNC GLOBAL DEFAULT 14 _ZN11ThreadEntryC2Eii
123:   OBJECT WEAK DEFAULT 18 _ZN9Demangler7kDTypesE
124:   FUNC WEAK DEFAULT 14 _ZNSt3__114__split_buffer
125:   FUNC WEAK DEFAULT 14 _ZNSt3__114__split_buffer
126:   FUNC GLOBAL DEFAULT 14 _ZN9Backtrace14GetErrorSt
127:   FUNC GLOBAL DEFAULT 14 _ZN16BacktraceCurrent12Di
128:   FUNC GLOBAL DEFAULT 14 _ZN15BacktracePtrace4Read
129:   FUNC GLOBAL DEFAULT 14 _ZN18UnwindStackCurrentC2
130:   FUNC WEAK DEFAULT 14 _ZNSt3__15dequeIN9Demangl
131:   FUNC GLOBAL DEFAULT 14 _ZN9BacktraceC2EiiP12Back
132:   OBJECT GLOBAL DEFAULT 22 _ZN11ThreadEntry5list_E
133:   FUNC GLOBAL DEFAULT 14 _ZN11ThreadEntryD1Ev
134:   FUNC GLOBAL DEFAULT 14 _ZN9Demangler17ParseFunct
135:   FUNC GLOBAL DEFAULT 14 _ZN9Demangler19GetStringF
136:   FUNC GLOBAL DEFAULT 14 _ZN12BacktraceMap13Create
137:   FUNC GLOBAL DEFAULT 14 _ZN14UnwindStackMap6FillI
138:   FUNC GLOBAL DEFAULT 14 _ZN21UnwindStackOfflineMa
139:   FUNC GLOBAL DEFAULT 14 _ZN11ThreadEntry3GetEiib
140:   OBJECT GLOBAL DEFAULT 18 _ZTV18UnwindStackOffline
141:   FUNC GLOBAL DEFAULT 14 _ZN9Demangler29ParseTempl
142:   FUNC WEAK DEFAULT 14 _ZNSt3__16vectorINS_12bas
143:   FUNC GLOBAL DEFAULT 14 _ZN16BacktraceCurrent4Rea
144:   FUNC GLOBAL DEFAULT 14 _ZN9Demangler16FinalizeTe
145:   FUNC GLOBAL DEFAULT 14 _ZN9Demangler20ParseCompl
146:   FUNC GLOBAL DEFAULT 14 _ZN9Demangler4SaveERKNSt3
147:   FUNC GLOBAL DEFAULT 14 async_safe_fatal_va_list
148:   FUNC GLOBAL DEFAULT 14 async_safe_format_fd
149:   FUNC GLOBAL DEFAULT 14 _ZN12BacktraceMapD1Ev
150:   OBJECT GLOBAL DEFAULT 18 _ZTV12BacktraceMap
151:   FUNC GLOBAL DEFAULT 14 _ZN18UnwindStackOffline6U
152:   OBJECT WEAK DEFAULT 18 _ZTVN11unwindstack9LocalM
153:   FUNC WEAK DEFAULT 14 _ZNSt3__114__split_buffer
154:   FUNC GLOBAL DEFAULT 14 async_safe_write_log
155:   FUNC GLOBAL DEFAULT 14 _ZNK15backtrace_map_t4Nam
156:   FUNC WEAK DEFAULT 14 _ZNSt3__16vectorIM9Demang
157:   FUNC GLOBAL DEFAULT 14 _ZN18UnwindStackOffline4R
158:   FUNC GLOBAL DEFAULT 14 _ZN18UnwindStackOffline8R
159:   FUNC GLOBAL DEFAULT 14 _ZN9Backtrace13CreateOffl
160:   FUNC GLOBAL DEFAULT 14 _ZN14UnwindStackMap15GetF
161:   FUNC GLOBAL DEFAULT 14 _ZN21UnwindStackOfflineMa
162:   FUNC WEAK DEFAULT 14 _ZNSt3__112__deque_baseI1
163:   FUNC GLOBAL DEFAULT 14 _ZN9BacktraceD1Ev
164:   FUNC GLOBAL DEFAULT 14 async_safe_format_log
165:   FUNC GLOBAL DEFAULT 14 _ZN14UnwindStackMap5Build
166:   FUNC GLOBAL DEFAULT 14 _ZN9Demangler14ParseArgum
167:   FUNC GLOBAL DEFAULT 14 _ZN17UnwindStackPtrace6Un
168:   OBJECT GLOBAL DEFAULT 18 _ZTV14UnwindStackMap
169:   FUNC GLOBAL DEFAULT 14 _ZN12BacktraceMap5BuildEv
170:   FUNC GLOBAL DEFAULT 14 _ZN21UnwindStackOfflineMa
171:   OBJECT WEAK DEFAULT 18 _ZTVN11unwindstack8Unwind
172:   FUNC GLOBAL DEFAULT 14 _ZN9Demangler14AppendArgu
173:   FUNC GLOBAL DEFAULT 14 _ZN9Demangler22ParseTempl
174:   FUNC WEAK DEFAULT 14 _ZNSt3__16vectorINS_12bas
175:   FUNC GLOBAL DEFAULT 14 _ZN14UnwindStackMapC1Ei
176:   FUNC GLOBAL DEFAULT 14 _ZN9Demangler18GetArgumen
177:   FUNC GLOBAL DEFAULT 14 _ZN9Backtrace15GetFunctio
178:   FUNC GLOBAL DEFAULT 14 _ZN14UnwindStackMap11GetL
179:   FUNC GLOBAL DEFAULT 14 _ZN9Backtrace6UnwindEPN11
180:   FUNC GLOBAL DEFAULT 14 _ZN11ThreadEntry6RemoveEP
181:   FUNC GLOBAL DEFAULT 14 _ZN17UnwindStackPtraceC2E
182:   FUNC GLOBAL DEFAULT 14 _ZN18UnwindStackOfflineC1
183:   OBJECT GLOBAL DEFAULT 18 _ZTV18UnwindStackCurrent
184:   FUNC GLOBAL DEFAULT 14 _ZN12BacktraceMap6CreateE
185:   FUNC GLOBAL DEFAULT 14 _ZN9Backtrace15FormatFram
186:   FUNC GLOBAL DEFAULT 14 _ZN11ThreadEntry4WaitEi
187:   FUNC GLOBAL DEFAULT 14 _ZN16BacktraceCurrent12Un
188:   FUNC GLOBAL DEFAULT 14 _ZN9Backtrace9FillInMapEm
189:   OBJECT GLOBAL DEFAULT 18 _ZTV15BacktracePtrace
190:   FUNC GLOBAL DEFAULT 14 _ZN11ThreadEntryD2Ev
191:   FUNC GLOBAL DEFAULT 14 _ZN9Backtrace17SetGlobalE
192:   FUNC WEAK DEFAULT 14 _ZNSt3__16vectorIN11unwin
193:   FUNC WEAK DEFAULT 14 _ZNSt3__120__shared_ptr_p
194:   OBJECT WEAK DEFAULT 18 _ZTVNSt3__120__shared_ptr
195:   FUNC GLOBAL DEFAULT 14 async_safe_fatal_no_abort
196:   FUNC WEAK DEFAULT 14 _ZN7android8procinfo18Rea
197:   FUNC WEAK DEFAULT 14 _ZNSt3__114__split_buffer
198:   FUNC WEAK DEFAULT 14 _ZNSt3__15dequeI15backtra
199:   FUNC WEAK DEFAULT 14 _ZNSt3__112__deque_baseIN
200:   FUNC GLOBAL DEFAULT 14 _ZN17UnwindStackPtraceC1E
201:   FUNC GLOBAL DEFAULT 14 _ZN9Backtrace13UnwindOffl
202:   FUNC GLOBAL DEFAULT 14 _ZN9Demangler25ParseFunct
203:   FUNC GLOBAL DEFAULT 14 _ZN12BacktraceMapC1Ei
204:   FUNC WEAK DEFAULT 14 _ZNSt3__15dequeI15backtra
205:   OBJECT GLOBAL DEFAULT 18 _ZTV17UnwindStackPtrace
206:   FUNC GLOBAL DEFAULT 14 _ZN9Demangler20AppendOper
207:   FUNC GLOBAL DEFAULT 14 _ZN9Demangler21ParseFunct
208:   FUNC GLOBAL DEFAULT 14 async_safe_format_log_va_
209:   FUNC GLOBAL DEFAULT 14 _ZN9Backtrace15FormatFram
210:   FUNC GLOBAL DEFAULT 14 _ZN14UnwindStackMap16GetP
211:   FUNC GLOBAL DEFAULT 14 _ZN9Demangler6ParseTEPKc
212:   OBJECT WEAK DEFAULT 18 _ZN9Demangler7kSTypesE
213:   FUNC GLOBAL DEFAULT 14 async_safe_format_buffer_
214:   FUNC GLOBAL DEFAULT 14 _ZN12BacktraceMapD2Ev
215:   FUNC GLOBAL DEFAULT 14 _ZN9Backtrace18VerifyRead
216:   OBJECT GLOBAL DEFAULT 22 _ZN11ThreadEntry11list_mu
217:   FUNC GLOBAL DEFAULT 14 _ZN21UnwindStackOfflineMa
218:   FUNC GLOBAL DEFAULT 14 _ZN9Demangler20ParseTempl
219:   FUNC WEAK DEFAULT 14 _ZNSt3__1plIcNS_11char_tr
220:   OBJECT GLOBAL DEFAULT 18 _ZTV16BacktraceCurrent
221:   FUNC GLOBAL DEFAULT 14 _ZN9Demangler13AppendCurr
222:   FUNC GLOBAL DEFAULT 14 async_safe_format_buffer
223:   FUNC GLOBAL DEFAULT 14 _ZN18UnwindStackOffline18
224:   FUNC GLOBAL DEFAULT 14 _ZN9Backtrace13CreateOffl
225:   FUNC WEAK DEFAULT 14 _ZNSt3__16vectorI22backtr
226:   FUNC GLOBAL DEFAULT 14 _ZN21UnwindStackOfflineMa
227:   FUNC GLOBAL DEFAULT 14 _ZN9Demangler6ParseSEPKc
228:   FUNC GLOBAL DEFAULT 14 _ZN9BacktraceD2Ev
229:   FUNC WEAK DEFAULT 14 _ZNSt3__16vectorIM9Demang
230:   FUNC GLOBAL DEFAULT 14 _ZN12BacktraceMap6FillInE
231:   FUNC WEAK DEFAULT 14 _ZNSt3__15dequeI15backtra
232:   FUNC GLOBAL DEFAULT 14 _ZN11ThreadEntryC1Eii
233:   FUNC GLOBAL DEFAULT 14 _ZN17UnwindStackPtrace18G
234:   FUNC GLOBAL DEFAULT 14 _ZN17UnwindStackPtrace4Re
235:   OBJECT GLOBAL DEFAULT 18 _ZTV21UnwindStackOfflineM
236:   FUNC GLOBAL DEFAULT 14 _ZN9Demangler30ParseFunct
237:   FUNC WEAK DEFAULT 14 _ZNSt3__1plIcNS_11char_tr
238:   FUNC GLOBAL DEFAULT 14 _ZN12BacktraceMapD0Ev
239:   FUNC WEAK DEFAULT 14 _ZNSt3__16vectorINS_12bas
