 0x000000000000000e (SONAME)             Library soname: [liblog.so]
  
Symbol   contains 191 entries:
Num:   Type Bind Vis Ndx Name
0:   NOTYPE LOCAL DEFAULT UND
1:   NOTYPE WEAK DEFAULT UND __gmon_start__
2:   NOTYPE WEAK DEFAULT UND _ITM_deregisterTMCloneTab
3:   NOTYPE WEAK DEFAULT UND _ITM_registerTMCloneTable
4:   FUNC WEAK DEFAULT UND __cxa_finalize@GLIBC_2.2.5 (2)
5:   NOTYPE WEAK DEFAULT UND _Jv_RegisterClasses
6:   FUNC GLOBAL DEFAULT UND calloc@GLIBC_2.2.5 (2)
7:   FUNC GLOBAL DEFAULT UND free@GLIBC_2.2.5 (2)
8:   FUNC GLOBAL DEFAULT UND memcpy@GLIBC_2.14 (3)
9:   FUNC GLOBAL DEFAULT UND memset@GLIBC_2.2.5 (2)
10:   FUNC GLOBAL DEFAULT UND strnlen@GLIBC_2.2.5 (2)
11:   FUNC GLOBAL DEFAULT UND __stack_chk_fail@GLIBC_2.4 (4)
12:   FUNC GLOBAL DEFAULT UND pthread_mutex_lock@GLIBC_2.2.5 (5)
13:   FUNC GLOBAL DEFAULT UND pthread_mutex_trylock@GLIBC_2.2.5 (5)
14:   FUNC GLOBAL DEFAULT UND pthread_mutex_unlock@GLIBC_2.2.5 (5)
15:   FUNC GLOBAL DEFAULT UND strcmp@GLIBC_2.2.5 (2)
16:   FUNC GLOBAL DEFAULT UND strrchr@GLIBC_2.2.5 (2)
17:   FUNC GLOBAL DEFAULT UND getuid@GLIBC_2.2.5 (2)
18:   FUNC GLOBAL DEFAULT UND sched_yield@GLIBC_2.2.5 (2)
19:   FUNC GLOBAL DEFAULT UND __errno_location@GLIBC_2.2.5 (5)
20:   FUNC GLOBAL DEFAULT UND __vsnprintf_chk@GLIBC_2.3.4 (6)
21:   FUNC GLOBAL DEFAULT UND abort@GLIBC_2.2.5 (2)
22:   FUNC GLOBAL DEFAULT UND gettimeofday@GLIBC_2.2.5 (2)
23:   FUNC GLOBAL DEFAULT UND snprintf@GLIBC_2.2.5 (2)
24:   FUNC GLOBAL DEFAULT UND strlen@GLIBC_2.2.5 (2)
25:   FUNC GLOBAL DEFAULT UND strncmp@GLIBC_2.2.5 (2)
26:   FUNC GLOBAL DEFAULT UND write@GLIBC_2.2.5 (5)
27:   FUNC GLOBAL DEFAULT UND __ctype_b_loc@GLIBC_2.3 (7)
28:   FUNC GLOBAL DEFAULT UND __ctype_tolower_loc@GLIBC_2.3 (7)
29:   FUNC GLOBAL DEFAULT UND __strcat_chk@GLIBC_2.3.4 (6)
30:   FUNC GLOBAL DEFAULT UND __strcpy_chk@GLIBC_2.3.4 (6)
31:   FUNC GLOBAL DEFAULT UND __strncat_chk@GLIBC_2.3.4 (6)
32:   FUNC GLOBAL DEFAULT UND __strncpy_chk@GLIBC_2.3.4 (6)
33:   FUNC GLOBAL DEFAULT UND fprintf@GLIBC_2.2.5 (2)
34:   FUNC GLOBAL DEFAULT UND fwrite@GLIBC_2.2.5 (2)
35:   FUNC GLOBAL DEFAULT UND getenv@GLIBC_2.2.5 (2)
36:   FUNC GLOBAL DEFAULT UND getpwuid@GLIBC_2.2.5 (2)
37:   FUNC GLOBAL DEFAULT UND localtime_r@GLIBC_2.2.5 (2)
38:   FUNC GLOBAL DEFAULT UND malloc@GLIBC_2.2.5 (2)
39:   FUNC GLOBAL DEFAULT UND setenv@GLIBC_2.2.5 (2)
40:   OBJECT GLOBAL DEFAULT UND stderr@GLIBC_2.2.5 (2)
41:   FUNC GLOBAL DEFAULT UND strcasecmp@GLIBC_2.2.5 (2)
42:   FUNC GLOBAL DEFAULT UND strchr@GLIBC_2.2.5 (2)
43:   FUNC GLOBAL DEFAULT UND strcpy@GLIBC_2.2.5 (2)
44:   FUNC GLOBAL DEFAULT UND strcspn@GLIBC_2.2.5 (2)
45:   FUNC GLOBAL DEFAULT UND strdup@GLIBC_2.2.5 (2)
46:   FUNC GLOBAL DEFAULT UND strftime@GLIBC_2.2.5 (2)
47:   FUNC GLOBAL DEFAULT UND strsep@GLIBC_2.2.5 (2)
48:   OBJECT GLOBAL DEFAULT UND tzname@GLIBC_2.2.5 (2)
49:   FUNC GLOBAL DEFAULT UND tzset@GLIBC_2.2.5 (2)
50:   FUNC GLOBAL DEFAULT UND unsetenv@GLIBC_2.2.5 (2)
51:   FUNC GLOBAL DEFAULT UND fileno@GLIBC_2.2.5 (2)
52:   FUNC GLOBAL DEFAULT UND getpid@GLIBC_2.2.5 (2)
53:   FUNC GLOBAL DEFAULT UND strtok_r@GLIBC_2.2.5 (2)
54:   FUNC GLOBAL DEFAULT UND strncpy@GLIBC_2.2.5 (2)
55:   FUNC GLOBAL DEFAULT UND strtol@GLIBC_2.2.5 (2)
56:   FUNC GLOBAL DEFAULT UND time@GLIBC_2.2.5 (2)
57:   FUNC GLOBAL DEFAULT UND writev@GLIBC_2.2.5 (2)
58:   FUNC GLOBAL DEFAULT UND _ZNKSt3__121__basic_strin
59:   FUNC GLOBAL DEFAULT UND _ZNSt3__112__next_primeEm
60:   FUNC GLOBAL DEFAULT UND _ZNSt3__112basic_stringIc
61:   FUNC GLOBAL DEFAULT UND _ZdlPv
62:   FUNC GLOBAL DEFAULT UND _Znwm
63:   FUNC GLOBAL DEFAULT UND asprintf@GLIBC_2.2.5 (2)
64:   FUNC GLOBAL DEFAULT UND ceilf@GLIBC_2.2.5 (8)
65:   FUNC GLOBAL DEFAULT UND close@GLIBC_2.2.5 (5)
66:   FUNC GLOBAL DEFAULT UND lseek@GLIBC_2.2.5 (5)
67:   FUNC GLOBAL DEFAULT UND memchr@GLIBC_2.2.5 (2)
68:   FUNC GLOBAL DEFAULT UND mmap@GLIBC_2.2.5 (2)
69:   FUNC GLOBAL DEFAULT UND munmap@GLIBC_2.2.5 (2)
70:   FUNC GLOBAL DEFAULT UND open@GLIBC_2.2.5 (5)
71:   FUNC GLOBAL DEFAULT UND pthread_rwlock_destroy@GLIBC_2.2.5 (5)
72:   FUNC GLOBAL DEFAULT UND pthread_rwlock_init@GLIBC_2.2.5 (5)
73:   FUNC GLOBAL DEFAULT UND pthread_rwlock_rdlock@GLIBC_2.2.5 (5)
74:   FUNC GLOBAL DEFAULT UND pthread_rwlock_unlock@GLIBC_2.2.5 (5)
75:   FUNC GLOBAL DEFAULT UND pthread_rwlock_wrlock@GLIBC_2.2.5 (5)
76:   FUNC GLOBAL DEFAULT UND realloc@GLIBC_2.2.5 (2)
77:   FUNC GLOBAL DEFAULT UND strerror@GLIBC_2.2.5 (2)
78:   FUNC GLOBAL DEFAULT UND strtoul@GLIBC_2.2.5 (2)
79:   FUNC GLOBAL DEFAULT 12 android_log_write_int32
80:   FUNC GLOBAL DEFAULT 12 android_log_write_list_be
81:   FUNC GLOBAL DEFAULT 12 __android_log_bswrite
82:   FUNC GLOBAL DEFAULT 12 android_log_setPrintForma
83:   FUNC GLOBAL DEFAULT 12 android_lookupEventFormat
84:   FUNC GLOBAL DEFAULT 12 __android_log_bwrite
85:   FUNC GLOBAL DEFAULT 12 android_log_reset
86:   FUNC GLOBAL DEFAULT 12 android_logger_list_free
87:   FUNC GLOBAL DEFAULT 12 __android_log_print
88:   FUNC GLOBAL DEFAULT 12 android_log_printLogLine
89:   FUNC GLOBAL DEFAULT 14 _fini
90:   FUNC GLOBAL DEFAULT 12 android_set_log_transport
91:   FUNC WEAK DEFAULT 12 _ZNKSt3__112__hash_tableI
92:   FUNC WEAK DEFAULT 12 _ZNSt3__112__hash_tableIN
93:   OBJECT GLOBAL DEFAULT 16 fakeLoggerWrite
94:   FUNC GLOBAL DEFAULT 12 __android_log_buf_write
95:   FUNC WEAK DEFAULT 12 _ZNSt3__121__murmur2_or_c
96:   FUNC GLOBAL DEFAULT 12 android_closeEventTagMap
97:   FUNC GLOBAL DEFAULT 12 android_logger_get_prune_
98:   FUNC WEAK DEFAULT 12 _ZNSt3__112__hash_tableIN
99:   FUNC WEAK DEFAULT 12 _ZNSt3__112__hash_tableIN
100:   FUNC GLOBAL DEFAULT 12 android_log_write_string8
101:   FUNC GLOBAL DEFAULT 12 _ZNK11EventTagMap4findEj
102:   FUNC GLOBAL DEFAULT 12 android_logger_get_log_re
103:   FUNC GLOBAL DEFAULT 12 __android_log_assert
104:   FUNC GLOBAL DEFAULT 12 android_logger_list_read
105:   FUNC GLOBAL DEFAULT 12 __android_log_config_writ
106:   FUNC GLOBAL DEFAULT 12 android_log_destroy
107:   FUNC GLOBAL DEFAULT 12 android_log_read_next
108:   FUNC GLOBAL DEFAULT 12 __android_log_error_write
109:   FUNC GLOBAL DEFAULT 12 android_logger_list_alloc
110:   FUNC WEAK DEFAULT 12 _ZNSt3__112__hash_tableIN
111:   OBJECT GLOBAL DEFAULT 25 __android_log_transport
112:   FUNC GLOBAL DEFAULT 12 android_log_peek_next
113:   FUNC GLOBAL DEFAULT 12 __android_log_buf_print
114:   FUNC GLOBAL DEFAULT 12 android_log_addFilterRule
115:   FUNC WEAK DEFAULT 12 _ZNSt3__121__murmur2_or_c
116:   FUNC GLOBAL DEFAULT 12 android_logger_get_log_ve
117:   FUNC GLOBAL DEFAULT 12 android_logger_list_alloc
118:   FUNC GLOBAL DEFAULT 12 android_log_formatFromStr
119:   FUNC GLOBAL DEFAULT 12 android_log_shouldPrintLi
120:   FUNC WEAK DEFAULT 12 _ZNSt3__112__hash_tableIN
121:   FUNC GLOBAL DEFAULT 12 android_logger_get_log_si
122:   FUNC GLOBAL DEFAULT 12 __android_log_dev_availab
123:   FUNC GLOBAL DEFAULT 12 __android_log_security_bs
124:   FUNC GLOBAL DEFAULT 12 __android_log_vprint
125:   FUNC GLOBAL DEFAULT 12 fakeLogWritev
126:   FUNC GLOBAL DEFAULT 13 _init
127:   FUNC GLOBAL DEFAULT 12 android_log_write_list
128:   FUNC GLOBAL DEFAULT 12 __android_log_unlock
129:   FUNC GLOBAL DEFAULT 12 __android_log_is_loggable
130:   FUNC GLOBAL DEFAULT 12 __send_log_msg
131:   FUNC WEAK DEFAULT 12 _ZNSt3__112__hash_tableIN
132:   FUNC GLOBAL DEFAULT 12 __android_log_config_read
133:   FUNC GLOBAL DEFAULT 12 android_log_parser_reset
134:   FUNC GLOBAL DEFAULT 12 android_log_write_list_bu
135:   FUNC GLOBAL DEFAULT 12 __android_log_lock
136:   FUNC WEAK DEFAULT 12 _ZNSt3__112__hash_tableIN
137:   FUNC GLOBAL DEFAULT 12 android_log_write_string8
138:   OBJECT GLOBAL DEFAULT 16 __android_log_transport_r
139:   FUNC GLOBAL DEFAULT 12 __android_log_trylock
140:   FUNC GLOBAL DEFAULT 12 android_logger_get_id
141:   FUNC GLOBAL DEFAULT 12 android_logger_set_prune_
142:   FUNC GLOBAL DEFAULT 12 android_log_format_new
143:   FUNC GLOBAL DEFAULT 12 fakeLogOpen
144:   FUNC WEAK DEFAULT 12 _ZNKSt3__112__hash_tableI
145:   FUNC GLOBAL DEFAULT 12 android_log_write_int64
146:   FUNC GLOBAL DEFAULT 12 android_name_to_log_id
147:   FUNC GLOBAL DEFAULT 12 __android_log_btwrite
148:   FUNC GLOBAL DEFAULT 12 android_log_formatLogLine
149:   FUNC GLOBAL DEFAULT 12 android_log_processLogBuf
150:   FUNC GLOBAL DEFAULT 12 __android_log_is_debuggab
151:   FUNC GLOBAL DEFAULT 12 android_logger_open
152:   FUNC GLOBAL DEFAULT 12 android_get_log_transport
153:   FUNC GLOBAL DEFAULT 12 __android_log_is_loggable
154:   OBJECT GLOBAL DEFAULT 16 __android_log_transport_w
155:   FUNC GLOBAL DEFAULT 12 __android_log_stats_bwrit
156:   FUNC WEAK DEFAULT 12 _ZN11EventTagMapD2Ev
157:   OBJECT GLOBAL DEFAULT 16 __android_log_persist_wri
158:   OBJECT GLOBAL DEFAULT 16 stderrLoggerWrite
159:   FUNC GLOBAL DEFAULT 12 __android_log_security_bw
160:   FUNC GLOBAL DEFAULT 12 android_log_format_free
161:   OBJECT GLOBAL DEFAULT 16 __android_log_persist_rea
162:   FUNC GLOBAL DEFAULT 12 __android_log_config_writ
163:   FUNC GLOBAL DEFAULT 12 android_logger_list_open
164:   FUNC WEAK DEFAULT 12 utf8_character_length
165:   FUNC GLOBAL DEFAULT 12 android_lookupEventTag
166:   FUNC GLOBAL DEFAULT 12 android_lookupEventTagNum
167:   FUNC GLOBAL DEFAULT 12 __android_log_config_read
168:   FUNC GLOBAL DEFAULT 12 android_log_write_list_en
169:   FUNC GLOBAL DEFAULT 12 create_android_log_parser
170:   FUNC GLOBAL DEFAULT 12 __android_log_close
171:   FUNC GLOBAL DEFAULT 12 android_log_processBinary
172:   FUNC WEAK DEFAULT 12 _ZNSt3__112__hash_tableIN
173:   FUNC GLOBAL DEFAULT 12 android_logger_clear
174:   FUNC GLOBAL DEFAULT 12 __android_log_write
175:   FUNC WEAK DEFAULT 12 _ZNSt3__112__hash_tableIN
176:   FUNC GLOBAL DEFAULT 12 android_lookupEventTag_le
177:   FUNC GLOBAL DEFAULT 12 create_android_logger
178:   FUNC GLOBAL DEFAULT 12 android_log_addFilterStri
179:   FUNC GLOBAL DEFAULT 12 fakeLogClose
180:   FUNC GLOBAL DEFAULT 12 _ZNK11EventTagMap4findEO9
181:   FUNC WEAK DEFAULT 12 _ZNSt3__112__hash_tableIN
182:   FUNC WEAK DEFAULT 12 _ZNSt3__112__hash_tableIN
183:   FUNC GLOBAL DEFAULT 12 android_log_id_to_name
184:   FUNC GLOBAL DEFAULT 12 android_logger_get_statis
185:   FUNC GLOBAL DEFAULT 12 _ZN11EventTagMap13emplace
186:   FUNC GLOBAL DEFAULT 12 _ZNK11EventTagMap4findEON
187:   FUNC WEAK DEFAULT 12 _ZNSt3__112__hash_tableIN
188:   FUNC GLOBAL DEFAULT 12 android_log_write_float32
189:   FUNC GLOBAL DEFAULT 12 android_logger_set_log_si
190:   FUNC GLOBAL DEFAULT 12 android_openEventTagMap
