 0x000000000000000e (SONAME)             Library soname: [libprocessgroup.so]
  
Symbol   contains 745 entries:
Num:   Type Bind Vis Ndx Name
0:   NOTYPE LOCAL DEFAULT UND
1:   NOTYPE WEAK DEFAULT UND __gmon_start__
2:   NOTYPE WEAK DEFAULT UND _ITM_deregisterTMCloneTab
3:   NOTYPE WEAK DEFAULT UND _ITM_registerTMCloneTable
4:   FUNC WEAK DEFAULT UND __cxa_finalize@GLIBC_2.2.5 (2)
5:   NOTYPE WEAK DEFAULT UND _Jv_RegisterClasses
6:   FUNC GLOBAL DEFAULT UND ACgroupController_getName@LIBCGROUPRC (3)
7:   FUNC GLOBAL DEFAULT UND ACgroupController_getPath@LIBCGROUPRC (3)
8:   FUNC GLOBAL DEFAULT UND ACgroupController_getVers@LIBCGROUPRC (3)
9:   FUNC GLOBAL DEFAULT UND ACgroupFile_getController@LIBCGROUPRC (3)
10:   FUNC GLOBAL DEFAULT UND ACgroupFile_getController@LIBCGROUPRC (3)
11:   FUNC GLOBAL DEFAULT UND ACgroupFile_getVersion@LIBCGROUPRC (3)
12:   FUNC GLOBAL DEFAULT UND _ZN7android4base10LogMess
13:   FUNC GLOBAL DEFAULT UND _ZN7android4base10LogMess
14:   FUNC GLOBAL DEFAULT UND _ZN7android4base10LogMess
15:   FUNC GLOBAL DEFAULT UND _ZN7android4base12StringP
16:   FUNC GLOBAL DEFAULT UND _ZN7android4base16ReadFil
17:   FUNC GLOBAL DEFAULT UND _ZN7android4base21GetMini
18:   FUNC GLOBAL DEFAULT UND _ZNKSt3__112basic_stringI
19:   FUNC GLOBAL DEFAULT UND _ZNKSt3__112basic_stringI
20:   FUNC GLOBAL DEFAULT UND _ZNKSt3__120__vector_base
21:   FUNC GLOBAL DEFAULT UND _ZNKSt3__121__basic_strin
22:   FUNC GLOBAL DEFAULT UND _ZNKSt3__123__match_any_b
23:   FUNC GLOBAL DEFAULT UND _ZNKSt3__16locale4nameEv
24:   FUNC GLOBAL DEFAULT UND _ZNKSt3__16locale9use_fac
25:   FUNC GLOBAL DEFAULT UND _ZNKSt3__18ios_base6getlo
26:   FUNC GLOBAL DEFAULT UND _ZNSt3__112basic_stringIc
27:   FUNC GLOBAL DEFAULT UND _ZNSt3__112basic_stringIc
28:   FUNC GLOBAL DEFAULT UND _ZNSt3__112basic_stringIc
29:   FUNC GLOBAL DEFAULT UND _ZNSt3__112basic_stringIc
30:   FUNC GLOBAL DEFAULT UND _ZNSt3__112basic_stringIc
31:   FUNC GLOBAL DEFAULT UND _ZNSt3__112basic_stringIc
32:   FUNC GLOBAL DEFAULT UND _ZNSt3__112basic_stringIc
33:   FUNC GLOBAL DEFAULT UND _ZNSt3__113basic_ostreamI
34:   FUNC GLOBAL DEFAULT UND _ZNSt3__113basic_ostreamI
35:   FUNC GLOBAL DEFAULT UND _ZNSt3__113basic_ostreamI
36:   FUNC GLOBAL DEFAULT UND _ZNSt3__113basic_ostreamI
37:   FUNC GLOBAL DEFAULT UND _ZNSt3__115__get_classnam
38:   FUNC GLOBAL DEFAULT UND _ZNSt3__119__shared_weak_
39:   FUNC GLOBAL DEFAULT UND _ZNSt3__119__shared_weak_
40:   FUNC GLOBAL DEFAULT UND _ZNSt3__120__get_collatio
41:   OBJECT GLOBAL DEFAULT UND _ZNSt3__15ctypeIcE2idE
42:   FUNC GLOBAL DEFAULT UND _ZNSt3__16localeC1ERKS0_
43:   FUNC GLOBAL DEFAULT UND _ZNSt3__16localeC1Ev
44:   FUNC GLOBAL DEFAULT UND _ZNSt3__16localeD1Ev
45:   OBJECT GLOBAL DEFAULT UND _ZNSt3__17collateIcE2idE
46:   FUNC GLOBAL DEFAULT UND _ZNSt3__18ios_base5clearE
47:   FUNC GLOBAL DEFAULT UND _ZNSt3__19to_stringEi
48:   FUNC GLOBAL DEFAULT UND _ZNSt3__19to_stringEj
49:   FUNC GLOBAL DEFAULT UND _ZNSt3__1plIcNS_11char_tr
50:   OBJECT GLOBAL DEFAULT UND _ZTINSt3__119__shared_wea
51:   OBJECT GLOBAL DEFAULT UND _ZTVN10__cxxabiv117__clas
52:   OBJECT GLOBAL DEFAULT UND _ZTVN10__cxxabiv120__si_c
53:   FUNC GLOBAL DEFAULT UND _ZdlPv
54:   FUNC GLOBAL DEFAULT UND _Znwm
55:   FUNC GLOBAL DEFAULT UND __cxa_guard_acquire
56:   FUNC GLOBAL DEFAULT UND __cxa_guard_release
57:   FUNC GLOBAL DEFAULT UND __errno_location@GLIBC_2.2.5 (4)
58:   FUNC GLOBAL DEFAULT UND __stack_chk_fail@GLIBC_2.4 (5)
59:   FUNC GLOBAL DEFAULT UND abort@GLIBC_2.2.5 (2)
60:   FUNC GLOBAL DEFAULT UND access@GLIBC_2.2.5 (2)
61:   FUNC GLOBAL DEFAULT UND getpid@GLIBC_2.2.5 (2)
62:   FUNC GLOBAL DEFAULT UND memchr@GLIBC_2.2.5 (2)
63:   FUNC GLOBAL DEFAULT UND memcmp@GLIBC_2.2.5 (2)
64:   FUNC GLOBAL DEFAULT UND memcpy@GLIBC_2.14 (6)
65:   FUNC GLOBAL DEFAULT UND memmove@GLIBC_2.2.5 (2)
66:   FUNC GLOBAL DEFAULT UND memset@GLIBC_2.2.5 (2)
67:   FUNC GLOBAL DEFAULT UND strlen@GLIBC_2.2.5 (2)
68:   FUNC GLOBAL DEFAULT UND _ZN7android4base10StartsW
69:   FUNC GLOBAL DEFAULT UND _ZN7android4base15GetBool
70:   FUNC GLOBAL DEFAULT UND _ZN7android4base17WriteSt
71:   FUNC GLOBAL DEFAULT UND _ZNSt3__111this_thread9sl
72:   FUNC GLOBAL DEFAULT UND _ZNSt3__112basic_stringIc
73:   FUNC GLOBAL DEFAULT UND _ZNSt3__113basic_ostreamI
74:   FUNC GLOBAL DEFAULT UND _ZNSt3__16chrono12steady_
75:   FUNC GLOBAL DEFAULT UND _ZNSt3__19to_stringEl
76:   FUNC GLOBAL DEFAULT UND chown@GLIBC_2.2.5 (2)
77:   FUNC GLOBAL DEFAULT UND closedir@GLIBC_2.2.5 (2)
78:   FUNC GLOBAL DEFAULT UND fclose@GLIBC_2.2.5 (2)
79:   FUNC GLOBAL DEFAULT UND feof@GLIBC_2.2.5 (2)
80:   FUNC GLOBAL DEFAULT UND fopen@GLIBC_2.2.5 (2)
81:   FUNC GLOBAL DEFAULT UND fscanf@GLIBC_2.2.5 (2)
82:   FUNC GLOBAL DEFAULT UND getpgid@GLIBC_2.2.5 (2)
83:   FUNC GLOBAL DEFAULT UND kill@GLIBC_2.2.5 (2)
84:   FUNC GLOBAL DEFAULT UND mkdir@GLIBC_2.2.5 (2)
85:   FUNC GLOBAL DEFAULT UND opendir@GLIBC_2.2.5 (2)
86:   FUNC GLOBAL DEFAULT UND readdir@GLIBC_2.2.5 (2)
87:   FUNC GLOBAL DEFAULT UND rmdir@GLIBC_2.2.5 (2)
88:   FUNC GLOBAL DEFAULT UND _ZN7android4base11GetThre
89:   FUNC GLOBAL DEFAULT UND _ZNSt3__15mutex4lockEv
90:   FUNC GLOBAL DEFAULT UND _ZNSt3__15mutex6unlockEv
91:   FUNC GLOBAL DEFAULT UND _ZNSt3__15mutexD1Ev
92:   FUNC GLOBAL DEFAULT UND close@GLIBC_2.2.5 (4)
93:   FUNC GLOBAL DEFAULT UND open@GLIBC_2.2.5 (4)
94:   FUNC GLOBAL DEFAULT UND strerror@GLIBC_2.2.5 (2)
95:   FUNC GLOBAL DEFAULT UND strtoul@GLIBC_2.2.5 (2)
96:   FUNC GLOBAL DEFAULT UND write@GLIBC_2.2.5 (4)
97:   FUNC GLOBAL DEFAULT UND _ZNSt3__112basic_stringIc
98:   FUNC GLOBAL DEFAULT UND _ZNSt3__112basic_stringIc
99:   FUNC GLOBAL DEFAULT UND _ZNSt3__112basic_stringIc
100:   FUNC GLOBAL DEFAULT UND _ZNSt3__112basic_stringIc
101:   FUNC GLOBAL DEFAULT UND _ZNSt3__112basic_stringIc
102:   FUNC GLOBAL DEFAULT UND _ZNSt3__113basic_istreamI
103:   FUNC GLOBAL DEFAULT UND exit@GLIBC_2.2.5 (2)
104:   FUNC GLOBAL DEFAULT UND fprintf@GLIBC_2.2.5 (2)
105:   FUNC GLOBAL DEFAULT UND snprintf@GLIBC_2.2.5 (2)
106:   FUNC GLOBAL DEFAULT UND sscanf@GLIBC_2.2.5 (2)
107:   OBJECT GLOBAL DEFAULT UND stderr@GLIBC_2.2.5 (2)
108:   FUNC GLOBAL DEFAULT UND _ZdaPv
109:   FUNC GLOBAL DEFAULT UND _Znam
110:   FUNC GLOBAL DEFAULT UND free@GLIBC_2.2.5 (2)
111:   FUNC GLOBAL DEFAULT UND malloc@GLIBC_2.2.5 (2)
112:   FUNC GLOBAL DEFAULT UND modf@GLIBC_2.2.5 (7)
113:   FUNC GLOBAL DEFAULT UND strcmp@GLIBC_2.2.5 (2)
114:   FUNC GLOBAL DEFAULT UND _ZNSt3__113basic_ostreamI
115:   FUNC GLOBAL DEFAULT UND _ZNSt3__113basic_ostreamI
116:   FUNC GLOBAL DEFAULT UND _ZNSt3__113basic_ostreamI
117:   FUNC GLOBAL DEFAULT UND _ZNSt3__115basic_streambu
118:   FUNC GLOBAL DEFAULT UND _ZNSt3__115basic_streambu
119:   FUNC GLOBAL DEFAULT UND _ZNSt3__115basic_streambu
120:   FUNC GLOBAL DEFAULT UND _ZNSt3__115basic_streambu
121:   FUNC GLOBAL DEFAULT UND _ZNSt3__115basic_streambu
122:   FUNC GLOBAL DEFAULT UND _ZNSt3__115basic_streambu
123:   FUNC GLOBAL DEFAULT UND _ZNSt3__115basic_streambu
124:   FUNC GLOBAL DEFAULT UND _ZNSt3__115basic_streambu
125:   FUNC GLOBAL DEFAULT UND _ZNSt3__115basic_streambu
126:   FUNC GLOBAL DEFAULT UND _ZNSt3__18ios_base4initEP
127:   FUNC GLOBAL DEFAULT UND _ZNSt3__19basic_iosIcNS_1
128:   OBJECT GLOBAL DEFAULT UND _ZTINSt3__113basic_ostrea
129:   OBJECT GLOBAL DEFAULT UND _ZTINSt3__115basic_stream
130:   FUNC GLOBAL DEFAULT UND _ZTv0_n24_NSt3__113basic_
131:   FUNC GLOBAL DEFAULT UND _ZTv0_n24_NSt3__113basic_
132:   FUNC GLOBAL DEFAULT UND __cxa_pure_virtual
133:   FUNC GLOBAL DEFAULT UND strpbrk@GLIBC_2.2.5 (2)
134:   FUNC WEAK DEFAULT 12 _ZNKSt3__112__match_charI
135:   FUNC WEAK DEFAULT 12 _ZNKSt3__112regex_traitsI
136:   FUNC GLOBAL DEFAULT 12 _ZN4Json6Reader9pushError
137:   FUNC GLOBAL DEFAULT 12 _ZNK4Json5Value6asBoolEv
138:   FUNC GLOBAL DEFAULT 12 _ZNK4Json5Value6isBoolEv
139:   FUNC WEAK DEFAULT 12 _ZNSt3__16vectorINS_12bas
140:   OBJECT WEAK DEFAULT 21 _ZTINSt3__113__empty_stat
141:   FUNC GLOBAL DEFAULT 12 _ZN4Json6Reader10readObje
142:   FUNC WEAK DEFAULT 12 _ZNKSt3__110__l_anchorIcE
143:   FUNC WEAK DEFAULT 12 _ZNKSt3__120__bracket_exp
144:   FUNC WEAK DEFAULT 12 _ZNSt3__111basic_regexIcN
145:   OBJECT WEAK DEFAULT 9 _ZTSNSt3__118__back_ref_c
146:   FUNC GLOBAL DEFAULT 12 _ZN4Json6Reader19readCppS
147:   FUNC GLOBAL DEFAULT 12 _ZN4Json5Value6resizeEj
148:   FUNC GLOBAL DEFAULT 12 _ZN4Json18StyledStreamWri
149:   OBJECT GLOBAL DEFAULT 9 _ZTSN4Json12StyledWriterE
150:   FUNC WEAK DEFAULT 12 _ZNSt3__16vectorINS_12bas
151:   FUNC GLOBAL DEFAULT 12 _ZN15SetCgroupAction18IsA
152:   FUNC GLOBAL DEFAULT 12 _ZN4Json5ValueD1Ev
153:   OBJECT GLOBAL DEFAULT 9 _ZTS18SetAttributeAction
154:   FUNC WEAK DEFAULT 12 _ZNSt3__114__split_buffer
155:   FUNC GLOBAL DEFAULT 12 _ZN9CgroupMap11GetInstanc
156:   FUNC WEAK DEFAULT 12 _ZNKSt3__112regex_traitsI
157:   OBJECT WEAK DEFAULT 9 _ZTSNSt3__112__match_char
158:   FUNC GLOBAL DEFAULT 12 _ZN4Json12StyledWriter9pu
159:   FUNC GLOBAL DEFAULT 12 _ZNK16CgroupController16G
160:   FUNC GLOBAL DEFAULT 12 DropTaskProfilesResourceC
161:   FUNC GLOBAL DEFAULT 12 _ZNK4Json5Value8CZStringe
162:   FUNC GLOBAL DEFAULT 12 _ZNK4Json5ValueneERKS0_
163:   FUNC GLOBAL DEFAULT 12 _ZN4Json6Reader10addComme
164:   FUNC GLOBAL DEFAULT 12 _ZN4Json18StyledStreamWri
165:   FUNC GLOBAL DEFAULT 12 _ZNK4Json5Value3getEjRKS0
166:   FUNC GLOBAL DEFAULT 12 _ZNK4Json5Value8CZStringl
167:   OBJECT GLOBAL DEFAULT 21 _ZTIN4Json10FastWriterE
168:   FUNC WEAK DEFAULT 12 _ZNSt3__110__back_refIcED
169:   OBJECT WEAK DEFAULT 21 _ZTVNSt3__111__match_anyI
170:   FUNC GLOBAL DEFAULT 12 _ZN4Json8FeaturesC2Ev
171:   FUNC GLOBAL DEFAULT 12 _ZN4Json12PathArgumentC1E
172:   FUNC GLOBAL DEFAULT 12 _ZNK4Json5ValueeqERKS0_
173:   FUNC GLOBAL DEFAULT 12 _ZN4Json5Value8CZStringC2
174:   FUNC WEAK DEFAULT 12 _ZNSt3__111basic_regexIcN
175:   FUNC GLOBAL DEFAULT 12 _ZN4Json12StyledWriter12n
176:   OBJECT WEAK DEFAULT 21 _ZTINSt3__111__match_anyI
177:   OBJECT WEAK DEFAULT 9 _ZTSNSt3__111__lookaheadI
178:   FUNC WEAK DEFAULT 12 _ZN4Json6ReaderD2Ev
179:   FUNC GLOBAL DEFAULT 12 _ZN4Json5ValueC2EPKc
180:   OBJECT GLOBAL DEFAULT 21 _ZTVN4Json6WriterE
181:   OBJECT WEAK DEFAULT 21 _ZTVNSt3__116__back_ref_i
182:   FUNC WEAK DEFAULT 12 _ZN15SetCgroupActionD2Ev
183:   FUNC GLOBAL DEFAULT 12 _ZN4Json6WriterD1Ev
184:   FUNC GLOBAL DEFAULT 12 _ZN4JsonlsERNSt3__113basi
185:   FUNC WEAK DEFAULT 12 _ZNSt3__120__match_char_c
186:   FUNC WEAK DEFAULT 12 _ZNSt3__126__end_marked_s
187:   FUNC GLOBAL DEFAULT 12 _ZN12TaskProfilesC2Ev
188:   FUNC GLOBAL DEFAULT 12 _ZN4Json6Reader5parseERKN
189:   FUNC GLOBAL DEFAULT 12 _ZNK18SetAttributeAction1
190:   FUNC GLOBAL DEFAULT 12 _ZN4Json6Reader12decodeNu
191:   FUNC GLOBAL DEFAULT 12 _ZN4Json6Reader18addError
192:   FUNC GLOBAL DEFAULT 12 _ZN4Json18ValueConstItera
193:   FUNC WEAK DEFAULT 12 _ZNSt3__111__lookaheadIcN
194:   OBJECT WEAK DEFAULT 21 _ZTVNSt3__123__match_any_
195:   FUNC GLOBAL DEFAULT 12 _ZN4Json5ValueaSES0_
196:   OBJECT GLOBAL DEFAULT 21 _ZTV15SetCgroupAction
197:   FUNC GLOBAL DEFAULT 12 _ZN4Json8Features3allEv
198:   FUNC GLOBAL DEFAULT 12 _ZNK4Json5Value10getComme
199:   FUNC GLOBAL DEFAULT 12 _ZNK4Json5Value8isUInt64E
200:   FUNC GLOBAL DEFAULT 12 _ZN4Json18StyledStreamWri
201:   OBJECT WEAK DEFAULT 9 _ZTSNSt3__118__match_char
202:   FUNC GLOBAL DEFAULT 12 _ZN4Json6Reader8addErrorE
203:   FUNC GLOBAL DEFAULT 12 _ZN4Json6Reader9readArray
204:   FUNC WEAK DEFAULT 12 _ZNKSt3__115__word_bounda
205:   OBJECT WEAK DEFAULT 21 _ZTINSt3__123__match_any_
206:   FUNC GLOBAL DEFAULT 12 _ZN4Json5ValueC1ENS_9Valu
207:   FUNC GLOBAL DEFAULT 12 _ZN4Json13ValueIteratorC2
208:   FUNC GLOBAL DEFAULT 12 _ZNK4Json5Value7isInt64Ev
209:   FUNC WEAK DEFAULT 12 _ZNSt3__111basic_regexIcN
210:   OBJECT WEAK DEFAULT 21 _ZTINSt3__112__match_char
211:   OBJECT GLOBAL DEFAULT 21 _ZTI15SetClampsAction
212:   OBJECT WEAK DEFAULT 21 _ZTINSt3__110__back_refIc
213:   FUNC WEAK DEFAULT 12 _ZN18SetAttributeActionD2
214:   FUNC GLOBAL DEFAULT 12 _ZN4Json13ValueIteratorC1
215:   FUNC GLOBAL DEFAULT 12 _ZNK4Json5Value13asLarges
216:   FUNC WEAK DEFAULT 12 _ZNKSt3__111__alternateIc
217:   FUNC GLOBAL DEFAULT 12 _ZN4Json5Value11CommentIn
218:   FUNC WEAK DEFAULT 12 _ZNKSt3__126__end_marked_
219:   FUNC WEAK DEFAULT 12 _ZNSt3__117__repeat_one_l
220:   OBJECT WEAK DEFAULT 9 _ZTSNSt3__120__shared_ptr
221:   OBJECT WEAK DEFAULT 21 _ZTVNSt3__118__back_ref_c
222:   OBJECT WEAK DEFAULT 21 _ZTVNSt3__128__begin_mark
223:   FUNC WEAK DEFAULT 12 _ZNSt3__16__treeINS_12__v
224:   FUNC GLOBAL DEFAULT 12 _ZNK4Json5Value14toStyled
225:   FUNC GLOBAL DEFAULT 12 _ZN4Json17ValueIteratorBa
226:   FUNC WEAK DEFAULT 12 _ZN4Json10FastWriterD2Ev
227:   FUNC GLOBAL DEFAULT 12 _ZN4Json18StyledStreamWri
228:   OBJECT WEAK DEFAULT 21 _ZTINSt3__116__back_ref_i
229:   FUNC GLOBAL DEFAULT 12 _ZN4Json5ValueixEPKc
230:   FUNC GLOBAL DEFAULT 12 _ZN4Json5Value11CommentIn
231:   FUNC GLOBAL DEFAULT 12 _ZNK4Json5Value8asDoubleE
232:   FUNC GLOBAL DEFAULT 12 _ZNK4Json5Value9asCString
233:   FUNC GLOBAL DEFAULT 12 get_sched_policy_name
234:   FUNC WEAK DEFAULT 12 _ZNSt3__15dequeIPN4Json5V
235:   FUNC GLOBAL DEFAULT 12 _ZNK4Json5Value9isNumeric
236:   OBJECT WEAK DEFAULT 9 _ZTSNSt3__126__end_marked
237:   FUNC WEAK DEFAULT 12 _ZNSt3__120__shared_ptr_p
238:   OBJECT WEAK DEFAULT 21 _ZTINSt3__120__shared_ptr
239:   FUNC GLOBAL DEFAULT 12 _ZN15SetCgroupActionC1ERK
240:   FUNC GLOBAL DEFAULT 12 _ZN4Json5ValueC1ERKS0_
241:   OBJECT WEAK DEFAULT 21 _ZTVNSt3__115basic_string
242:   FUNC WEAK DEFAULT 12 _ZNSt3__111basic_regexIcN
243:   FUNC GLOBAL DEFAULT 12 _ZN4Json6Reader11getNextC
244:   FUNC GLOBAL DEFAULT 12 _ZN4Json6Reader9pushError
245:   FUNC GLOBAL DEFAULT 12 _ZN4Json13ValueIteratorC1
246:   FUNC GLOBAL DEFAULT 12 _ZN4Json13ValueIteratoraS
247:   FUNC GLOBAL DEFAULT 12 _ZN4Json5ValueD2Ev
248:   FUNC GLOBAL DEFAULT 12 _ZNK16CgroupController4pa
249:   FUNC WEAK DEFAULT 12 _ZNKSt3__117__repeat_one_
250:   OBJECT WEAK DEFAULT 21 _ZTI19SetTimerSlackAction
251:   FUNC GLOBAL DEFAULT 12 _ZN4Json13ValueIteratorC2
252:   OBJECT GLOBAL DEFAULT 9 _ZN4Json5Value7maxUIntE
253:   FUNC GLOBAL DEFAULT 12 _ZN4Json5ValueixERKNS_12S
254:   FUNC GLOBAL DEFAULT 12 _ZNK4Json5Value5asIntEv
255:   FUNC GLOBAL DEFAULT 12 _ZNK4Json5Value5emptyEv
256:   FUNC WEAK DEFAULT 12 _ZNSt3__16__treeINS_12__v
257:   FUNC WEAK DEFAULT 12 _ZNSt3__115basic_stringbu
258:   FUNC WEAK DEFAULT 12 _ZNSt3__119basic_ostrings
259:   FUNC WEAK DEFAULT 12 _ZNSt3__118__back_ref_col
260:   FUNC GLOBAL DEFAULT 12 _ZN4Json17ValueIteratorBa
261:   FUNC GLOBAL DEFAULT 12 _ZNK16ProfileAttribute14G
262:   FUNC GLOBAL DEFAULT 12 _ZN4Json4PathC2ERKNSt3__1
263:   FUNC GLOBAL DEFAULT 12 _ZNK4Json5Value3getERKNSt
264:   FUNC GLOBAL DEFAULT 12 _ZNK4Json5Value7compareER
265:   FUNC WEAK DEFAULT 12 _ZNSt3__16vectorIN4Json12
266:   FUNC GLOBAL DEFAULT 12 _ZN4Json12StyledWriter10w
267:   FUNC WEAK DEFAULT 12 _ZNSt3__121__empty_non_ow
268:   OBJECT WEAK DEFAULT 21 _ZTVNSt3__110__l_anchorIc
269:   OBJECT WEAK DEFAULT 9 _ZTSNSt3__115__has_one_st
270:   FUNC GLOBAL DEFAULT 12 _ZN4Json6Reader17skipComm
271:   FUNC GLOBAL DEFAULT 12 _ZN4Json18StyledStreamWri
272:   OBJECT WEAK DEFAULT 21 _ZTVNSt3__118__match_char
273:   FUNC WEAK DEFAULT 12 _ZNSt3__113__tree_removeI
274:   FUNC WEAK DEFAULT 12 _ZNKSt3__16__treeINS_12__
275:   FUNC GLOBAL DEFAULT 12 _ZN4Json12StyledWriter18h
276:   OBJECT WEAK DEFAULT 21 _ZTINSt3__116__owns_one_s
277:   FUNC GLOBAL DEFAULT 12 _ZN4Json5Value14setOffset
278:   FUNC WEAK DEFAULT 12 _ZNKSt3__118__back_ref_co
279:   OBJECT WEAK DEFAULT 9 _ZTSNSt3__110__back_refIc
280:   FUNC GLOBAL DEFAULT 12 _ZN4Json6ReaderC2ERKNS_8F
281:   FUNC WEAK DEFAULT 12 _ZNSt3__15dequeIN4Json6Re
282:   FUNC GLOBAL DEFAULT 12 _ZN4Json12StyledWriterC1E
283:   OBJECT GLOBAL DEFAULT 9 _ZN4Json5Value6minIntE
284:   FUNC GLOBAL DEFAULT 12 _ZN4Json6WriterD2Ev
285:   FUNC GLOBAL DEFAULT 12 _ZNK4Json5Value8isMemberE
286:   FUNC GLOBAL DEFAULT 12 _ZN4Json12StyledWriter15w
287:   FUNC WEAK DEFAULT 12 _ZNSt3__111basic_regexIcN
288:   FUNC GLOBAL DEFAULT 12 _ZN4Json13ValueIteratorC1
289:   FUNC WEAK DEFAULT 12 _ZNSt3__117__owns_two_sta
290:   FUNC GLOBAL DEFAULT 12 _ZNK15SetClampsAction17Ex
291:   FUNC GLOBAL DEFAULT 12 _ZN4Json5Value8CZStringD1
292:   FUNC WEAK DEFAULT 12 _ZNSt3__111basic_regexIcN
293:   FUNC GLOBAL DEFAULT 12 _ZN4Json5Value8CZStringC1
294:   OBJECT WEAK DEFAULT 21 _ZTINSt3__111__lookaheadI
295:   FUNC GLOBAL DEFAULT 12 _ZN4JsonrsERNSt3__113basi
296:   OBJECT GLOBAL DEFAULT 9 _ZN4Json5Value8minInt64E
297:   FUNC GLOBAL DEFAULT 12 _ZN15SetCgroupAction19Dro
298:   OBJECT WEAK DEFAULT 21 _ZTV19SetTimerSlackAction
299:   FUNC GLOBAL DEFAULT 12 _ZNK4Json5ValueltERKS0_
300:   FUNC WEAK DEFAULT 12 _ZNSt3__118__match_char_i
301:   FUNC GLOBAL DEFAULT 12 _ZNK4Json5ValueleERKS0_
302:   OBJECT WEAK DEFAULT 21 _ZTINSt3__121__empty_non_
303:   FUNC GLOBAL DEFAULT 12 _ZN4Json13ValueIteratorC2
304:   OBJECT GLOBAL DEFAULT 21 _ZTVN4Json10FastWriterE
305:   FUNC WEAK DEFAULT 12 _ZNKSt3__128__begin_marke
306:   FUNC WEAK DEFAULT 12 _ZNSt3__16vectorIN4Json12
307:   FUNC GLOBAL DEFAULT 12 _ZN4Json6Reader12decodeDo
308:   FUNC GLOBAL DEFAULT 12 _ZN4Json18ValueConstItera
309:   OBJECT GLOBAL DEFAULT 9 _ZN4Json5Value13maxLarges
310:   FUNC GLOBAL DEFAULT 12 _ZNK4Json6Reader24getLoca
311:   OBJECT WEAK DEFAULT 21 _ZTINSt3__119basic_ostrin
312:   OBJECT WEAK DEFAULT 9 _ZTSNSt3__115basic_string
313:   FUNC GLOBAL DEFAULT 12 _ZNK16CgroupController4na
314:   FUNC GLOBAL DEFAULT 12 setProcessGroupSwappiness
315:   FUNC GLOBAL DEFAULT 12 _ZN4Json12PathArgumentC2E
316:   FUNC GLOBAL DEFAULT 12 _ZNK4Json5Value7asInt64Ev
317:   FUNC GLOBAL DEFAULT 12 _ZNK4Json5ValueixEPKc
318:   FUNC GLOBAL DEFAULT 12 _ZN4Json6Reader22decodeUn
319:   FUNC GLOBAL DEFAULT 12 _ZN4Json5ValueC2ENS_9Valu
320:   FUNC GLOBAL DEFAULT 12 _ZNK4Json4Path7resolveERK
321:   FUNC WEAK DEFAULT 12 _ZNKSt3__120__match_char_
322:   FUNC WEAK DEFAULT 12 _ZNSt3__111basic_regexIcN
323:   FUNC WEAK DEFAULT 12 _ZNSt3__111basic_regexIcN
324:   OBJECT WEAK DEFAULT 21 _ZTVNSt3__111__end_stateI
325:   FUNC GLOBAL DEFAULT 12 _ZN4Json6Reader10readNumb
326:   FUNC GLOBAL DEFAULT 12 _ZN4Json5Value10setCommen
327:   FUNC GLOBAL DEFAULT 12 _ZN4Json5Value14setOffset
328:   FUNC GLOBAL DEFAULT 12 _ZN4Json5Value4swapERS0_
329:   FUNC GLOBAL DEFAULT 12 _ZNK4Json5Value3endEv
330:   FUNC GLOBAL DEFAULT 12 _ZNK4Json5Value3getEPKcRK
331:   FUNC WEAK DEFAULT 12 _ZNKSt3__113__empty_state
332:   FUNC WEAK DEFAULT 12 _ZNSt3__17__stateIcEC2ERK
333:   FUNC WEAK DEFAULT 12 _ZNSt3__16vectorINS_9sub_
334:   OBJECT WEAK DEFAULT 21 _ZTINSt3__111__end_stateI
335:   OBJECT WEAK DEFAULT 9 _ZTSNSt3__115__word_bound
336:   FUNC WEAK DEFAULT 12 _ZNSt3__119basic_ostrings
337:   FUNC GLOBAL DEFAULT 12 _ZN4Json12PathArgumentC1E
338:   FUNC GLOBAL DEFAULT 12 _ZN4Json5Value12removeMem
339:   FUNC GLOBAL DEFAULT 12 _ZN4Json6Reader5matchEPKc
340:   FUNC GLOBAL DEFAULT 12 _ZN4Json17ValueIteratorBa
341:   FUNC GLOBAL DEFAULT 12 _ZN4Json4Path8makePathERK
342:   FUNC GLOBAL DEFAULT 12 _ZN4Json5Value3endEv
343:   OBJECT WEAK DEFAULT 21 _ZTVNSt3__115__word_bound
344:   OBJECT GLOBAL DEFAULT 21 _ZTI18SetAttributeAction
345:   FUNC WEAK DEFAULT 12 _ZNSt3__114__split_buffer
346:   OBJECT GLOBAL DEFAULT 9 _ZTSN4Json10FastWriterE
347:   FUNC WEAK DEFAULT 12 _ZTv0_n24_NSt3__119basic_
348:   OBJECT WEAK DEFAULT 9 _ZTSNSt3__128__begin_mark
349:   FUNC GLOBAL DEFAULT 12 _ZN4Json5Value5clearEv
350:   FUNC WEAK DEFAULT 12 _ZNKSt3__118__match_char_
351:   FUNC GLOBAL DEFAULT 12 _ZNK4Json5Value7isArrayEv
352:   FUNC WEAK DEFAULT 12 _ZNSt3__114__split_buffer
353:   FUNC GLOBAL DEFAULT 12 _ZN4Json13valueToStringEb
354:   FUNC GLOBAL DEFAULT 12 _ZNK4Json5Value14getOffse
355:   FUNC GLOBAL DEFAULT 12 _ZN4Json5Value11CommentIn
356:   FUNC GLOBAL DEFAULT 12 _ZNK4Json5Value8isStringE
357:   FUNC WEAK DEFAULT 12 _ZNKSt3__111basic_regexIc
358:   FUNC GLOBAL DEFAULT 12 _ZN4Json13valueToStringEd
359:   FUNC GLOBAL DEFAULT 12 _ZNK4Json5ValuegtERKS0_
360:   OBJECT WEAK DEFAULT 21 _ZTVNSt3__119basic_ostrin
361:   FUNC WEAK DEFAULT 12 _ZNKSt3__111__lookaheadIc
362:   FUNC WEAK DEFAULT 12 _ZNKSt3__113match_results
363:   OBJECT WEAK DEFAULT 21 _ZTVNSt3__111__lookaheadI
364:   FUNC GLOBAL DEFAULT 12 _ZN4Json5Value9initBasicE
365:   FUNC GLOBAL DEFAULT 12 _ZN4Json12StyledWriterC2E
366:   OBJECT GLOBAL DEFAULT 21 _ZTIN4Json6WriterE
367:   FUNC WEAK DEFAULT 12 _ZNKSt3__111basic_regexIc
368:   FUNC WEAK DEFAULT 12 _ZN13ProfileActionD2Ev
369:   FUNC GLOBAL DEFAULT 12 _ZNK4Json6Reader25getForm
370:   FUNC WEAK DEFAULT 12 _ZNSt3__111__lookaheadIcN
371:   FUNC WEAK DEFAULT 12 _ZNSt3__111__match_anyIcE
372:   OBJECT WEAK DEFAULT 21 _ZTINSt3__128__begin_mark
373:   FUNC GLOBAL DEFAULT 12 _ZNK4Json6Reader24getLoca
374:   FUNC GLOBAL DEFAULT 12 _ZN4Json5Value8CZStringD2
375:   FUNC WEAK DEFAULT 12 _ZNSt3__124__put_characte
376:   OBJECT WEAK DEFAULT 21 _ZTVNSt3__16__loopIcEE
377:   OBJECT GLOBAL DEFAULT 21 _ZTI15SetCgroupAction
378:   FUNC GLOBAL DEFAULT 12 _ZN4Json5ValueixEi
379:   FUNC GLOBAL DEFAULT 12 _ZN4Json6Reader9readToken
380:   FUNC GLOBAL DEFAULT 12 _ZNK4Json5Value8isMemberE
381:   FUNC WEAK DEFAULT 12 _ZNSt3__125__lexicographi
382:   FUNC GLOBAL DEFAULT 12 _ZN4Json13valueToStringEi
383:   OBJECT WEAK DEFAULT 9 _ZTSNSt3__119basic_ostrin
384:   FUNC GLOBAL DEFAULT 12 _ZN11TaskProfile21EnableR
385:   FUNC GLOBAL DEFAULT 12 _ZN4Json12PathArgumentC1E
386:   FUNC GLOBAL DEFAULT 12 _ZN4Json5ValueixEj
387:   FUNC GLOBAL DEFAULT 12 _ZN4Json13valueToStringEj
388:   FUNC WEAK DEFAULT 12 _ZNSt3__16vectorINS_4pair
389:   OBJECT WEAK DEFAULT 21 _ZTINSt3__110__l_anchorIc
390:   FUNC GLOBAL DEFAULT 12 _ZNK4Json6Reader19getStru
391:   FUNC GLOBAL DEFAULT 12 _ZNK16CgroupController8Ha
392:   OBJECT WEAK DEFAULT 21 _ZTVNSt3__126__end_marked
393:   FUNC WEAK DEFAULT 12 _ZN13ProfileAction19DropR
394:   FUNC GLOBAL DEFAULT 12 _ZNK4Json17ValueIteratorB
395:   FUNC GLOBAL DEFAULT 12 _ZNK4Json4Path4makeERNS_5
396:   FUNC GLOBAL DEFAULT 12 _ZNK16CgroupController12G
397:   FUNC GLOBAL DEFAULT 12 _ZN4Json5ValueC1Eb
398:   FUNC GLOBAL DEFAULT 12 _ZN4Json5Value16resolveRe
399:   FUNC WEAK DEFAULT 12 _ZNSt3__16__treeINS_12__v
400:   FUNC GLOBAL DEFAULT 12 _ZN4Json18StyledStreamWri
401:   FUNC WEAK DEFAULT 12 _ZNSt3__110__r_anchorIcED
402:   FUNC GLOBAL DEFAULT 12 CgroupGetAttributePathFor
403:   FUNC GLOBAL DEFAULT 12 _ZNK15SetCgroupAction17Ex
404:   FUNC GLOBAL DEFAULT 12 _ZN4Json19valueToQuotedSt
405:   FUNC WEAK DEFAULT 12 _ZNKSt3__111__match_anyIc
406:   OBJECT WEAK DEFAULT 21 _ZTINSt3__115__has_one_st
407:   FUNC GLOBAL DEFAULT 12 _ZNK12TaskProfiles10GetPr
408:   FUNC GLOBAL DEFAULT 12 _ZN4Json6Reader12currentV
409:   FUNC GLOBAL DEFAULT 12 _ZN4Json6Reader17readCSty
410:   FUNC GLOBAL DEFAULT 12 _ZN4Json5ValueC1Ed
411:   FUNC GLOBAL DEFAULT 12 _ZN4Json18ValueConstItera
412:   OBJECT GLOBAL DEFAULT 21 _ZTIN4Json12StyledWriterE
413:   FUNC WEAK DEFAULT 12 _ZNKSt3__121__empty_non_o
414:   FUNC WEAK DEFAULT 12 _ZNSt3__110__l_anchorIcED
415:   FUNC WEAK DEFAULT 12 _ZNSt3__116__owns_one_sta
416:   OBJECT WEAK DEFAULT 9 _ZTSNSt3__111__alternateI
417:   FUNC GLOBAL DEFAULT 12 _ZN12TaskProfiles4LoadERK
418:   FUNC GLOBAL DEFAULT 12 _ZN4Json6ReaderC1Ev
419:   FUNC WEAK DEFAULT 12 _ZNSt3__16__treeINS_12__v
420:   FUNC GLOBAL DEFAULT 12 _ZN4Json6Reader10readStri
421:   FUNC GLOBAL DEFAULT 12 removeAllProcessGroups
422:   FUNC WEAK DEFAULT 12 _ZN15SetClampsActionD0Ev
423:   FUNC GLOBAL DEFAULT 12 _ZN4Json8Features10strict
424:   FUNC WEAK DEFAULT 12 _ZNSt3__111basic_regexIcN
425:   FUNC GLOBAL DEFAULT 12 _ZNK4Json5Value14getOffse
426:   OBJECT WEAK DEFAULT 21 _ZTTNSt3__119basic_ostrin
427:   FUNC WEAK DEFAULT 12 _ZNSt3__111basic_regexIcN
428:   FUNC WEAK DEFAULT 12 _ZNSt3__127__tree_balance
429:   FUNC GLOBAL DEFAULT 12 set_sched_policy
430:   FUNC WEAK DEFAULT 12 _ZN19SetTimerSlackActionD
431:   FUNC GLOBAL DEFAULT 12 _ZN4Json5ValueC1Ei
432:   FUNC WEAK DEFAULT 12 _ZN4Json12StyledWriterD0E
433:   FUNC WEAK DEFAULT 12 _ZNSt3__111basic_regexIcN
434:   OBJECT WEAK DEFAULT 9 _ZTSNSt3__116__owns_one_s
435:   FUNC GLOBAL DEFAULT 12 _ZN4Json5Value10setCommen
436:   FUNC GLOBAL DEFAULT 12 _ZN4Json5ValueC1EPKcS2_
437:   FUNC GLOBAL DEFAULT 12 _ZN4Json5ValueC1Ej
438:   FUNC GLOBAL DEFAULT 12 _ZN4Json12StyledWriter8un
439:   OBJECT WEAK DEFAULT 21 _ZTVNSt3__110__r_anchorIc
440:   OBJECT WEAK DEFAULT 9 _ZTS19SetTimerSlackAction
441:   OBJECT GLOBAL DEFAULT 21 _ZN4Json5Value4nullE
442:   FUNC WEAK DEFAULT 12 _ZNSt3__120__shared_ptr_p
443:   OBJECT WEAK DEFAULT 21 _ZTINSt3__118__back_ref_c
444:   FUNC GLOBAL DEFAULT 12 _ZN4Json12PathArgumentC2E
445:   FUNC GLOBAL DEFAULT 14 _fini
446:   FUNC WEAK DEFAULT 12 _ZNSt3__120__bracket_expr
447:   FUNC WEAK DEFAULT 12 _ZNSt3__15dequeINS_7__sta
448:   FUNC GLOBAL DEFAULT 12 _ZN4Json4Path11invalidPat
449:   FUNC GLOBAL DEFAULT 12 _ZN4Json13valueToStringEx
450:   FUNC WEAK DEFAULT 12 _ZNKSt3__112regex_traitsI
451:   FUNC WEAK DEFAULT 12 _ZNSt3__111basic_regexIcN
452:   FUNC GLOBAL DEFAULT 12 _ZN4Json13valueToStringEy
453:   FUNC WEAK DEFAULT 12 _ZTv0_n24_NSt3__119basic_
454:   FUNC WEAK DEFAULT 12 _ZNSt3__112__deque_baseIN
455:   FUNC GLOBAL DEFAULT 12 _ZNK4Json5Value5beginEv
456:   FUNC GLOBAL DEFAULT 12 _ZNK4Json5ValuentEv
457:   FUNC WEAK DEFAULT 12 _ZNSt3__16__treeINS_12__v
458:   FUNC GLOBAL DEFAULT 12 _ZN4Json10FastWriter18omi
459:   FUNC GLOBAL DEFAULT 12 _ZNK4Json17ValueIteratorB
460:   FUNC GLOBAL DEFAULT 12 _ZN4Json10FastWriterC1Ev
461:   FUNC WEAK DEFAULT 12 _ZNKSt3__111basic_regexIc
462:   FUNC WEAK DEFAULT 12 _ZNSt3__16vectorINS_4pair
463:   OBJECT WEAK DEFAULT 21 _ZTI13ProfileAction
464:   FUNC GLOBAL DEFAULT 12 _ZNK4Json6Reader4goodEv
465:   FUNC GLOBAL DEFAULT 12 _ZN4Json18ValueConstItera
466:   FUNC GLOBAL DEFAULT 12 _ZN4Json5Value11CommentIn
467:   FUNC GLOBAL DEFAULT 12 _ZNK4Json17ValueIteratorB
468:   FUNC WEAK DEFAULT 12 _ZNSt3__115basic_stringbu
469:   OBJECT WEAK DEFAULT 9 _ZTSNSt3__110__l_anchorIc
470:   FUNC WEAK DEFAULT 12 _ZNSt3__15dequeIN4Json6Re
471:   FUNC GLOBAL DEFAULT 12 _ZNK4Json17ValueIteratorB
472:   FUNC WEAK DEFAULT 12 _ZNKSt3__115basic_stringb
473:   FUNC WEAK DEFAULT 12 _ZNSt3__111basic_regexIcN
474:   OBJECT WEAK DEFAULT 21 _ZTVNSt3__112__match_char
475:   FUNC GLOBAL DEFAULT 12 _ZN4Json5ValueC1ERKNSt3__
476:   FUNC GLOBAL DEFAULT 12 _ZN4Json4PathC1ERKNSt3__1
477:   FUNC GLOBAL DEFAULT 12 _ZNK4Json5Value8asUInt64E
478:   FUNC WEAK DEFAULT 12 _ZNSt3__16vectorINS_9sub_
479:   OBJECT GLOBAL DEFAULT 9 _ZTSN4Json6WriterE
480:   FUNC GLOBAL DEFAULT 12 _ZN9CgroupMapC1Ev
481:   FUNC WEAK DEFAULT 12 _ZNSt3__115__word_boundar
482:   FUNC GLOBAL DEFAULT 12 killProcessGroupOnce
483:   FUNC WEAK DEFAULT 12 _ZNKSt3__16__loopIcE6__ex
484:   FUNC WEAK DEFAULT 12 _ZNSt3__114__split_buffer
485:   FUNC WEAK DEFAULT 12 _ZNK13ProfileAction17Exec
486:   FUNC WEAK DEFAULT 12 _ZNSt3__17getlineIcNS_11c
487:   FUNC GLOBAL DEFAULT 12 _ZN4Json17ValueIteratorBa
488:   FUNC GLOBAL DEFAULT 12 _ZN4Json12StyledWriter23w
489:   FUNC WEAK DEFAULT 12 _ZNSt3__111basic_regexIcN
490:   FUNC GLOBAL DEFAULT 12 _ZN4Json6Reader16recoverF
491:   FUNC WEAK DEFAULT 12 _ZNKSt3__16__loopIcE12__e
492:   FUNC GLOBAL DEFAULT 12 _ZN4Json5ValueC1Ex
493:   FUNC GLOBAL DEFAULT 12 _ZN4Json12PathArgumentC2E
494:   FUNC GLOBAL DEFAULT 12 _ZNK9CgroupMap14FindContr
495:   FUNC WEAK DEFAULT 12 _ZNSt3__118__match_char_i
496:   OBJECT WEAK DEFAULT 9 _ZTSNSt3__111__match_anyI
497:   OBJECT WEAK DEFAULT 21 _ZTVNSt3__117__owns_two_s
498:   FUNC GLOBAL DEFAULT 12 _ZN4Json5ValueC1Ey
499:   FUNC GLOBAL DEFAULT 12 _ZNK4Json4Path7resolveERK
500:   FUNC GLOBAL DEFAULT 12 _ZN4Json12StyledWriter14i
501:   FUNC WEAK DEFAULT 12 _ZNKSt3__111basic_regexIc
502:   OBJECT WEAK DEFAULT 21 _ZTINSt3__118__match_char
503:   FUNC GLOBAL DEFAULT 12 _ZNK15SetClampsAction14Ex
504:   FUNC GLOBAL DEFAULT 12 _ZN4Json17ValueIteratorBa
505:   FUNC GLOBAL DEFAULT 12 _ZNK4Json5ValuegeERKS0_
506:   FUNC WEAK DEFAULT 12 _ZNSt3__115basic_stringbu
507:   FUNC GLOBAL DEFAULT 13 _init
508:   FUNC WEAK DEFAULT 12 _ZNSt3__112__match_charIc
509:   FUNC GLOBAL DEFAULT 12 SetTaskProfiles
510:   FUNC GLOBAL DEFAULT 12 _ZNK12TaskProfiles19DropR
511:   FUNC GLOBAL DEFAULT 12 _ZN4Json6Reader9readValue
512:   FUNC WEAK DEFAULT 12 _ZNSt3__15dequeIN4Json6Re
513:   FUNC GLOBAL DEFAULT 12 _ZN4Json5ValueC2Eb
514:   FUNC GLOBAL DEFAULT 12 _ZN4Json5Value8CZString4s
515:   FUNC GLOBAL DEFAULT 12 _ZN4Json5ValueC1ERKNS_12S
516:   FUNC WEAK DEFAULT 12 _ZNKSt3__120__shared_ptr_
517:   OBJECT WEAK DEFAULT 21 _ZTVNSt3__116__owns_one_s
518:   FUNC WEAK DEFAULT 12 _ZNSt3__114__split_buffer
519:   FUNC GLOBAL DEFAULT 12 _ZN4Json5ValueC2Ed
520:   OBJECT GLOBAL DEFAULT 21 _ZN4Json8kNullRefE
521:   FUNC WEAK DEFAULT 12 _ZNSt3__111basic_regexIcN
522:   FUNC GLOBAL DEFAULT 12 _ZN4Json6ReaderC2Ev
523:   FUNC GLOBAL DEFAULT 12 _ZNK4Json6Reader24getForm
524:   FUNC GLOBAL DEFAULT 12 _ZNK4Json5Value15isConver
525:   OBJECT WEAK DEFAULT 9 _ZTSNSt3__123__match_any_
526:   FUNC GLOBAL DEFAULT 12 _ZN4Json18StyledStreamWri
527:   OBJECT WEAK DEFAULT 21 _ZTCNSt3__119basic_ostrin
528:   FUNC WEAK DEFAULT 12 _ZNSt3__116__back_ref_ica
529:   FUNC GLOBAL DEFAULT 12 createProcessGroup
530:   FUNC GLOBAL DEFAULT 12 _ZNK4Json5Value8asStringE
531:   FUNC GLOBAL DEFAULT 12 _ZN4Json6Reader27decodeUn
532:   FUNC GLOBAL DEFAULT 12 CgroupGetAttributePath
533:   FUNC GLOBAL DEFAULT 12 CgroupGetControllerPath
534:   OBJECT GLOBAL DEFAULT 9 _ZN4Json5Value14maxLarges
535:   FUNC GLOBAL DEFAULT 12 _ZNK4Json5Value8CZString5
536:   FUNC WEAK DEFAULT 12 _ZNKSt3__112regex_traitsI
537:   FUNC GLOBAL DEFAULT 12 _ZNK15SetCgroupAction14Ex
538:   FUNC GLOBAL DEFAULT 12 _ZN4Json5ValueC2Ei
539:   FUNC GLOBAL DEFAULT 12 _ZNK4Json5Value6isNullEv
540:   FUNC WEAK DEFAULT 12 _ZNSt3__115basic_stringbu
541:   FUNC WEAK DEFAULT 12 _ZNSt3__111basic_regexIcN
542:   FUNC WEAK DEFAULT 12 _ZNSt3__16__treeINS_12__v
543:   FUNC GLOBAL DEFAULT 12 _ZN4Json12StyledWriter5wr
544:   FUNC GLOBAL DEFAULT 12 _ZN4Json5ValueC2Ej
545:   FUNC WEAK DEFAULT 12 _ZNSt3__16vectorIPKN4Json
546:   FUNC WEAK DEFAULT 12 _ZNKSt3__110__back_refIcE
547:   FUNC WEAK DEFAULT 12 _ZNSt3__114__split_buffer
548:   FUNC WEAK DEFAULT 12 _ZNSt3__16vectorINS_7__st
549:   FUNC WEAK DEFAULT 12 _ZN13ProfileAction21Enabl
550:   FUNC GLOBAL DEFAULT 12 _ZNK4Json5Value4sizeEv
551:   FUNC GLOBAL DEFAULT 12 _ZN4Json5Value8CZStringC1
552:   FUNC GLOBAL DEFAULT 12 _ZNK4Json5Value8isDoubleE
553:   FUNC GLOBAL DEFAULT 12 _ZN16CgroupController8IsU
554:   FUNC WEAK DEFAULT 12 _ZNSt3__114regex_iterator
555:   FUNC WEAK DEFAULT 12 _ZNSt3__15dequeINS_7__sta
556:   FUNC GLOBAL DEFAULT 12 get_sched_policy
557:   FUNC GLOBAL DEFAULT 12 _ZN4Json5Value8CZStringC2
558:   OBJECT GLOBAL DEFAULT 9 _ZN4Json5Value9maxUInt64E
559:   FUNC GLOBAL DEFAULT 12 _ZN4Json5ValueC2ERKNS_12S
560:   FUNC WEAK DEFAULT 12 _ZNSt3__113match_resultsI
561:   FUNC GLOBAL DEFAULT 12 _ZNK4Json5Value7asFloatEv
562:   FUNC WEAK DEFAULT 12 _ZNKSt3__111__end_stateIc
563:   FUNC WEAK DEFAULT 12 _ZNSt3__111__end_stateIcE
564:   FUNC WEAK DEFAULT 12 _ZNSt3__16vectorINS_4pair
565:   OBJECT WEAK DEFAULT 9 _ZTSNSt3__16__nodeIcEE
566:   FUNC GLOBAL DEFAULT 12 _ZNK4Json17ValueIteratorB
567:   FUNC WEAK DEFAULT 12 _ZNSt3__111basic_regexIcN
568:   FUNC GLOBAL DEFAULT 12 _ZN15SetCgroupActionC2ERK
569:   FUNC GLOBAL DEFAULT 12 _ZN4Json12StyledWriter32w
570:   FUNC WEAK DEFAULT 12 _ZNSt3__113__empty_stateI
571:   FUNC WEAK DEFAULT 12 _ZNSt3__128__begin_marked
572:   OBJECT WEAK DEFAULT 21 _ZTVNSt3__113__empty_stat
573:   FUNC WEAK DEFAULT 12 _ZNKSt3__16__treeINS_12__
574:   FUNC GLOBAL DEFAULT 12 _ZN4Json10FastWriterC2Ev
575:   FUNC GLOBAL DEFAULT 12 _ZN4Json18StyledStreamWri
576:   FUNC WEAK DEFAULT 12 _ZNSt3__111basic_regexIcN
577:   FUNC WEAK DEFAULT 12 _ZNSt3__120__shared_ptr_p
578:   OBJECT WEAK DEFAULT 9 _ZTSNSt3__120__bracket_ex
579:   FUNC WEAK DEFAULT 12 _ZNKSt3__110__r_anchorIcE
580:   FUNC GLOBAL DEFAULT 12 _ZN4Json5Value5beginEv
581:   FUNC GLOBAL DEFAULT 12 _ZN4Json10FastWriter20dro
582:   FUNC GLOBAL DEFAULT 12 _ZNK16CgroupController16G
583:   OBJECT WEAK DEFAULT 21 _ZTVNSt3__121__empty_non_
584:   FUNC GLOBAL DEFAULT 12 _ZN4Json10FastWriter23ena
585:   FUNC GLOBAL DEFAULT 12 _ZN4Json12StyledWriter6in
586:   FUNC GLOBAL DEFAULT 12 _ZN9CgroupMapC2Ev
587:   FUNC WEAK DEFAULT 12 _ZNSt3__111basic_regexIcN
588:   OBJECT WEAK DEFAULT 21 _ZTINSt3__110__r_anchorIc
589:   FUNC WEAK DEFAULT 12 _ZN15SetCgroupActionD0Ev
590:   FUNC GLOBAL DEFAULT 12 _ZN4Json6Reader12decodeSt
591:   FUNC GLOBAL DEFAULT 12 _ZN4Json5Value8CZStringC1
592:   FUNC WEAK DEFAULT 12 _ZNSt3__120__match_char_c
593:   FUNC GLOBAL DEFAULT 12 SetProcessProfiles
594:   FUNC GLOBAL DEFAULT 12 _ZN4Json12PathArgumentC1E
595:   FUNC GLOBAL DEFAULT 12 _ZN4Json17ValueIteratorBa
596:   FUNC GLOBAL DEFAULT 12 _ZNK4Json5Value6isUIntEv
597:   FUNC WEAK DEFAULT 12 _ZNKSt3__116__back_ref_ic
598:   FUNC WEAK DEFAULT 12 _ZNSt3__111__alternateIcE
599:   FUNC WEAK DEFAULT 12 _ZNSt3__111basic_regexIcN
600:   FUNC WEAK DEFAULT 12 _ZNSt3__111basic_regexIcN
601:   OBJECT WEAK DEFAULT 21 _ZTINSt3__120__bracket_ex
602:   FUNC GLOBAL DEFAULT 12 _ZN15SetCgroupAction14Add
603:   FUNC GLOBAL DEFAULT 12 _ZN4Json6Reader10skipSpac
604:   FUNC GLOBAL DEFAULT 12 _ZN4Json6Reader12decodeNu
605:   FUNC GLOBAL DEFAULT 12 _ZN4Json5ValueixERKNSt3__
606:   FUNC GLOBAL DEFAULT 12 _ZNK4Json5Value8isObjectE
607:   FUNC GLOBAL DEFAULT 12 _ZNK4Json5Value10isIntegr
608:   FUNC WEAK DEFAULT 12 _ZNSt3__16vectorINS_12bas
609:   FUNC GLOBAL DEFAULT 12 _ZNK11TaskProfile17Execut
610:   FUNC GLOBAL DEFAULT 12 _ZN4Json5ValueC2Ex
611:   OBJECT GLOBAL DEFAULT 21 _ZTVN4Json12StyledWriterE
612:   FUNC GLOBAL DEFAULT 12 _ZN4Json18StyledStreamWri
613:   OBJECT WEAK DEFAULT 21 _ZTINSt3__120__match_char
614:   FUNC GLOBAL DEFAULT 12 _ZN4Json5ValueC2Ey
615:   OBJECT WEAK DEFAULT 21 _ZTINSt3__115basic_string
616:   FUNC WEAK DEFAULT 12 _ZNSt3__113regex_replaceI
617:   OBJECT WEAK DEFAULT 9 _ZTSNSt3__16__loopIcEE
618:   OBJECT GLOBAL DEFAULT 21 _ZTV15SetClampsAction
619:   FUNC GLOBAL DEFAULT 12 _ZN4Json13ValueIteratorC2
620:   FUNC GLOBAL DEFAULT 12 _ZN4Json18StyledStreamWri
621:   FUNC WEAK DEFAULT 12 _ZNSt3__15dequeIN4Json6Re
622:   FUNC GLOBAL DEFAULT 12 _ZN4Json18StyledStreamWri
623:   FUNC WEAK DEFAULT 12 _ZNSt3__111basic_regexIcN
624:   OBJECT WEAK DEFAULT 21 _ZTINSt3__16__nodeIcEE
625:   FUNC WEAK DEFAULT 12 _ZN18SetAttributeActionD0
626:   FUNC WEAK DEFAULT 12 _ZNSt3__114__split_buffer
627:   FUNC GLOBAL DEFAULT 12 _ZN9CgroupMap10LoadRcFile
628:   FUNC WEAK DEFAULT 12 _ZNSt3__116__owns_one_sta
629:   OBJECT WEAK DEFAULT 21 _ZTINSt3__115__word_bound
630:   FUNC GLOBAL DEFAULT 12 _ZN4Json4Path12addPathInA
631:   FUNC WEAK DEFAULT 12 _ZN4Json10FastWriterD0Ev
632:   FUNC WEAK DEFAULT 12 _ZNSt3__16vectorINS_9sub_
633:   OBJECT WEAK DEFAULT 21 _ZTVNSt3__117__repeat_one
634:   FUNC GLOBAL DEFAULT 12 _ZNK4Json5Value8CZString1
635:   FUNC WEAK DEFAULT 12 _ZNSt3__123__match_any_bu
636:   FUNC GLOBAL DEFAULT 12 _ZN4Json6Reader12decodeDo
637:   FUNC GLOBAL DEFAULT 12 setProcessGroupSoftLimit
638:   OBJECT GLOBAL DEFAULT 9 _ZN4Json5Value6maxIntE
639:   FUNC WEAK DEFAULT 12 _ZN4Json12StyledWriterD2E
640:   OBJECT WEAK DEFAULT 21 _ZTINSt3__117__owns_two_s
641:   OBJECT WEAK DEFAULT 21 _ZTINSt3__117__repeat_one
642:   OBJECT WEAK DEFAULT 21 _ZTVNSt3__120__shared_ptr
643:   FUNC GLOBAL DEFAULT 12 _ZN4Json5ValueC2ERKNSt3__
644:   FUNC GLOBAL DEFAULT 12 _ZN4Json12StyledWriter11w
645:   FUNC GLOBAL DEFAULT 12 _ZN4Json18StyledStreamWri
646:   FUNC WEAK DEFAULT 12 _ZNSt3__16vectorINS_9sub_
647:   FUNC GLOBAL DEFAULT 12 _ZNK9CgroupMap5PrintEv
648:   FUNC WEAK DEFAULT 12 _ZNSt3__111basic_regexIcN
649:   FUNC WEAK DEFAULT 12 _ZNSt3__114__split_buffer
650:   FUNC GLOBAL DEFAULT 12 UsePerAppMemcg
651:   FUNC WEAK DEFAULT 12 _ZNSt3__120__bracket_expr
652:   FUNC GLOBAL DEFAULT 12 setProcessGroupLimit
653:   OBJECT GLOBAL DEFAULT 9 _ZN4Json5Value8maxInt64E
654:   FUNC GLOBAL DEFAULT 12 _ZNK4Json5Value10hasComme
655:   FUNC WEAK DEFAULT 12 _ZNSt3__115basic_stringbu
656:   OBJECT WEAK DEFAULT 9 _ZTSNSt3__110__r_anchorIc
657:   OBJECT GLOBAL DEFAULT 9 _ZTS15SetClampsAction
658:   FUNC GLOBAL DEFAULT 12 _ZN4Json6Reader5parseEPKc
659:   FUNC GLOBAL DEFAULT 12 _ZN4Json6ReaderC1ERKNS_8F
660:   FUNC GLOBAL DEFAULT 12 _ZN4Json12PathArgumentC2E
661:   FUNC GLOBAL DEFAULT 12 _ZNK4Json5Value12isValidI
662:   FUNC GLOBAL DEFAULT 12 _ZN4Json12StyledWriter15w
663:   FUNC WEAK DEFAULT 12 _ZNSt3__118__back_ref_col
664:   OBJECT WEAK DEFAULT 21 _ZTINSt3__16__loopIcEE
665:   FUNC GLOBAL DEFAULT 12 _ZN15SetCgroupAction21Ena
666:   FUNC GLOBAL DEFAULT 12 _ZNK4Json5Value12asLarges
667:   FUNC WEAK DEFAULT 12 _ZNKSt3__111__alternateIc
668:   OBJECT WEAK DEFAULT 9 _ZTSNSt3__121__empty_non_
669:   FUNC GLOBAL DEFAULT 12 _ZNK18SetAttributeAction1
670:   FUNC GLOBAL DEFAULT 12 _ZN4Json6Reader12decodeSt
671:   FUNC GLOBAL DEFAULT 12 _ZN4Json10FastWriter5writ
672:   FUNC WEAK DEFAULT 12 _ZNSt3__16__treeINS_12__v
673:   FUNC GLOBAL DEFAULT 12 _ZN4Json8FeaturesC1Ev
674:   FUNC GLOBAL DEFAULT 12 _ZN4Json5ValueC2EPKcS2_
675:   FUNC GLOBAL DEFAULT 12 _ZNK4Json5Value4typeEv
676:   FUNC GLOBAL DEFAULT 12 _ZNK4Json5ValueixERKNSt3_
677:   FUNC GLOBAL DEFAULT 12 _ZN4Json10FastWriter10wri
678:   FUNC GLOBAL DEFAULT 12 _ZN4Json18StyledStreamWri
679:   FUNC WEAK DEFAULT 12 _ZNSt3__111basic_regexIcN
680:   OBJECT WEAK DEFAULT 21 _ZTINSt3__126__end_marked
681:   OBJECT WEAK DEFAULT 9 _ZTSNSt3__111__end_stateI
682:   OBJECT WEAK DEFAULT 21 _ZTVNSt3__110__back_refIc
683:   FUNC GLOBAL DEFAULT 12 _ZN11TaskProfile19DropRes
684:   FUNC WEAK DEFAULT 12 _ZNSt3__16vectorINS_10uni
685:   FUNC GLOBAL DEFAULT 12 _ZN4Json6Reader5parseERNS
686:   FUNC GLOBAL DEFAULT 12 _ZNK4Json17ValueIteratorB
687:   FUNC WEAK DEFAULT 12 _ZNSt3__115basic_stringbu
688:   FUNC WEAK DEFAULT 12 _ZNKSt3__112regex_traitsI
689:   OBJECT WEAK DEFAULT 21 _ZTVNSt3__120__bracket_ex
690:   FUNC WEAK DEFAULT 12 _ZNSt3__114__split_buffer
691:   FUNC WEAK DEFAULT 12 _ZNSt3__16__loopIcED0Ev
692:   OBJECT WEAK DEFAULT 9 _ZTSNSt3__113__empty_stat
693:   FUNC WEAK DEFAULT 12 _ZNSt3__16vectorIN4Json6R
694:   FUNC GLOBAL DEFAULT 12 _ZNK4Json5Value14getMembe
695:   FUNC GLOBAL DEFAULT 12 _ZNK4Json5Value8CZString5
696:   FUNC WEAK DEFAULT 12 _ZNSt3__111basic_regexIcN
697:   FUNC WEAK DEFAULT 12 _ZNSt3__115__word_boundar
698:   OBJECT WEAK DEFAULT 21 _ZTVNSt3__120__match_char
699:   FUNC GLOBAL DEFAULT 12 _ZN4Json5Value8CZStringC2
700:   FUNC GLOBAL DEFAULT 12 _ZN4Json6WriterD0Ev
701:   FUNC WEAK DEFAULT 12 _ZNSt3__16vectorINS_4pair
702:   OBJECT WEAK DEFAULT 21 _ZTVNSt3__111__alternateI
703:   FUNC GLOBAL DEFAULT 12 _ZNK11TaskProfile14Execut
704:   FUNC GLOBAL DEFAULT 12 _ZN12TaskProfilesC1Ev
705:   FUNC GLOBAL DEFAULT 12 _ZN4Json18ValueConstItera
706:   FUNC GLOBAL DEFAULT 12 _ZN4Json18StyledStreamWri
707:   FUNC GLOBAL DEFAULT 12 _ZN4Json18StyledStreamWri
708:   FUNC WEAK DEFAULT 12 _ZNSt3__112__deque_baseIN
709:   FUNC WEAK DEFAULT 12 _ZNSt3__117__owns_two_sta
710:   OBJECT GLOBAL DEFAULT 21 _ZTV18SetAttributeAction
711:   FUNC GLOBAL DEFAULT 12 _ZN4Json6Reader11readComm
712:   OBJECT WEAK DEFAULT 21 _ZTINSt3__111__alternateI
713:   FUNC GLOBAL DEFAULT 12 _ZN12TaskProfiles11GetIns
714:   OBJECT WEAK DEFAULT 9 _ZTS13ProfileAction
715:   FUNC GLOBAL DEFAULT 12 _ZN4Json6Reader11expectTo
716:   FUNC WEAK DEFAULT 12 _ZNSt3__16__treeINS_12__v
717:   OBJECT WEAK DEFAULT 9 _ZTSNSt3__120__match_char
718:   FUNC GLOBAL DEFAULT 12 _ZN4Json13ValueIteratorC1
719:   FUNC GLOBAL DEFAULT 12 _ZNK16CgroupController7ve
720:   OBJECT WEAK DEFAULT 9 _ZTSNSt3__114default_dele
721:   OBJECT WEAK DEFAULT 9 _ZTSNSt3__116__back_ref_i
722:   FUNC WEAK DEFAULT 12 _ZNSt3__16__treeIiNS_4les
723:   FUNC WEAK DEFAULT 12 _ZNK19SetTimerSlackAction
724:   OBJECT WEAK DEFAULT 9 _ZTSNSt3__117__owns_two_s
725:   OBJECT WEAK DEFAULT 9 _ZTSNSt3__117__repeat_one
726:   FUNC GLOBAL DEFAULT 12 _ZN4Json5ValueC1EPKc
727:   FUNC WEAK DEFAULT 12 _ZNSt3__114__split_buffer
728:   FUNC GLOBAL DEFAULT 12 _ZN4Json5Value11CommentIn
729:   FUNC GLOBAL DEFAULT 12 _ZN4Json5Value8CZStringaS
730:   FUNC GLOBAL DEFAULT 12 _ZNK4Json5Value6asUIntEv
731:   FUNC WEAK DEFAULT 12 _ZNSt3__111basic_regexIcN
732:   FUNC GLOBAL DEFAULT 12 killProcessGroup
733:   OBJECT GLOBAL DEFAULT 9 _ZTS15SetCgroupAction
734:   FUNC GLOBAL DEFAULT 12 _ZN4Json17ValueIteratorBa
735:   FUNC GLOBAL DEFAULT 12 _ZN4Json5Value12removeMem
736:   FUNC GLOBAL DEFAULT 12 _ZN4Json5ValueC2ERKS0_
737:   FUNC GLOBAL DEFAULT 12 _ZNK12TaskProfiles12GetAt
738:   OBJECT GLOBAL DEFAULT 9 _ZN4Json5Value13minLarges
739:   FUNC GLOBAL DEFAULT 12 _ZN4Json5Value6appendERKS
740:   FUNC GLOBAL DEFAULT 12 _ZNK4Json5Value5isIntEv
741:   FUNC GLOBAL DEFAULT 12 _ZNK4Json5ValueixEi
742:   FUNC WEAK DEFAULT 12 _ZNSt3__111basic_regexIcN
743:   FUNC WEAK DEFAULT 12 _ZNSt3__116__back_ref_ica
744:   FUNC GLOBAL DEFAULT 12 _ZNK4Json5ValueixEj
