 0x000000000000000e (SONAME)             Library soname: [libsysutils.so]
  
Symbol   contains 147 entries:
Num:   Type Bind Vis Ndx Name
0:   NOTYPE LOCAL DEFAULT UND
1:   FUNC GLOBAL DEFAULT UND __cxa_finalize@LIBC (2)
2:   FUNC GLOBAL DEFAULT UND _ZNKSt3__120__vector_base
3:   FUNC GLOBAL DEFAULT UND _ZNSt3__112__next_primeEm
4:   FUNC GLOBAL DEFAULT UND _ZdlPv
5:   FUNC GLOBAL DEFAULT UND _Znwm
6:   FUNC GLOBAL DEFAULT UND __android_log_buf_print@LIBLOG (3)
7:   FUNC GLOBAL DEFAULT UND __cxa_pure_virtual
8:   FUNC GLOBAL DEFAULT UND __errno@LIBC (2)
9:   FUNC GLOBAL DEFAULT UND __read_chk@LIBC (2)
10:   FUNC GLOBAL DEFAULT UND __stack_chk_fail@LIBC (2)
11:   FUNC GLOBAL DEFAULT UND __write_chk@LIBC_N (4)
12:   FUNC GLOBAL DEFAULT UND abort@LIBC (2)
13:   FUNC GLOBAL DEFAULT UND accept4@LIBC (2)
14:   FUNC GLOBAL DEFAULT UND android_get_control_socke
15:   FUNC GLOBAL DEFAULT UND close@LIBC (2)
16:   FUNC GLOBAL DEFAULT UND fcntl@LIBC (2)
17:   FUNC GLOBAL DEFAULT UND listen@LIBC (2)
18:   FUNC GLOBAL DEFAULT UND memcpy@LIBC (2)
19:   FUNC GLOBAL DEFAULT UND pipe2@LIBC (2)
20:   FUNC GLOBAL DEFAULT UND poll@LIBC (2)
21:   FUNC GLOBAL DEFAULT UND pthread_create@LIBC (2)
22:   FUNC GLOBAL DEFAULT UND pthread_exit@LIBC (2)
23:   FUNC GLOBAL DEFAULT UND pthread_join@LIBC (2)
24:   FUNC GLOBAL DEFAULT UND pthread_mutex_init@LIBC (2)
25:   FUNC GLOBAL DEFAULT UND pthread_mutex_lock@LIBC (2)
26:   FUNC GLOBAL DEFAULT UND pthread_mutex_unlock@LIBC (2)
27:   FUNC GLOBAL DEFAULT UND sleep@LIBC (2)
28:   FUNC GLOBAL DEFAULT UND strerror@LIBC (2)
29:   FUNC GLOBAL DEFAULT UND __android_log_error_write@LIBLOG_M (5)
30:   FUNC GLOBAL DEFAULT UND free@LIBC (2)
31:   FUNC GLOBAL DEFAULT UND memset@LIBC (2)
32:   FUNC GLOBAL DEFAULT UND strcmp@LIBC (2)
33:   FUNC GLOBAL DEFAULT UND strdup@LIBC (2)
34:   FUNC GLOBAL DEFAULT UND strtol@LIBC (2)
35:   FUNC GLOBAL DEFAULT UND uevent_kernel_recv
36:   FUNC GLOBAL DEFAULT UND __cxa_guard_acquire
37:   FUNC GLOBAL DEFAULT UND __cxa_guard_release
38:   FUNC GLOBAL DEFAULT UND __strncpy_chk2@LIBC (2)
39:   FUNC GLOBAL DEFAULT UND asprintf@LIBC (2)
40:   FUNC GLOBAL DEFAULT UND atoi@LIBC (2)
41:   FUNC GLOBAL DEFAULT UND calloc@LIBC (2)
42:   FUNC GLOBAL DEFAULT UND if_indextoname@LIBC (2)
43:   FUNC GLOBAL DEFAULT UND inet_ntop@LIBC (2)
44:   FUNC GLOBAL DEFAULT UND malloc@LIBC (2)
45:   FUNC GLOBAL DEFAULT UND memcmp@LIBC (2)
46:   FUNC GLOBAL DEFAULT UND strlcpy@LIBC (2)
47:   FUNC GLOBAL DEFAULT UND strlen@LIBC (2)
48:   FUNC GLOBAL DEFAULT UND strncmp@LIBC (2)
49:   FUNC GLOBAL DEFAULT UND __vsnprintf_chk@LIBC (2)
50:   FUNC GLOBAL DEFAULT UND getsockopt@LIBC (2)
51:   FUNC GLOBAL DEFAULT UND realloc@LIBC (2)
52:   FUNC GLOBAL DEFAULT UND sigaction@LIBC (2)
53:   FUNC GLOBAL DEFAULT UND writev@LIBC (2)
54:   FUNC GLOBAL DEFAULT UND _ZN7android4base11GetProp
55:   FUNC GLOBAL DEFAULT UND _ZN7android4base11SetProp
56:   FUNC GLOBAL DEFAULT UND _ZN7android4base12StringP
57:   FUNC GLOBAL DEFAULT UND _ZNKSt3__112basic_stringI
58:   FUNC GLOBAL DEFAULT UND _ZNKSt3__121__basic_strin
59:   FUNC GLOBAL DEFAULT UND usleep@LIBC (2)
60:   FUNC GLOBAL DEFAULT 14 _ZN14SocketListener7relea
61:   FUNC GLOBAL DEFAULT 14 _ZN17FrameworkListenerC2E
62:   FUNC GLOBAL DEFAULT 14 _ZN12NetlinkEvent25parseB
63:   FUNC GLOBAL DEFAULT 14 _ZN14SocketListenerC2EPKc
64:   FUNC GLOBAL DEFAULT 14 _ZN17FrameworkListener4in
65:   FUNC GLOBAL DEFAULT 14 _ZN15NetlinkListenerC2Eii
66:   FUNC GLOBAL DEFAULT 14 _ZN12SocketClient8sendCod
67:   FUNC GLOBAL DEFAULT 14 _ZN17FrameworkListenerC2E
68:   FUNC WEAK DEFAULT 14 _ZNSt3__16vectorIP12Socke
69:   FUNC GLOBAL DEFAULT 14 _ZN17FrameworkListener11r
70:   OBJECT GLOBAL DEFAULT 18 _ZTV15NetlinkListener
71:   FUNC GLOBAL DEFAULT 14 _ZN12NetlinkEventC2Ev
72:   FUNC GLOBAL DEFAULT 14 _ZN12SocketClient9sendDat
73:   FUNC GLOBAL DEFAULT 14 _ZN12SocketClientC2Eib
74:   OBJECT WEAK DEFAULT 18 _ZTV14ServiceManager
75:   FUNC GLOBAL DEFAULT 14 _ZN12SocketClient6incRefE
76:   FUNC GLOBAL DEFAULT 14 _ZN12SocketClient7sendMsg
77:   FUNC GLOBAL DEFAULT 14 _ZN14SocketListener15runO
78:   FUNC GLOBAL DEFAULT 14 _ZN14SocketListener15snap
79:   FUNC GLOBAL DEFAULT 14 _ZN14SocketListener13star
80:   FUNC GLOBAL DEFAULT 14 _ZN14SocketListenerC2Eib
81:   FUNC GLOBAL DEFAULT 14 _ZN17FrameworkListener15o
82:   FUNC WEAK DEFAULT 14 _ZNSt3__16vectorI6pollfdN
83:   FUNC GLOBAL DEFAULT 14 _ZN12NetlinkEventC1Ev
84:   FUNC GLOBAL DEFAULT 14 _ZN12NetlinkEvent14parseR
85:   FUNC GLOBAL DEFAULT 14 _ZN12NetlinkEvent24parseA
86:   FUNC GLOBAL DEFAULT 14 _ZN12SocketClientC2Eibb
87:   FUNC GLOBAL DEFAULT 14 _ZN14SocketListenerD2Ev
88:   FUNC GLOBAL DEFAULT 14 _ZN12NetlinkEvent18parseI
89:   FUNC GLOBAL DEFAULT 14 _ZN12NetlinkEvent4dumpEv
90:   FUNC GLOBAL DEFAULT 14 _ZN12SocketClient8sendDat
91:   FUNC GLOBAL DEFAULT 14 _ZN14ServiceManager4stopE
92:   FUNC GLOBAL DEFAULT 14 _ZN14ServiceManager5start
93:   FUNC GLOBAL DEFAULT 14 _ZN17FrameworkListenerC2E
94:   FUNC GLOBAL DEFAULT 14 _ZN12NetlinkEventD2Ev
95:   FUNC GLOBAL DEFAULT 14 _ZN14ServiceManagerC2Ev
96:   FUNC GLOBAL DEFAULT 14 _ZN14SocketListenerD1Ev
97:   FUNC WEAK DEFAULT 14 _ZNSt3__112__hash_tableIN
98:   FUNC WEAK DEFAULT 14 _ZNSt3__16vectorIP16Frame
99:   FUNC GLOBAL DEFAULT 14 _ZN15NetlinkListenerC2Ei
100:   FUNC GLOBAL DEFAULT 14 _ZN12NetlinkEvent22parseU
101:   FUNC GLOBAL DEFAULT 14 _ZN16FrameworkCommand10ru
102:   FUNC GLOBAL DEFAULT 14 _ZN14SocketListener13send
103:   FUNC GLOBAL DEFAULT 14 _ZN15NetlinkListener15onD
104:   FUNC GLOBAL DEFAULT 14 _ZN16FrameworkCommandC2EP
105:   FUNC GLOBAL DEFAULT 14 _ZN12SocketClient15sendDa
106:   FUNC GLOBAL DEFAULT 14 _ZN12SocketClient8quoteAr
107:   FUNC GLOBAL DEFAULT 14 _ZN14SocketListener12stop
108:   OBJECT GLOBAL DEFAULT 18 _ZTV14SocketListener
109:   FUNC GLOBAL DEFAULT 14 _ZN17FrameworkListenerC1E
110:   FUNC GLOBAL DEFAULT 14 _ZN17FrameworkListenerC1E
111:   FUNC GLOBAL DEFAULT 14 _ZN12NetlinkEventD1Ev
112:   FUNC GLOBAL DEFAULT 14 _ZN14ServiceManagerC1Ev
113:   FUNC GLOBAL DEFAULT 14 _ZN14SocketListenerD0Ev
114:   FUNC GLOBAL DEFAULT 14 _ZN17FrameworkListener15d
115:   FUNC GLOBAL DEFAULT 14 _ZN12NetlinkEvent18parseI
116:   FUNC GLOBAL DEFAULT 14 _ZN12NetlinkEvent20parseN
117:   FUNC GLOBAL DEFAULT 14 _ZN12NetlinkEvent21parseN
118:   FUNC GLOBAL DEFAULT 14 _ZN12NetlinkEvent10findNl
119:   FUNC GLOBAL DEFAULT 14 _ZN12SocketClientD2Ev
120:   FUNC GLOBAL DEFAULT 14 _ZN14SocketListenerC2EPKc
121:   FUNC GLOBAL DEFAULT 14 _ZN12NetlinkEventD0Ev
122:   FUNC GLOBAL DEFAULT 14 _ZN12SocketClient4initEib
123:   OBJECT GLOBAL DEFAULT 18 _ZTV12SocketClient
124:   FUNC WEAK DEFAULT 14 _ZNSt3__112__hash_tableIN
125:   FUNC WEAK DEFAULT 14 _ZNSt3__112__hash_tableIN
126:   FUNC WEAK DEFAULT 14 _ZNSt3__112__hash_tableIN
127:   FUNC GLOBAL DEFAULT 14 _ZN12SocketClient7sendMsg
128:   FUNC GLOBAL DEFAULT 14 _ZN12SocketClient13sendBi
129:   FUNC GLOBAL DEFAULT 14 _ZN12SocketClient7sendMsg
130:   FUNC GLOBAL DEFAULT 14 _ZN12SocketClient6decRefE
131:   FUNC GLOBAL DEFAULT 14 _ZN14SocketListener11thre
132:   OBJECT GLOBAL DEFAULT 18 _ZTV17FrameworkListener
133:   FUNC GLOBAL DEFAULT 14 _ZN12SocketClientD1Ev
134:   FUNC GLOBAL DEFAULT 14 _ZN14ServiceManager9isRun
135:   FUNC GLOBAL DEFAULT 14 _ZN12SocketClientC1Eibb
136:   FUNC GLOBAL DEFAULT 14 _ZN14SocketListener13star
137:   FUNC WEAK DEFAULT 14 _ZNSt3__112__hash_tableIN
138:   FUNC GLOBAL DEFAULT 14 _ZN12NetlinkEvent6decodeE
139:   FUNC GLOBAL DEFAULT 14 _ZN12SocketClientC1Eib
140:   OBJECT GLOBAL DEFAULT 18 _ZTV12NetlinkEvent
141:   FUNC GLOBAL DEFAULT 14 _ZN14SocketListener11runL
142:   FUNC GLOBAL DEFAULT 14 _ZN14SocketListener4initE
143:   FUNC GLOBAL DEFAULT 14 _ZN17FrameworkListenerC1E
144:   FUNC GLOBAL DEFAULT 14 _ZN12NetlinkEvent9findPar
145:   OBJECT WEAK DEFAULT 18 _ZTV16FrameworkCommand
146:   FUNC GLOBAL DEFAULT 14 _ZN12SocketClientD0Ev
