 0x000000000000000e (SONAME)             Library soname: [libvolume_manager.so]
  
Symbol   contains 416 entries:
Num:   Type Bind Vis Ndx Name
0:   NOTYPE LOCAL DEFAULT UND
1:   FUNC GLOBAL DEFAULT UND __cxa_finalize@LIBC (2)
2:   FUNC GLOBAL DEFAULT UND __cxa_atexit@LIBC (2)
3:   FUNC GLOBAL DEFAULT UND _Z11sgdisk_readPKcR22sgdi
4:   FUNC GLOBAL DEFAULT UND _ZN7android4base10LogMess
5:   FUNC GLOBAL DEFAULT UND _ZN7android4base10LogMess
6:   FUNC GLOBAL DEFAULT UND _ZN7android4base10LogMess
7:   FUNC GLOBAL DEFAULT UND _ZN7android4base12StringP
8:   FUNC GLOBAL DEFAULT UND _ZN7android4base16ReadFil
9:   FUNC GLOBAL DEFAULT UND _ZN7android4base21GetMini
10:   FUNC GLOBAL DEFAULT UND _ZNKSt3__119__shared_weak
11:   FUNC GLOBAL DEFAULT UND _ZNKSt3__120__vector_base
12:   FUNC GLOBAL DEFAULT UND _ZNKSt3__121__basic_strin
13:   FUNC GLOBAL DEFAULT UND _ZNKSt3__16locale9use_fac
14:   FUNC GLOBAL DEFAULT UND _ZNKSt3__18ios_base6getlo
15:   FUNC GLOBAL DEFAULT UND _ZNSt3__112basic_stringIc
16:   FUNC GLOBAL DEFAULT UND _ZNSt3__112basic_stringIc
17:   FUNC GLOBAL DEFAULT UND _ZNSt3__112basic_stringIc
18:   FUNC GLOBAL DEFAULT UND _ZNSt3__112basic_stringIc
19:   FUNC GLOBAL DEFAULT UND _ZNSt3__113basic_ostreamI
20:   FUNC GLOBAL DEFAULT UND _ZNSt3__113basic_ostreamI
21:   FUNC GLOBAL DEFAULT UND _ZNSt3__113basic_ostreamI
22:   FUNC GLOBAL DEFAULT UND _ZNSt3__113basic_ostreamI
23:   FUNC GLOBAL DEFAULT UND _ZNSt3__119__shared_weak_
24:   FUNC GLOBAL DEFAULT UND _ZNSt3__119__shared_weak_
25:   OBJECT GLOBAL DEFAULT UND _ZNSt3__15ctypeIcE2idE
26:   FUNC GLOBAL DEFAULT UND _ZNSt3__16localeD1Ev
27:   FUNC GLOBAL DEFAULT UND _ZNSt3__18ios_base5clearE
28:   FUNC GLOBAL DEFAULT UND _ZdlPv
29:   FUNC GLOBAL DEFAULT UND _Znwm
30:   FUNC GLOBAL DEFAULT UND __errno@LIBC (2)
31:   FUNC GLOBAL DEFAULT UND __open_2@LIBC (2)
32:   FUNC GLOBAL DEFAULT UND __stack_chk_fail@LIBC (2)
33:   FUNC GLOBAL DEFAULT UND abort@LIBC (2)
34:   FUNC GLOBAL DEFAULT UND atoi@LIBC (2)
35:   FUNC GLOBAL DEFAULT UND close@LIBC (2)
36:   FUNC GLOBAL DEFAULT UND ioctl@LIBC (2)
37:   FUNC GLOBAL DEFAULT UND memcmp@LIBC (2)
38:   FUNC GLOBAL DEFAULT UND memcpy@LIBC (2)
39:   FUNC GLOBAL DEFAULT UND memset@LIBC (2)
40:   FUNC GLOBAL DEFAULT UND strcasecmp@LIBC (2)
41:   FUNC GLOBAL DEFAULT UND strtol@LIBC (2)
42:   FUNC GLOBAL DEFAULT UND strtoll@LIBC (2)
43:   FUNC GLOBAL DEFAULT UND _ZNSt3__112basic_stringIc
44:   OBJECT GLOBAL DEFAULT UND _ZNSt3__14coutE
45:   FUNC GLOBAL DEFAULT UND access@LIBC (2)
46:   FUNC GLOBAL DEFAULT UND fs_prepare_dir
47:   FUNC GLOBAL DEFAULT UND mount@LIBC (2)
48:   FUNC GLOBAL DEFAULT UND rmdir@LIBC (2)
49:   FUNC GLOBAL DEFAULT UND strerror@LIBC (2)
50:   FUNC GLOBAL DEFAULT UND strlen@LIBC (2)
51:   FUNC GLOBAL DEFAULT UND _ZN14SocketListener12stop
52:   FUNC GLOBAL DEFAULT UND _ZN14SocketListener13star
53:   FUNC GLOBAL DEFAULT UND _ZN14SocketListenerD2Ev
54:   FUNC GLOBAL DEFAULT UND _ZN15NetlinkListener15onD
55:   FUNC GLOBAL DEFAULT UND _ZN15NetlinkListenerC2Ei
56:   FUNC GLOBAL DEFAULT UND __android_log_buf_print@LIBLOG (3)
57:   FUNC GLOBAL DEFAULT UND strcmp@LIBC (2)
58:   FUNC GLOBAL DEFAULT UND bind@LIBC (2)
59:   FUNC GLOBAL DEFAULT UND getpid@LIBC (2)
60:   FUNC GLOBAL DEFAULT UND setsockopt@LIBC (2)
61:   FUNC GLOBAL DEFAULT UND socket@LIBC (2)
62:   FUNC GLOBAL DEFAULT UND __fgets_chk@LIBC (2)
63:   FUNC GLOBAL DEFAULT UND __readlink_chk@LIBC (2)
64:   FUNC GLOBAL DEFAULT UND __strchr_chk@LIBC (2)
65:   FUNC GLOBAL DEFAULT UND __strlcat_chk@LIBC (2)
66:   FUNC GLOBAL DEFAULT UND __strlen_chk@LIBC (2)
67:   FUNC GLOBAL DEFAULT UND __vsnprintf_chk@LIBC (2)
68:   FUNC GLOBAL DEFAULT UND closedir@LIBC (2)
69:   FUNC GLOBAL DEFAULT UND fclose@LIBC (2)
70:   FUNC GLOBAL DEFAULT UND fopen@LIBC (2)
71:   FUNC GLOBAL DEFAULT UND kill@LIBC (2)
72:   FUNC GLOBAL DEFAULT UND lstat@LIBC (2)
73:   FUNC GLOBAL DEFAULT UND opendir@LIBC (2)
74:   FUNC GLOBAL DEFAULT UND readdir@LIBC (2)
75:   FUNC GLOBAL DEFAULT UND readlink@LIBC (2)
76:   FUNC GLOBAL DEFAULT UND strlcpy@LIBC (2)
77:   FUNC GLOBAL DEFAULT UND strncmp@LIBC (2)
78:   FUNC GLOBAL DEFAULT UND strsignal@LIBC (2)
79:   FUNC GLOBAL DEFAULT UND _ZNKSt3__112basic_stringI
80:   FUNC GLOBAL DEFAULT UND _ZN7android4base15GetBool
81:   FUNC GLOBAL DEFAULT UND _ZNSt3__112basic_stringIc
82:   FUNC GLOBAL DEFAULT UND _ZNSt3__113basic_ostreamI
83:   FUNC GLOBAL DEFAULT UND _exit@LIBC (2)
84:   FUNC GLOBAL DEFAULT UND calloc@LIBC (2)
85:   FUNC GLOBAL DEFAULT UND execvp@LIBC (2)
86:   FUNC GLOBAL DEFAULT UND fork@LIBC (2)
87:   FUNC GLOBAL DEFAULT UND free@LIBC (2)
88:   FUNC GLOBAL DEFAULT UND freecon
89:   FUNC GLOBAL DEFAULT UND memchr@LIBC (2)
90:   FUNC GLOBAL DEFAULT UND mknod@LIBC (2)
91:   FUNC GLOBAL DEFAULT UND selabel_lookup
92:   FUNC GLOBAL DEFAULT UND setexeccon
93:   FUNC GLOBAL DEFAULT UND setfscreatecon
94:   FUNC GLOBAL DEFAULT UND sleep@LIBC (2)
95:   FUNC GLOBAL DEFAULT UND stat@LIBC (2)
96:   FUNC GLOBAL DEFAULT UND umount2@LIBC (2)
97:   FUNC GLOBAL DEFAULT UND unlink@LIBC (2)
98:   FUNC GLOBAL DEFAULT UND waitpid@LIBC (2)
99:   FUNC GLOBAL DEFAULT UND __cxa_pure_virtual
100:   FUNC GLOBAL DEFAULT UND _ZN12NetlinkEvent9findPar
101:   FUNC GLOBAL DEFAULT UND _ZNSt3__15mutex4lockEv
102:   FUNC GLOBAL DEFAULT UND _ZNSt3__15mutex6unlockEv
103:   FUNC GLOBAL DEFAULT UND _ZNSt3__15mutexD1Ev
104:   FUNC GLOBAL DEFAULT UND __openat_2@LIBC (2)
105:   FUNC GLOBAL DEFAULT UND __write_chk@LIBC_N (4)
106:   FUNC GLOBAL DEFAULT UND dirfd@LIBC (2)
107:   FUNC GLOBAL DEFAULT UND fdopendir@LIBC (2)
108:   FUNC GLOBAL DEFAULT UND fnmatch@LIBC (2)
109:   FUNC GLOBAL DEFAULT UND mkdir@LIBC (2)
110:   FUNC GLOBAL DEFAULT UND property_get_bool
111:   FUNC GLOBAL DEFAULT UND selinux_android_set_sehan
112:   FUNC GLOBAL DEFAULT UND setenv@LIBC (2)
113:   FUNC GLOBAL DEFAULT UND chmod@LIBC (2)
114:   FUNC GLOBAL DEFAULT UND chown@LIBC (2)
115:   FUNC GLOBAL DEFAULT UND __vsprintf_chk@LIBC (2)
116:   FUNC GLOBAL DEFAULT UND asprintf@LIBC (2)
117:   FUNC GLOBAL DEFAULT UND malloc@LIBC (2)
118:   FUNC GLOBAL DEFAULT UND strcpy@LIBC (2)
119:   FUNC GLOBAL DEFAULT UND strncpy@LIBC (2)
120:   FUNC GLOBAL DEFAULT UND __read_chk@LIBC (2)
121:   FUNC GLOBAL DEFAULT UND __strrchr_chk@LIBC (2)
122:   FUNC GLOBAL DEFAULT UND lseek@LIBC (2)
123:   FUNC GLOBAL DEFAULT UND fstat@LIBC (2)
124:   FUNC GLOBAL DEFAULT UND uname@LIBC (2)
125:   FUNC GLOBAL DEFAULT UND difftime@LIBC (2)
126:   FUNC GLOBAL DEFAULT UND feof@LIBC (2)
127:   FUNC GLOBAL DEFAULT UND isspace@LIBC (2)
128:   FUNC GLOBAL DEFAULT UND read@LIBC (2)
129:   FUNC GLOBAL DEFAULT UND realloc@LIBC (2)
130:   FUNC GLOBAL DEFAULT UND strchr@LIBC (2)
131:   FUNC GLOBAL DEFAULT UND time@LIBC (2)
132:   FUNC GLOBAL DEFAULT UND sscanf@LIBC (2)
133:   FUNC GLOBAL DEFAULT UND fdopen@LIBC (2)
134:   FUNC GLOBAL DEFAULT UND fgets@LIBC (2)
135:   FUNC GLOBAL DEFAULT UND strrchr@LIBC (2)
136:   FUNC GLOBAL DEFAULT UND strtoul@LIBC (2)
137:   FUNC GLOBAL DEFAULT UND getegid@LIBC (2)
138:   FUNC GLOBAL DEFAULT UND getenv@LIBC (2)
139:   FUNC GLOBAL DEFAULT UND geteuid@LIBC (2)
140:   FUNC GLOBAL DEFAULT UND getgid@LIBC (2)
141:   FUNC GLOBAL DEFAULT UND getuid@LIBC (2)
142:   FUNC GLOBAL DEFAULT UND syscall@LIBC (2)
143:   FUNC GLOBAL DEFAULT UND __umask_chk@LIBC (2)
144:   FUNC GLOBAL DEFAULT UND fchmod@LIBC (2)
145:   FUNC GLOBAL DEFAULT UND fprintf@LIBC (2)
146:   FUNC GLOBAL DEFAULT UND link@LIBC (2)
147:   FUNC GLOBAL DEFAULT UND mkstemp@LIBC (2)
148:   FUNC GLOBAL DEFAULT UND rename@LIBC (2)
149:   FUNC GLOBAL DEFAULT UND _ZN7android4base10StartsW
150:   FUNC GLOBAL DEFAULT UND _ZN7android4base5SplitERK
151:   FUNC GLOBAL DEFAULT UND _ZN7android4base8Basename
152:   FUNC GLOBAL DEFAULT UND _ZNKSt3__112basic_stringI
153:   FUNC GLOBAL DEFAULT UND _ZNSt3__112basic_stringIc
154:   FUNC GLOBAL DEFAULT UND _ZNSt3__112basic_stringIc
155:   FUNC GLOBAL DEFAULT UND _ZNSt3__112basic_stringIc
156:   FUNC GLOBAL DEFAULT UND _ZNSt3__112basic_stringIc
157:   FUNC GLOBAL DEFAULT UND _ZNSt3__113basic_ostreamI
158:   FUNC GLOBAL DEFAULT UND _ZNSt3__113basic_ostreamI
159:   FUNC GLOBAL DEFAULT UND _ZNSt3__113basic_ostreamI
160:   FUNC GLOBAL DEFAULT UND _ZNSt3__113basic_ostreamI
161:   FUNC GLOBAL DEFAULT UND _ZNSt3__113basic_ostreamI
162:   FUNC GLOBAL DEFAULT UND _ZNSt3__115basic_streambu
163:   FUNC GLOBAL DEFAULT UND _ZNSt3__115basic_streambu
164:   FUNC GLOBAL DEFAULT UND _ZNSt3__115basic_streambu
165:   FUNC GLOBAL DEFAULT UND _ZNSt3__115basic_streambu
166:   FUNC GLOBAL DEFAULT UND _ZNSt3__115basic_streambu
167:   FUNC GLOBAL DEFAULT UND _ZNSt3__115basic_streambu
168:   FUNC GLOBAL DEFAULT UND _ZNSt3__115basic_streambu
169:   FUNC GLOBAL DEFAULT UND _ZNSt3__115basic_streambu
170:   FUNC GLOBAL DEFAULT UND _ZNSt3__115basic_streambu
171:   FUNC GLOBAL DEFAULT UND _ZNSt3__18ios_base4initEP
172:   FUNC GLOBAL DEFAULT UND _ZNSt3__19basic_iosIcNS_1
173:   FUNC GLOBAL DEFAULT UND _ZNSt3__1plIcNS_11char_tr
174:   FUNC GLOBAL DEFAULT UND _ZTv0_n24_NSt3__113basic_
175:   FUNC GLOBAL DEFAULT UND _ZTv0_n24_NSt3__113basic_
176:   FUNC GLOBAL DEFAULT UND __cxa_guard_acquire
177:   FUNC GLOBAL DEFAULT UND __cxa_guard_release
178:   FUNC GLOBAL DEFAULT UND fmemopen@LIBC (2)
179:   FUNC GLOBAL DEFAULT UND getline@LIBC (2)
180:   FUNC GLOBAL DEFAULT UND strtok_r@LIBC (2)
181:   FUNC GLOBAL DEFAULT UND strtoull@LIBC (2)
182:   FUNC GLOBAL DEFAULT UND sysconf@LIBC (2)
183:   FUNC GLOBAL DEFAULT UND tolower@LIBC (2)
184:   FUNC GLOBAL DEFAULT UND _ZN7android4base11GetProp
185:   FUNC GLOBAL DEFAULT UND write@LIBC (2)
186:   FUNC WEAK DEFAULT UND android_set_abort_message@LIBC (2)
187:   FUNC GLOBAL DEFAULT 14 _ZN7android6volmgr4Disk14
188:   FUNC WEAK DEFAULT 14 _ZNSt3__120__shared_ptr_p
189:   FUNC GLOBAL DEFAULT 14 _ZN7android6volmgr12Publi
190:   FUNC GLOBAL DEFAULT 14 _ZN7android6volmgr10ForkE
191:   OBJECT WEAK DEFAULT 18 _ZTTNSt3__119basic_ostrin
192:   FUNC GLOBAL DEFAULT 14 _ZN7android6fs_mgr19GetVe
193:   FUNC GLOBAL DEFAULT 14 _ZN7android6volmgr4Disk11
194:   FUNC GLOBAL DEFAULT 14 _ZN7android6volmgr4Disk12
195:   FUNC WEAK DEFAULT 14 _ZNSt3__16vectorIN7androi
196:   OBJECT GLOBAL DEFAULT 23 blkid_debug_mask
197:   FUNC GLOBAL DEFAULT 14 blkid_dev_has_tag
198:   FUNC GLOBAL DEFAULT 14 _ZN7android6volmgr4Disk13
199:   FUNC GLOBAL DEFAULT 14 _ZN7android6volmgr4DiskC1
200:   OBJECT GLOBAL DEFAULT 18 _ZTVN7android6volmgr4Disk
201:   FUNC GLOBAL DEFAULT 14 _ZN7android6volmgr13Volum
202:   FUNC GLOBAL DEFAULT 14 blkid_get_dev
203:   OBJECT GLOBAL DEFAULT 18 _ZTVN7android6volmgr14Emu
204:   FUNC GLOBAL DEFAULT 14 _ZN7Process12checkSymLink
205:   FUNC GLOBAL DEFAULT 14 blkid_probe_all_new
206:   FUNC GLOBAL DEFAULT 14 _ZN7android6volmgr13Volum
207:   OBJECT GLOBAL DEFAULT 23 _ZN7android6volmgr21sFsck
208:   FUNC GLOBAL DEFAULT 14 _ZN7android6volmgr10Volum
209:   FUNC WEAK DEFAULT 14 _ZNSt3__16vectorINS_12bas
210:   FUNC GLOBAL DEFAULT 14 _ZN7android6fs_mgr15ReadF
211:   FUNC GLOBAL DEFAULT 14 _ZN7android6fs_mgr17ReadF
212:   FUNC WEAK DEFAULT 14 _ZNSt3__16vectorIN7androi
213:   FUNC GLOBAL DEFAULT 14 _ZN7android6volmgr13DiskP
214:   OBJECT GLOBAL DEFAULT 18 _ZTVN7android6volmgr13Dis
215:   FUNC GLOBAL DEFAULT 14 _ZN14NetlinkHandlerD1Ev
216:   FUNC GLOBAL DEFAULT 14 _ZN7android6volmgr4f2fs5M
217:   FUNC GLOBAL DEFAULT 14 _ZN7android6volmgr10Prepa
218:   OBJECT GLOBAL DEFAULT 23 _ZN7android6volmgr12sFsck
219:   FUNC GLOBAL DEFAULT 14 blkid_probe_all
220:   FUNC GLOBAL DEFAULT 14 _ZN7android6volmgr13DiskP
221:   FUNC GLOBAL DEFAULT 14 _ZN7Process14getProcessNa
222:   FUNC GLOBAL DEFAULT 14 _ZN7android6volmgr12Publi
223:   OBJECT GLOBAL DEFAULT 23 sehandle
224:   FUNC GLOBAL DEFAULT 14 _ZN7android6fs_mgr14GetBo
225:   FUNC GLOBAL DEFAULT 14 _ZN7android6volmgr13Volum
226:   FUNC WEAK DEFAULT 14 _ZNSt3__115basic_stringbu
227:   FUNC GLOBAL DEFAULT 14 blkid_new_dev
228:   FUNC WEAK DEFAULT 14 _ZNSt3__124__put_characte
229:   FUNC GLOBAL DEFAULT 14 _ZN7android6volmgr14Emula
230:   FUNC GLOBAL DEFAULT 14 _ZN7android6volmgr4Disk18
231:   OBJECT GLOBAL DEFAULT 18 _ZTV14NetlinkHandler
232:   FUNC GLOBAL DEFAULT 14 _ZN14NetlinkManagerC1Ev
233:   FUNC GLOBAL DEFAULT 14 _ZN7Process13checkFileMap
234:   FUNC GLOBAL DEFAULT 14 _ZN7android6volmgr15WipeB
235:   FUNC WEAK DEFAULT 14 _ZNSt3__115basic_stringbu
236:   FUNC GLOBAL DEFAULT 14 blkid_dev_next
237:   FUNC GLOBAL DEFAULT 14 blkid_known_fstype
238:   FUNC WEAK DEFAULT 14 _ZNSt3__16vectorINS_4pair
239:   FUNC GLOBAL DEFAULT 14 _ZN14NetlinkHandlerD2Ev
240:   FUNC GLOBAL DEFAULT 14 _ZN7android6volmgr12Publi
241:   FUNC GLOBAL DEFAULT 14 blkid_dev_set_search
242:   FUNC GLOBAL DEFAULT 14 _Z42fs_mgr_get_boot_confi
243:   FUNC WEAK DEFAULT 14 _ZNSt3__16vectorINS_4pair
244:   FUNC WEAK DEFAULT 14 _ZNSt3__1plIcNS_11char_tr
245:   FUNC GLOBAL DEFAULT 14 _ZN14NetlinkManager5start
246:   FUNC GLOBAL DEFAULT 14 _ZN7android6volmgr12Publi
247:   FUNC GLOBAL DEFAULT 14 _ZN7Process27checkFileDes
248:   FUNC WEAK DEFAULT 14 _ZNSt3__16vectorIN7androi
249:   FUNC GLOBAL DEFAULT 14 _ZN7android6volmgr13DiskP
250:   FUNC GLOBAL DEFAULT 14 _ZN14NetlinkHandler7onEve
251:   OBJECT GLOBAL DEFAULT 23 _ZN7android6volmgr13Volum
252:   FUNC WEAK DEFAULT 14 _ZN7android4base9ParseUin
253:   FUNC GLOBAL DEFAULT 14 _ZN7android6volmgr13Volum
254:   FUNC GLOBAL DEFAULT 14 _ZN7android6volmgr9GetDev
255:   FUNC GLOBAL DEFAULT 14 _ZN14NetlinkManagerC2Ev
256:   FUNC GLOBAL DEFAULT 14 _ZN7android6volmgr12Publi
257:   FUNC GLOBAL DEFAULT 14 uuid_is_null
258:   FUNC GLOBAL DEFAULT 14 _ZN7android6fs_mgr24Build
259:   FUNC GLOBAL DEFAULT 14 blkid_gc_cache
260:   FUNC GLOBAL DEFAULT 14 _Z22fs_mgr_get_slot_suffi
261:   FUNC GLOBAL DEFAULT 14 _ZN7android6volmgr4Disk17
262:   FUNC GLOBAL DEFAULT 14 _ZN7android6volmgr4DiskC2
263:   FUNC GLOBAL DEFAULT 14 _ZN7android6volmgr13Volum
264:   FUNC GLOBAL DEFAULT 14 blkid_free_dev
265:   FUNC GLOBAL DEFAULT 14 _ZN7android6fs_mgr22SkipM
266:   FUNC GLOBAL DEFAULT 14 _ZN7android6volmgr13Volum
267:   FUNC GLOBAL DEFAULT 14 _ZN7android6volmgr13Volum
268:   FUNC GLOBAL DEFAULT 14 blkid_get_cache
269:   FUNC GLOBAL DEFAULT 14 blkid_flush_cache
270:   FUNC GLOBAL DEFAULT 14 _Z24fs_mgr_parse_boot_con
271:   FUNC GLOBAL DEFAULT 14 _ZN7android6volmgr9BindMo
272:   FUNC GLOBAL DEFAULT 14 _ZN7Process11readSymLinkE
273:   FUNC WEAK DEFAULT 14 _ZNSt3__16vectorINS_12bas
274:   FUNC WEAK DEFAULT 14 _ZNSt3__16__treeINS_12bas
275:   FUNC GLOBAL DEFAULT 14 _ZN7android6volmgr12Publi
276:   FUNC GLOBAL DEFAULT 14 _ZN7android6volmgr12ReadM
277:   FUNC GLOBAL DEFAULT 14 _ZN7android6volmgr10Volum
278:   FUNC GLOBAL DEFAULT 14 _ZN7android6volmgr14Emula
279:   FUNC GLOBAL DEFAULT 14 _ZN7android6volmgr14Emula
280:   FUNC GLOBAL DEFAULT 14 _ZN14NetlinkHandlerC1Ei
281:   FUNC GLOBAL DEFAULT 14 blkid_strndup
282:   FUNC GLOBAL DEFAULT 14 _ZN7android6volmgr4DiskD0
283:   FUNC GLOBAL DEFAULT 14 _ZN7android6volmgr10Volum
284:   FUNC GLOBAL DEFAULT 14 _ZN14NetlinkHandler5start
285:   FUNC GLOBAL DEFAULT 14 _ZN7android6volmgr13Volum
286:   FUNC WEAK DEFAULT 14 _ZN7android4base4JoinINSt
287:   FUNC GLOBAL DEFAULT 14 blkid_free_tag
288:   FUNC GLOBAL DEFAULT 14 uuid_unparse
289:   OBJECT GLOBAL DEFAULT 23 _ZN14NetlinkManager9sInst
290:   FUNC GLOBAL DEFAULT 14 _ZN7android6volmgr13Volum
291:   FUNC GLOBAL DEFAULT 14 _ZN7android6volmgr4Disk7d
292:   FUNC GLOBAL DEFAULT 14 _ZN7android6volmgr21IsFil
293:   FUNC GLOBAL DEFAULT 14 _ZN7android6volmgr10Volum
294:   OBJECT GLOBAL DEFAULT 18 _ZTVN7android6volmgr10Vol
295:   FUNC GLOBAL DEFAULT 14 _Z28fs_mgr_get_other_slot
296:   FUNC GLOBAL DEFAULT 14 _ZN7android6volmgr10Volum
297:   FUNC GLOBAL DEFAULT 14 _ZN7android6volmgr14Emula
298:   FUNC GLOBAL DEFAULT 14 _ZN14NetlinkHandlerC2Ei
299:   OBJECT GLOBAL DEFAULT 18 _ZTVN7android6volmgr12Pub
300:   OBJECT WEAK DEFAULT 18 _ZTVNSt3__115basic_string
301:   FUNC GLOBAL DEFAULT 14 blkid_tag_iterate_end
302:   FUNC GLOBAL DEFAULT 14 _ZN7android6volmgr4DiskD1
303:   FUNC GLOBAL DEFAULT 14 _ZN7android6volmgr13Volum
304:   FUNC GLOBAL DEFAULT 14 uuid_unparse_lower
305:   FUNC GLOBAL DEFAULT 14 _ZN7android6volmgr17Destr
306:   FUNC GLOBAL DEFAULT 14 _ZN7android6volmgr10Volum
307:   FUNC WEAK DEFAULT 14 _ZNKSt3__115basic_stringb
308:   FUNC GLOBAL DEFAULT 14 blkid_put_cache
309:   FUNC WEAK DEFAULT 14 _ZNSt3__16vectorINS_10sha
310:   FUNC GLOBAL DEFAULT 14 _ZN7android6volmgr14Emula
311:   FUNC GLOBAL DEFAULT 14 _ZN14NetlinkManagerD0Ev
312:   FUNC GLOBAL DEFAULT 14 _ZN7android6volmgr10Volum
313:   FUNC GLOBAL DEFAULT 14 _Z22fs_mgr_get_boot_confi
314:   FUNC GLOBAL DEFAULT 14 _ZN7android6volmgr22KillP
315:   FUNC GLOBAL DEFAULT 14 blkid_get_dev_size
316:   FUNC GLOBAL DEFAULT 14 _ZN7android6volmgr10Volum
317:   FUNC GLOBAL DEFAULT 14 _ZN7android6volmgr12Publi
318:   FUNC GLOBAL DEFAULT 14 blkid_dev_devname
319:   FUNC GLOBAL DEFAULT 14 blkid_strdup
320:   FUNC GLOBAL DEFAULT 14 _Z28fs_mgr_update_for_slo
321:   FUNC WEAK DEFAULT 14 _ZNSt3__16__treeINS_12bas
322:   FUNC GLOBAL DEFAULT 14 _ZN7android6volmgr10Volum
323:   FUNC GLOBAL DEFAULT 14 _ZN7android6volmgr14Emula
324:   FUNC GLOBAL DEFAULT 14 _ZN7android6volmgr4ext45M
325:   FUNC GLOBAL DEFAULT 14 blkid_dev_iterate_begin
326:   FUNC GLOBAL DEFAULT 14 _ZN7android6volmgr4DiskD2
327:   FUNC GLOBAL DEFAULT 14 _ZN7android6volmgr13DiskP
328:   FUNC GLOBAL DEFAULT 14 _ZN14NetlinkManager8Insta
329:   FUNC GLOBAL DEFAULT 14 _ZN7android6volmgr13Volum
330:   FUNC GLOBAL DEFAULT 14 _ZN7android6volmgr4Disk6c
331:   FUNC GLOBAL DEFAULT 14 _ZN7android6volmgr5exfat5
332:   FUNC GLOBAL DEFAULT 14 blkid_verify
333:   FUNC GLOBAL DEFAULT 14 _Z16is_dt_compatiblev
334:   FUNC WEAK DEFAULT 14 _ZNSt3__16__treeINS_12bas
335:   FUNC GLOBAL DEFAULT 14 _ZN7android6volmgr4Disk12
336:   FUNC WEAK DEFAULT 14 _ZNSt3__120__shared_ptr_p
337:   FUNC GLOBAL DEFAULT 14 _ZN7android6volmgr10Volum
338:   FUNC GLOBAL DEFAULT 14 _ZN14NetlinkManagerD1Ev
339:   FUNC GLOBAL DEFAULT 14 _ZN7android6volmgr4vfat5M
340:   FUNC GLOBAL DEFAULT 14 _ZN7android6volmgr13Volum
341:   FUNC WEAK DEFAULT 14 _ZNSt3__115basic_stringbu
342:   FUNC GLOBAL DEFAULT 14 _ZN7android6volmgr4Disk10
343:   FUNC GLOBAL DEFAULT 14 _ZN14NetlinkHandler4stopE
344:   FUNC GLOBAL DEFAULT 14 blkid_parse_tag_string
345:   FUNC GLOBAL DEFAULT 14 uuid_unpack
346:   FUNC WEAK DEFAULT 14 _ZNSt3__16vectorIN7androi
347:   FUNC WEAK DEFAULT 14 _ZNSt3__16vectorINS_4pair
348:   FUNC GLOBAL DEFAULT 14 _ZN7android6volmgr10Volum
349:   FUNC GLOBAL DEFAULT 14 _ZN7android6volmgr12Publi
350:   FUNC GLOBAL DEFAULT 14 _ZN7android6fs_mgr16ReadD
351:   FUNC GLOBAL DEFAULT 14 blkid__scan_dir
352:   FUNC GLOBAL DEFAULT 14 _Z18get_android_dt_dirv
353:   FUNC WEAK DEFAULT 14 _ZNSt3__127__tree_balance
354:   FUNC GLOBAL DEFAULT 14 _ZN7android6volmgr13DiskP
355:   FUNC GLOBAL DEFAULT 14 blkid_find_tag_dev
356:   FUNC GLOBAL DEFAULT 14 _ZN7android6volmgr10Volum
357:   FUNC GLOBAL DEFAULT 14 _ZN7android6volmgr10Volum
358:   OBJECT GLOBAL DEFAULT 18 _ZTV14NetlinkManager
359:   FUNC GLOBAL DEFAULT 14 _ZN7Process27checkFileDes
360:   OBJECT GLOBAL DEFAULT 23 _ZN7android6volmgr13sBlki
361:   FUNC WEAK DEFAULT 14 _ZNSt3__115basic_stringbu
362:   FUNC GLOBAL DEFAULT 14 blkid_dev_iterate_end
363:   FUNC GLOBAL DEFAULT 14 _ZN7android6volmgr13DiskP
364:   FUNC GLOBAL DEFAULT 14 _ZN14NetlinkManagerD2Ev
365:   FUNC GLOBAL DEFAULT 14 _ZN7Process6getPidEPKc
366:   FUNC GLOBAL DEFAULT 14 _ZN7android6volmgr13Volum
367:   OBJECT WEAK DEFAULT 18 _ZTCNSt3__119basic_ostrin
368:   OBJECT WEAK DEFAULT 18 _ZTVNSt3__119basic_ostrin
369:   FUNC GLOBAL DEFAULT 14 blkid_read_cache
370:   FUNC GLOBAL DEFAULT 14 blkid_tag_iterate_begin
371:   FUNC GLOBAL DEFAULT 14 _ZN7android6volmgr19IsRun
372:   FUNC GLOBAL DEFAULT 14 _ZN7android6volmgr10Volum
373:   FUNC GLOBAL DEFAULT 14 _ZN7android6volmgr10Volum
374:   FUNC GLOBAL DEFAULT 14 _ZN7android6volmgr10Volum
375:   FUNC GLOBAL DEFAULT 14 _ZN7android6volmgr13Volum
376:   FUNC GLOBAL DEFAULT 14 blkid_devno_to_devname
377:   FUNC GLOBAL DEFAULT 14 _ZN7android6volmgr13Volum
378:   FUNC GLOBAL DEFAULT 14 _ZN7android6fs_mgr21GetEn
379:   FUNC GLOBAL DEFAULT 14 _ZN7android6volmgr12Publi
380:   FUNC WEAK DEFAULT 14 _ZN7android4base8ParseInt
381:   FUNC GLOBAL DEFAULT 14 _Z34fs_mgr_get_boot_confi
382:   FUNC GLOBAL DEFAULT 14 _ZN7android6volmgr10Volum
383:   FUNC GLOBAL DEFAULT 14 _ZN7android6volmgr16Creat
384:   FUNC GLOBAL DEFAULT 14 _ZN7android6volmgr13DiskP
385:   FUNC GLOBAL DEFAULT 14 _ZN7android6volmgr14Emula
386:   FUNC GLOBAL DEFAULT 14 _ZN7Process26killProcesse
387:   OBJECT GLOBAL DEFAULT 23 _ZN7android6volmgr22sBlki
388:   FUNC GLOBAL DEFAULT 14 _ZN7android6volmgr10Volum
389:   FUNC GLOBAL DEFAULT 14 _ZN7android6volmgr21ReadM
390:   OBJECT WEAK DEFAULT 18 _ZTVNSt3__120__shared_ptr
391:   FUNC GLOBAL DEFAULT 14 _ZN7android6volmgr10Volum
392:   FUNC GLOBAL DEFAULT 14 _ZN7Process13checkFileMap
393:   FUNC GLOBAL DEFAULT 14 _ZN7android6volmgr10Volum
394:   FUNC GLOBAL DEFAULT 14 _ZN7android6volmgr13Volum
395:   FUNC GLOBAL DEFAULT 14 _ZN14NetlinkManager4stopE
396:   FUNC GLOBAL DEFAULT 14 blkid_llseek
397:   FUNC GLOBAL DEFAULT 14 blkid_set_tag
398:   FUNC GLOBAL DEFAULT 14 _ZN7android6volmgr4Disk10
399:   FUNC GLOBAL DEFAULT 14 blkid_get_devname
400:   FUNC GLOBAL DEFAULT 14 _ZN7android6volmgr14Emula
401:   FUNC GLOBAL DEFAULT 14 _ZN7Process21pathMatchesM
402:   FUNC GLOBAL DEFAULT 14 blkid_get_tag_value
403:   FUNC GLOBAL DEFAULT 14 _ZN7android6volmgr13Volum
404:   FUNC GLOBAL DEFAULT 14 _ZN7android6volmgr10ForkE
405:   FUNC GLOBAL DEFAULT 14 _ZN7android6volmgr13Volum
406:   FUNC GLOBAL DEFAULT 14 blkid_tag_next
407:   FUNC GLOBAL DEFAULT 14 uuid_unparse_upper
408:   FUNC WEAK DEFAULT 14 _ZNSt3__16__treeINS_12bas
409:   FUNC GLOBAL DEFAULT 14 _ZN7android6volmgr12Force
410:   FUNC GLOBAL DEFAULT 14 _ZN7android6volmgr10Volum
411:   FUNC GLOBAL DEFAULT 14 blkid_find_dev_with_tag
412:   FUNC GLOBAL DEFAULT 14 _ZN7android6fs_mgr32GetEn
413:   FUNC GLOBAL DEFAULT 14 _ZN7android6volmgr12Publi
414:   FUNC GLOBAL DEFAULT 14 _ZN14NetlinkHandlerD0Ev
415:   FUNC GLOBAL DEFAULT 14 _ZN7android6volmgr4ntfs5M
