 0x000000000000000e (SONAME)             Library soname: [libbootloader_message.so]
  
Symbol   contains 240 entries:
Num:   Type Bind Vis Ndx Name
0:   NOTYPE LOCAL DEFAULT UND
1:   FUNC GLOBAL DEFAULT UND __cxa_finalize@LIBC (2)
2:   FUNC GLOBAL DEFAULT UND __cxa_atexit@LIBC (2)
3:   FUNC GLOBAL DEFAULT UND _ZN7android4base10WriteFu
4:   FUNC GLOBAL DEFAULT UND _ZN7android4base12StringP
5:   FUNC GLOBAL DEFAULT UND _ZN7android4base9ReadFull
6:   FUNC GLOBAL DEFAULT UND _ZNKSt3__112basic_stringI
7:   FUNC GLOBAL DEFAULT UND _ZNKSt3__121__basic_strin
8:   FUNC GLOBAL DEFAULT UND _ZNSt3__112basic_stringIc
9:   FUNC GLOBAL DEFAULT UND _ZNSt3__112basic_stringIc
10:   FUNC GLOBAL DEFAULT UND _ZNSt3__112basic_stringIc
11:   FUNC GLOBAL DEFAULT UND _ZNSt3__112basic_stringIc
12:   FUNC GLOBAL DEFAULT UND _ZNSt3__112basic_stringIc
13:   FUNC GLOBAL DEFAULT UND _ZNSt3__112basic_stringIc
14:   FUNC GLOBAL DEFAULT UND _ZdlPv
15:   FUNC GLOBAL DEFAULT UND _Znwm
16:   FUNC GLOBAL DEFAULT UND __errno@LIBC (2)
17:   FUNC GLOBAL DEFAULT UND __open_2@LIBC (2)
18:   FUNC GLOBAL DEFAULT UND __stack_chk_fail@LIBC (2)
19:   FUNC GLOBAL DEFAULT UND __strlcat_chk@LIBC (2)
20:   FUNC GLOBAL DEFAULT UND __strlcpy_chk@LIBC (2)
21:   FUNC WEAK DEFAULT UND android_fdsan_close_with_@LIBC_Q (3)
22:   FUNC WEAK DEFAULT UND android_fdsan_create_owne@LIBC_Q (3)
23:   FUNC WEAK DEFAULT UND android_fdsan_exchange_ow@LIBC_Q (3)
24:   FUNC GLOBAL DEFAULT UND close@LIBC (2)
25:   FUNC GLOBAL DEFAULT UND fsync@LIBC (2)
26:   FUNC GLOBAL DEFAULT UND lseek@LIBC (2)
27:   FUNC GLOBAL DEFAULT UND memcpy@LIBC (2)
28:   FUNC GLOBAL DEFAULT UND memset@LIBC (2)
29:   FUNC GLOBAL DEFAULT UND sleep@LIBC (2)
30:   FUNC GLOBAL DEFAULT UND stat@LIBC (2)
31:   FUNC GLOBAL DEFAULT UND strerror@LIBC (2)
32:   FUNC GLOBAL DEFAULT UND strlen@LIBC (2)
33:   FUNC GLOBAL DEFAULT UND _ZN7android4base10LogMess
34:   FUNC GLOBAL DEFAULT UND _ZN7android4base10LogMess
35:   FUNC GLOBAL DEFAULT UND _ZN7android4base10LogMess
36:   FUNC GLOBAL DEFAULT UND _ZN7android4base10StartsW
37:   FUNC GLOBAL DEFAULT UND _ZN7android4base16ReadFil
38:   FUNC GLOBAL DEFAULT UND _ZN7android4base21GetMini
39:   FUNC GLOBAL DEFAULT UND _ZN7android4base5SplitERK
40:   FUNC GLOBAL DEFAULT UND _ZN7android4base8Basename
41:   FUNC GLOBAL DEFAULT UND _ZNKSt3__112basic_stringI
42:   FUNC GLOBAL DEFAULT UND _ZNKSt3__120__vector_base
43:   FUNC GLOBAL DEFAULT UND _ZNKSt3__16locale9use_fac
44:   FUNC GLOBAL DEFAULT UND _ZNKSt3__18ios_base6getlo
45:   FUNC GLOBAL DEFAULT UND _ZNSt3__112basic_stringIc
46:   FUNC GLOBAL DEFAULT UND _ZNSt3__112basic_stringIc
47:   FUNC GLOBAL DEFAULT UND _ZNSt3__112basic_stringIc
48:   FUNC GLOBAL DEFAULT UND _ZNSt3__112basic_stringIc
49:   FUNC GLOBAL DEFAULT UND _ZNSt3__112basic_stringIc
50:   FUNC GLOBAL DEFAULT UND _ZNSt3__113basic_ostreamI
51:   FUNC GLOBAL DEFAULT UND _ZNSt3__113basic_ostreamI
52:   FUNC GLOBAL DEFAULT UND _ZNSt3__113basic_ostreamI
53:   FUNC GLOBAL DEFAULT UND _ZNSt3__113basic_ostreamI
54:   FUNC GLOBAL DEFAULT UND _ZNSt3__113basic_ostreamI
55:   FUNC GLOBAL DEFAULT UND _ZNSt3__113basic_ostreamI
56:   FUNC GLOBAL DEFAULT UND _ZNSt3__113basic_ostreamI
57:   FUNC GLOBAL DEFAULT UND _ZNSt3__115basic_streambu
58:   FUNC GLOBAL DEFAULT UND _ZNSt3__115basic_streambu
59:   FUNC GLOBAL DEFAULT UND _ZNSt3__115basic_streambu
60:   FUNC GLOBAL DEFAULT UND _ZNSt3__115basic_streambu
61:   FUNC GLOBAL DEFAULT UND _ZNSt3__115basic_streambu
62:   FUNC GLOBAL DEFAULT UND _ZNSt3__115basic_streambu
63:   FUNC GLOBAL DEFAULT UND _ZNSt3__115basic_streambu
64:   FUNC GLOBAL DEFAULT UND _ZNSt3__115basic_streambu
65:   FUNC GLOBAL DEFAULT UND _ZNSt3__115basic_streambu
66:   OBJECT GLOBAL DEFAULT UND _ZNSt3__15ctypeIcE2idE
67:   FUNC GLOBAL DEFAULT UND _ZNSt3__16localeD1Ev
68:   FUNC GLOBAL DEFAULT UND _ZNSt3__18ios_base4initEP
69:   FUNC GLOBAL DEFAULT UND _ZNSt3__18ios_base5clearE
70:   FUNC GLOBAL DEFAULT UND _ZNSt3__19basic_iosIcNS_1
71:   FUNC GLOBAL DEFAULT UND _ZNSt3__1plIcNS_11char_tr
72:   FUNC GLOBAL DEFAULT UND _ZTv0_n24_NSt3__113basic_
73:   FUNC GLOBAL DEFAULT UND _ZTv0_n24_NSt3__113basic_
74:   FUNC GLOBAL DEFAULT UND __cxa_guard_acquire
75:   FUNC GLOBAL DEFAULT UND __cxa_guard_release
76:   FUNC GLOBAL DEFAULT UND __strchr_chk@LIBC (2)
77:   FUNC GLOBAL DEFAULT UND abort@LIBC (2)
78:   FUNC GLOBAL DEFAULT UND access@LIBC (2)
79:   FUNC GLOBAL DEFAULT UND __fgets_chk@LIBC (2)
80:   FUNC GLOBAL DEFAULT UND __strlen_chk@LIBC (2)
81:   FUNC GLOBAL DEFAULT UND __vsnprintf_chk@LIBC (2)
82:   FUNC GLOBAL DEFAULT UND __vsprintf_chk@LIBC (2)
83:   FUNC GLOBAL DEFAULT UND closedir@LIBC (2)
84:   FUNC GLOBAL DEFAULT UND free@LIBC (2)
85:   FUNC GLOBAL DEFAULT UND lstat@LIBC (2)
86:   FUNC GLOBAL DEFAULT UND malloc@LIBC (2)
87:   FUNC GLOBAL DEFAULT UND opendir@LIBC (2)
88:   FUNC GLOBAL DEFAULT UND readdir@LIBC (2)
89:   FUNC GLOBAL DEFAULT UND strncpy@LIBC (2)
90:   FUNC GLOBAL DEFAULT UND __umask_chk@LIBC (2)
91:   FUNC GLOBAL DEFAULT UND fchmod@LIBC (2)
92:   FUNC GLOBAL DEFAULT UND fclose@LIBC (2)
93:   FUNC GLOBAL DEFAULT UND fdopen@LIBC (2)
94:   FUNC GLOBAL DEFAULT UND fopen@LIBC (2)
95:   FUNC GLOBAL DEFAULT UND fprintf@LIBC (2)
96:   FUNC GLOBAL DEFAULT UND link@LIBC (2)
97:   FUNC GLOBAL DEFAULT UND mkstemp@LIBC (2)
98:   FUNC GLOBAL DEFAULT UND rename@LIBC (2)
99:   FUNC GLOBAL DEFAULT UND unlink@LIBC (2)
100:   FUNC GLOBAL DEFAULT UND fgets@LIBC (2)
101:   FUNC GLOBAL DEFAULT UND fstat@LIBC (2)
102:   FUNC GLOBAL DEFAULT UND isspace@LIBC (2)
103:   FUNC GLOBAL DEFAULT UND strchr@LIBC (2)
104:   FUNC GLOBAL DEFAULT UND strcmp@LIBC (2)
105:   FUNC GLOBAL DEFAULT UND strncmp@LIBC (2)
106:   FUNC GLOBAL DEFAULT UND strrchr@LIBC (2)
107:   FUNC GLOBAL DEFAULT UND strtol@LIBC (2)
108:   FUNC GLOBAL DEFAULT UND strtoul@LIBC (2)
109:   FUNC GLOBAL DEFAULT UND __read_chk@LIBC (2)
110:   FUNC GLOBAL DEFAULT UND __strrchr_chk@LIBC (2)
111:   FUNC GLOBAL DEFAULT UND ioctl@LIBC (2)
112:   FUNC GLOBAL DEFAULT UND uname@LIBC (2)
113:   FUNC GLOBAL DEFAULT UND difftime@LIBC (2)
114:   FUNC GLOBAL DEFAULT UND feof@LIBC (2)
115:   FUNC GLOBAL DEFAULT UND memcmp@LIBC (2)
116:   FUNC GLOBAL DEFAULT UND read@LIBC (2)
117:   FUNC GLOBAL DEFAULT UND realloc@LIBC (2)
118:   FUNC GLOBAL DEFAULT UND time@LIBC (2)
119:   FUNC GLOBAL DEFAULT UND sscanf@LIBC (2)
120:   FUNC GLOBAL DEFAULT UND calloc@LIBC (2)
121:   FUNC GLOBAL DEFAULT UND strcpy@LIBC (2)
122:   FUNC GLOBAL DEFAULT UND getegid@LIBC (2)
123:   FUNC GLOBAL DEFAULT UND getenv@LIBC (2)
124:   FUNC GLOBAL DEFAULT UND geteuid@LIBC (2)
125:   FUNC GLOBAL DEFAULT UND getgid@LIBC (2)
126:   FUNC GLOBAL DEFAULT UND getuid@LIBC (2)
127:   FUNC GLOBAL DEFAULT UND syscall@LIBC (2)
128:   FUNC GLOBAL DEFAULT UND fmemopen@LIBC (2)
129:   FUNC GLOBAL DEFAULT UND getline@LIBC (2)
130:   FUNC GLOBAL DEFAULT UND memchr@LIBC (2)
131:   FUNC GLOBAL DEFAULT UND strtok_r@LIBC (2)
132:   FUNC GLOBAL DEFAULT UND strtoll@LIBC (2)
133:   FUNC GLOBAL DEFAULT UND strtoull@LIBC (2)
134:   FUNC GLOBAL DEFAULT UND sysconf@LIBC (2)
135:   FUNC GLOBAL DEFAULT UND tolower@LIBC (2)
136:   FUNC GLOBAL DEFAULT UND _ZN7android4base11GetProp
137:   FUNC GLOBAL DEFAULT UND write@LIBC (2)
138:   FUNC WEAK DEFAULT UND android_set_abort_message@LIBC (2)
139:   FUNC GLOBAL DEFAULT 14 blkid_dev_has_tag
140:   FUNC GLOBAL DEFAULT 14 uuid_unparse
141:   FUNC GLOBAL DEFAULT 14 _ZN7android6fs_mgr32GetEn
142:   FUNC WEAK DEFAULT 14 _ZNSt3__16vectorIN7androi
143:   OBJECT WEAK DEFAULT 19 _ZTCNSt3__119basic_ostrin
144:   FUNC GLOBAL DEFAULT 14 _ZN7android6fs_mgr16ReadD
145:   FUNC GLOBAL DEFAULT 14 blkid_known_fstype
146:   FUNC GLOBAL DEFAULT 14 blkid_flush_cache
147:   FUNC GLOBAL DEFAULT 14 blkid_find_dev_with_tag
148:   FUNC WEAK DEFAULT 14 _ZNKSt3__115basic_stringb
149:   FUNC WEAK DEFAULT 14 _ZNSt3__16__treeINS_12bas
150:   FUNC GLOBAL DEFAULT 14 _Z24write_bootloader_mess
151:   FUNC GLOBAL DEFAULT 14 blkid_free_dev
152:   FUNC GLOBAL DEFAULT 14 blkid_find_tag_dev
153:   FUNC GLOBAL DEFAULT 14 _Z16is_dt_compatiblev
154:   FUNC WEAK DEFAULT 14 _ZN7android4base8ParseInt
155:   FUNC GLOBAL DEFAULT 14 _ZN7android6fs_mgr21GetEn
156:   FUNC WEAK DEFAULT 14 _ZNSt3__127__tree_balance
157:   FUNC GLOBAL DEFAULT 14 blkid_verify
158:   FUNC GLOBAL DEFAULT 14 _Z22fs_mgr_get_slot_suffi
159:   FUNC GLOBAL DEFAULT 14 _Z25SetMiscBlockDeviceFor
160:   FUNC GLOBAL DEFAULT 14 blkid_dev_next
161:   FUNC GLOBAL DEFAULT 14 blkid_new_dev
162:   FUNC GLOBAL DEFAULT 14 blkid_llseek
163:   FUNC GLOBAL DEFAULT 14 blkid_free_tag
164:   FUNC GLOBAL DEFAULT 14 _ZN7android6fs_mgr24Build
165:   FUNC WEAK DEFAULT 14 _ZNSt3__16vectorINS_12bas
166:   FUNC GLOBAL DEFAULT 14 blkid_probe_all
167:   FUNC GLOBAL DEFAULT 14 blkid_probe_all_new
168:   FUNC GLOBAL DEFAULT 14 blkid_strdup
169:   FUNC GLOBAL DEFAULT 14 blkid_tag_iterate_end
170:   FUNC WEAK DEFAULT 14 _ZNSt3__115basic_stringbu
171:   FUNC WEAK DEFAULT 14 _ZNSt3__16vectorIN7androi
172:   FUNC GLOBAL DEFAULT 14 _Z24clear_bootloader_mess
173:   FUNC GLOBAL DEFAULT 14 _Z28ReadMiscPartitionVend
174:   FUNC GLOBAL DEFAULT 14 blkid_gc_cache
175:   OBJECT WEAK DEFAULT 19 _ZTVNSt3__119basic_ostrin
176:   FUNC GLOBAL DEFAULT 14 write_bootloader_message
177:   FUNC GLOBAL DEFAULT 14 _ZN7android6fs_mgr19GetVe
178:   FUNC WEAK DEFAULT 14 _ZNSt3__115basic_stringbu
179:   FUNC WEAK DEFAULT 14 _ZNSt3__1plIcNS_11char_tr
180:   FUNC GLOBAL DEFAULT 14 blkid__scan_dir
181:   FUNC GLOBAL DEFAULT 14 uuid_unparse_lower
182:   FUNC WEAK DEFAULT 14 _ZNSt3__16vectorINS_4pair
183:   FUNC GLOBAL DEFAULT 14 blkid_devno_to_devname
184:   FUNC GLOBAL DEFAULT 14 _ZN7android6fs_mgr22SkipM
185:   FUNC GLOBAL DEFAULT 14 _Z42fs_mgr_get_boot_confi
186:   FUNC WEAK DEFAULT 14 _ZNSt3__16vectorINS_4pair
187:   FUNC WEAK DEFAULT 14 _ZNSt3__16vectorINS_4pair
188:   FUNC GLOBAL DEFAULT 14 blkid_get_dev_size
189:   FUNC GLOBAL DEFAULT 14 uuid_unparse_upper
190:   FUNC WEAK DEFAULT 14 _ZN7android4base4JoinINSt
191:   FUNC GLOBAL DEFAULT 14 _ZN7android6fs_mgr17ReadF
192:   OBJECT WEAK DEFAULT 19 _ZTVNSt3__115basic_string
193:   FUNC GLOBAL DEFAULT 14 blkid_read_cache
194:   FUNC GLOBAL DEFAULT 14 blkid_parse_tag_string
195:   FUNC GLOBAL DEFAULT 14 _Z18get_android_dt_dirv
196:   OBJECT WEAK DEFAULT 19 _ZTTNSt3__119basic_ostrin
197:   FUNC GLOBAL DEFAULT 14 blkid_dev_devname
198:   FUNC GLOBAL DEFAULT 14 blkid_get_tag_value
199:   FUNC GLOBAL DEFAULT 14 _Z33get_bootloader_messag
200:   OBJECT GLOBAL DEFAULT 23 blkid_debug_mask
201:   FUNC GLOBAL DEFAULT 14 blkid_dev_set_search
202:   FUNC GLOBAL DEFAULT 14 _Z34fs_mgr_get_boot_confi
203:   FUNC GLOBAL DEFAULT 14 _Z35update_bootloader_mes
204:   FUNC GLOBAL DEFAULT 14 _ZN7android6fs_mgr14GetBo
205:   FUNC WEAK DEFAULT 14 _ZNSt3__16__treeINS_12bas
206:   FUNC GLOBAL DEFAULT 14 _Z17read_wipe_packagePNSt
207:   FUNC GLOBAL DEFAULT 14 _Z18write_wipe_packageRKN
208:   FUNC GLOBAL DEFAULT 14 _Z28read_bootloader_messa
209:   FUNC GLOBAL DEFAULT 14 blkid_get_devname
210:   FUNC GLOBAL DEFAULT 14 blkid_set_tag
211:   FUNC GLOBAL DEFAULT 14 uuid_is_null
212:   FUNC GLOBAL DEFAULT 14 _Z28fs_mgr_get_other_slot
213:   FUNC GLOBAL DEFAULT 14 _Z23write_reboot_bootload
214:   FUNC GLOBAL DEFAULT 14 blkid_dev_iterate_end
215:   FUNC GLOBAL DEFAULT 14 uuid_unpack
216:   FUNC GLOBAL DEFAULT 14 _Z28fs_mgr_update_for_slo
217:   FUNC WEAK DEFAULT 14 _ZNSt3__115basic_stringbu
218:   FUNC WEAK DEFAULT 14 _ZNSt3__115basic_stringbu
219:   FUNC GLOBAL DEFAULT 14 write_reboot_bootloader
220:   FUNC WEAK DEFAULT 14 _ZNSt3__16vectorIN7androi
221:   FUNC GLOBAL DEFAULT 14 _Z29WriteMiscPartitionVen
222:   FUNC GLOBAL DEFAULT 14 blkid_strndup
223:   FUNC GLOBAL DEFAULT 14 _Z27write_bootloader_mess
224:   FUNC GLOBAL DEFAULT 14 blkid_get_dev
225:   FUNC GLOBAL DEFAULT 14 blkid_tag_iterate_begin
226:   FUNC WEAK DEFAULT 14 _ZN7android4base9ParseUin
227:   FUNC WEAK DEFAULT 14 _ZNSt3__16__treeINS_12bas
228:   FUNC GLOBAL DEFAULT 14 _Z24write_bootloader_mess
229:   FUNC GLOBAL DEFAULT 14 blkid_get_cache
230:   FUNC GLOBAL DEFAULT 14 blkid_put_cache
231:   FUNC GLOBAL DEFAULT 14 blkid_tag_next
232:   FUNC GLOBAL DEFAULT 14 _Z22fs_mgr_get_boot_confi
233:   FUNC WEAK DEFAULT 14 _ZNSt3__124__put_characte
234:   FUNC GLOBAL DEFAULT 14 _Z24fs_mgr_parse_boot_con
235:   FUNC GLOBAL DEFAULT 14 _Z25update_bootloader_mes
236:   FUNC GLOBAL DEFAULT 14 blkid_dev_iterate_begin
237:   FUNC GLOBAL DEFAULT 14 _Z23read_bootloader_messa
238:   FUNC GLOBAL DEFAULT 14 _ZN7android6fs_mgr15ReadF
239:   FUNC WEAK DEFAULT 14 _ZNSt3__16__treeINS_12bas
