 0x000000000000000e (SONAME)             Library soname: [libm.so]
  
Symbol   contains 220 entries:
Num:   Type Bind Vis Ndx Name
0:   NOTYPE LOCAL DEFAULT UND
1:   FUNC GLOBAL DEFAULT 7 j1f@@LIBC
2:   FUNC GLOBAL DEFAULT 7 sincosl@@LIBC
3:   FUNC GLOBAL DEFAULT 7 nexttoward@@LIBC
4:   FUNC GLOBAL DEFAULT 7 ceill@@LIBC
5:   FUNC GLOBAL DEFAULT 7 expl@@LIBC
6:   FUNC GLOBAL DEFAULT 7 log10@@LIBC
7:   FUNC GLOBAL DEFAULT 7 acos@@LIBC
8:   FUNC GLOBAL DEFAULT 7 copysignl@@LIBC
9:   FUNC GLOBAL DEFAULT 7 finite@@LIBC
10:   FUNC GLOBAL DEFAULT 7 atan2f@@LIBC
11:   FUNC GLOBAL DEFAULT 7 atanhf@@LIBC
12:   FUNC GLOBAL DEFAULT 7 logbl@@LIBC
13:   FUNC GLOBAL DEFAULT 7 modf@@LIBC
14:   FUNC GLOBAL DEFAULT 7 trunc@@LIBC
15:   FUNC GLOBAL DEFAULT 7 gamma@@LIBC
16:   FUNC GLOBAL DEFAULT 7 truncf@@LIBC
17:   FUNC GLOBAL DEFAULT 7 asinf@@LIBC
18:   FUNC GLOBAL DEFAULT 7 coshf@@LIBC
19:   FUNC GLOBAL DEFAULT 7 exp2f@@LIBC
20:   FUNC GLOBAL DEFAULT 7 frexpf@@LIBC
21:   FUNC GLOBAL DEFAULT 7 gammaf@@LIBC
22:   FUNC GLOBAL DEFAULT 7 llrintf@@LIBC
23:   FUNC GLOBAL DEFAULT 7 nan@@LIBC
24:   FUNC GLOBAL DEFAULT 7 rintf@@LIBC
25:   FUNC GLOBAL DEFAULT 7 tan@@LIBC
26:   FUNC GLOBAL DEFAULT 7 asinh@@LIBC
27:   FUNC GLOBAL DEFAULT 7 scalbf@@LIBC
28:   FUNC GLOBAL DEFAULT 7 acosf@@LIBC
29:   FUNC GLOBAL DEFAULT 7 atan2l@@LIBC
30:   FUNC GLOBAL DEFAULT 7 atanhl@@LIBC
31:   FUNC GLOBAL DEFAULT 7 fegetenv@@LIBC
32:   FUNC GLOBAL DEFAULT 7 fegetexceptflag@@LIBC
33:   FUNC GLOBAL DEFAULT 7 pow@@LIBC
34:   FUNC GLOBAL DEFAULT 7 powf@@LIBC
35:   FUNC GLOBAL DEFAULT 7 sinf@@LIBC
36:   FUNC GLOBAL DEFAULT 7 expm1@@LIBC
37:   FUNC GLOBAL DEFAULT 7 log1p@@LIBC
38:   FUNC GLOBAL DEFAULT 7 nextafterf@@LIBC
39:   FUNC GLOBAL DEFAULT 7 acosh@@LIBC
40:   FUNC GLOBAL DEFAULT 7 atan@@LIBC
41:   FUNC GLOBAL DEFAULT 7 log@@LIBC
42:   FUNC GLOBAL DEFAULT 7 nearbyintf@@LIBC
43:   FUNC GLOBAL DEFAULT 7 roundf@@LIBC
44:   FUNC GLOBAL DEFAULT 7 sinh@@LIBC
45:   FUNC GLOBAL DEFAULT 7 sqrt@@LIBC
46:   FUNC GLOBAL DEFAULT 7 truncl@@LIBC
47:   FUNC GLOBAL DEFAULT 7 asinl@@LIBC
48:   FUNC GLOBAL DEFAULT 7 cosf@@LIBC
49:   FUNC GLOBAL DEFAULT 7 coshl@@LIBC
50:   FUNC GLOBAL DEFAULT 7 exp2l@@LIBC
51:   FUNC GLOBAL DEFAULT 7 frexpl@@LIBC
52:   FUNC GLOBAL DEFAULT 7 llrintl@@LIBC
53:   FUNC GLOBAL DEFAULT 7 rintl@@LIBC
54:   FUNC GLOBAL DEFAULT 7 fabs@@LIBC
55:   FUNC GLOBAL DEFAULT 7 jnf@@LIBC
56:   FUNC GLOBAL DEFAULT 7 cosh@@LIBC
57:   FUNC GLOBAL DEFAULT 7 finitef@@LIBC
58:   FUNC GLOBAL DEFAULT 7 ilogb@@LIBC
59:   FUNC GLOBAL DEFAULT 7 log10f@@LIBC
60:   FUNC GLOBAL DEFAULT 7 remainderf@@LIBC
61:   FUNC GLOBAL DEFAULT 7 remquo@@LIBC
62:   FUNC GLOBAL DEFAULT 7 acosl@@LIBC
63:   FUNC GLOBAL DEFAULT 7 atanf@@LIBC
64:   FUNC GLOBAL DEFAULT 7 powl@@LIBC
65:   FUNC GLOBAL DEFAULT 7 sinhf@@LIBC
66:   FUNC GLOBAL DEFAULT 7 sinl@@LIBC
67:   FUNC GLOBAL DEFAULT 7 sqrtf@@LIBC
68:   FUNC GLOBAL DEFAULT 7 nextafterl@@LIBC
69:   FUNC GLOBAL DEFAULT 7 scalbn@@LIBC
70:   FUNC GLOBAL DEFAULT 7 atan2@@LIBC
71:   FUNC GLOBAL DEFAULT 7 atanh@@LIBC
72:   FUNC GLOBAL DEFAULT 7 logb@@LIBC
73:   FUNC GLOBAL DEFAULT 7 nearbyintl@@LIBC
74:   FUNC GLOBAL DEFAULT 7 nexttowardf@@LIBC
75:   FUNC GLOBAL DEFAULT 7 roundl@@LIBC
76:   FUNC GLOBAL DEFAULT 7 cosl@@LIBC
77:   FUNC GLOBAL DEFAULT 7 lgammaf@@LIBC
78:   FUNC GLOBAL DEFAULT 7 nanf@@LIBC
79:   FUNC GLOBAL DEFAULT 7 nextafter@@LIBC
80:   FUNC GLOBAL DEFAULT 7 significandf@@LIBC
81:   FUNC GLOBAL DEFAULT 7 sincos@@LIBC
82:   FUNC GLOBAL DEFAULT 7 tanf@@LIBC
83:   FUNC GLOBAL DEFAULT 7 __signbit@@LIBC
84:   FUNC GLOBAL DEFAULT 7 fedisableexcept@@LIBC
85:   FUNC GLOBAL DEFAULT 7 j0f@@LIBC
86:   FUNC GLOBAL DEFAULT 7 log10l@@LIBC
87:   FUNC GLOBAL DEFAULT 7 log1pf@@LIBC
88:   FUNC GLOBAL DEFAULT 7 lrint@@LIBC
89:   FUNC GLOBAL DEFAULT 7 remainderl@@LIBC
90:   FUNC GLOBAL DEFAULT 7 tanh@@LIBC
91:   FUNC GLOBAL DEFAULT 7 __signbitf@@LIBC
92:   FUNC GLOBAL DEFAULT 7 acoshf@@LIBC
93:   FUNC GLOBAL DEFAULT 7 atanl@@LIBC
94:   FUNC GLOBAL DEFAULT 7 erfcf@@LIBC
95:   FUNC GLOBAL DEFAULT 7 fmaf@@LIBC
96:   FUNC GLOBAL DEFAULT 7 fmaxf@@LIBC
97:   FUNC GLOBAL DEFAULT 7 lgammaf_r@@LIBC
98:   FUNC GLOBAL DEFAULT 7 logf@@LIBC
99:   FUNC GLOBAL DEFAULT 7 modff@@LIBC
100:   FUNC GLOBAL DEFAULT 7 nearbyint@@LIBC
101:   FUNC GLOBAL DEFAULT 7 sinhl@@LIBC
102:   FUNC GLOBAL DEFAULT 7 sqrtl@@LIBC
103:   FUNC GLOBAL DEFAULT 7 feclearexcept@@LIBC
104:   FUNC GLOBAL DEFAULT 7 fegetround@@LIBC
105:   FUNC GLOBAL DEFAULT 7 remquof@@LIBC
106:   FUNC GLOBAL DEFAULT 7 fmin@@LIBC
107:   FUNC GLOBAL DEFAULT 7 gammaf_r@@LIBC
108:   FUNC GLOBAL DEFAULT 7 log2@@LIBC
109:   FUNC GLOBAL DEFAULT 7 nexttowardl@@LIBC
110:   FUNC GLOBAL DEFAULT 7 lgamma@@LIBC
111:   FUNC GLOBAL DEFAULT 7 lgammal@@LIBC
112:   FUNC GLOBAL DEFAULT 7 nanl@@LIBC
113:   FUNC GLOBAL DEFAULT 7 significandl@@LIBC
114:   FUNC GLOBAL DEFAULT 7 tanl@@LIBC
115:   FUNC GLOBAL DEFAULT 7 tgamma@@LIBC
116:   FUNC GLOBAL DEFAULT 7 j0@@LIBC
117:   FUNC GLOBAL DEFAULT 7 y1f@@LIBC
118:   FUNC GLOBAL DEFAULT 7 j1@@LIBC
119:   FUNC GLOBAL DEFAULT 7 log1pl@@LIBC
120:   FUNC GLOBAL DEFAULT 7 lrintf@@LIBC
121:   FUNC GLOBAL DEFAULT 7 scalb@@LIBC
122:   FUNC GLOBAL DEFAULT 7 scalblnf@@LIBC
123:   FUNC GLOBAL DEFAULT 7 __signbitl@@LIBC
124:   FUNC GLOBAL DEFAULT 7 acoshl@@LIBC
125:   FUNC GLOBAL DEFAULT 7 copysign@@LIBC
126:   FUNC GLOBAL DEFAULT 7 erfcl@@LIBC
127:   FUNC GLOBAL DEFAULT 7 fabsf@@LIBC
128:   FUNC GLOBAL DEFAULT 7 fdimf@@LIBC
129:   FUNC GLOBAL DEFAULT 7 fmal@@LIBC
130:   FUNC GLOBAL DEFAULT 7 fmaxl@@LIBC
131:   FUNC GLOBAL DEFAULT 7 fmodf@@LIBC
132:   FUNC GLOBAL DEFAULT 7 llroundf@@LIBC
133:   FUNC GLOBAL DEFAULT 7 logl@@LIBC
134:   FUNC GLOBAL DEFAULT 7 modfl@@LIBC
135:   FUNC GLOBAL DEFAULT 7 feenableexcept@@LIBC
136:   FUNC GLOBAL DEFAULT 7 remquol@@LIBC
137:   FUNC GLOBAL DEFAULT 7 tgammaf@@LIBC
138:   FUNC GLOBAL DEFAULT 7 fesetexceptflag@@LIBC
139:   FUNC GLOBAL DEFAULT 7 asinhf@@LIBC
140:   FUNC GLOBAL DEFAULT 7 ceil@@LIBC
141:   FUNC GLOBAL DEFAULT 7 scalbln@@LIBC
142:   FUNC GLOBAL DEFAULT 7 llround@@LIBC
143:   FUNC GLOBAL DEFAULT 7 round@@LIBC
144:   FUNC GLOBAL DEFAULT 7 lrintl@@LIBC
145:   FUNC GLOBAL DEFAULT 7 remainder@@LIBC
146:   FUNC GLOBAL DEFAULT 7 scalblnl@@LIBC
147:   FUNC GLOBAL DEFAULT 7 fabsl@@LIBC
148:   FUNC GLOBAL DEFAULT 7 fdiml@@LIBC
149:   FUNC GLOBAL DEFAULT 7 fminf@@LIBC
150:   FUNC GLOBAL DEFAULT 7 fmodl@@LIBC
151:   FUNC GLOBAL DEFAULT 7 jn@@LIBC
152:   FUNC GLOBAL DEFAULT 7 llroundl@@LIBC
153:   FUNC GLOBAL DEFAULT 7 log2f@@LIBC
154:   FUNC GLOBAL DEFAULT 7 scalbnf@@LIBC
155:   FUNC GLOBAL DEFAULT 7 tgammal@@LIBC
156:   FUNC GLOBAL DEFAULT 7 y0@@LIBC
157:   FUNC GLOBAL DEFAULT 7 fetestexcept@@LIBC
158:   FUNC GLOBAL DEFAULT 7 gamma_r@@LIBC
159:   FUNC GLOBAL DEFAULT 7 hypot@@LIBC
160:   FUNC GLOBAL DEFAULT 7 hypotf@@LIBC
161:   OBJECT GLOBAL DEFAULT 9 signgam@@LIBC
162:   FUNC GLOBAL DEFAULT 7 y1@@LIBC
163:   FUNC GLOBAL DEFAULT 7 asinhl@@LIBC
164:   FUNC GLOBAL DEFAULT 7 cbrt@@LIBC
165:   FUNC GLOBAL DEFAULT 7 exp@@LIBC
166:   FUNC GLOBAL DEFAULT 7 ldexpf@@LIBC
167:   FUNC GLOBAL DEFAULT 7 erfc@@LIBC
168:   FUNC GLOBAL DEFAULT 7 fmax@@LIBC
169:   FUNC GLOBAL DEFAULT 7 fminl@@LIBC
170:   FUNC GLOBAL DEFAULT 7 log2l@@LIBC
171:   FUNC GLOBAL DEFAULT 7 frexp@@LIBC
172:   FUNC GLOBAL DEFAULT 7 llrint@@LIBC
173:   FUNC GLOBAL DEFAULT 7 scalbnl@@LIBC
174:   FUNC GLOBAL DEFAULT 7 ynf@@LIBC
175:   FUNC GLOBAL DEFAULT 7 fesetenv@@LIBC
176:   FUNC GLOBAL DEFAULT 7 hypotl@@LIBC
177:   FUNC GLOBAL DEFAULT 7 cbrtf@@LIBC
178:   FUNC GLOBAL DEFAULT 7 erff@@LIBC
179:   FUNC GLOBAL DEFAULT 7 expm1f@@LIBC
180:   FUNC GLOBAL DEFAULT 7 feholdexcept@@LIBC
181:   FUNC GLOBAL DEFAULT 7 tanhf@@LIBC
182:   FUNC GLOBAL DEFAULT 7 yn@@LIBC
183:   FUNC GLOBAL DEFAULT 7 drem@@LIBC
184:   FUNC GLOBAL DEFAULT 7 ilogbf@@LIBC
185:   FUNC GLOBAL DEFAULT 7 ldexpl@@LIBC
186:   FUNC GLOBAL DEFAULT 7 dremf@@LIBC
187:   FUNC GLOBAL DEFAULT 7 floorf@@LIBC
188:   FUNC GLOBAL DEFAULT 7 lroundf@@LIBC
189:   FUNC GLOBAL DEFAULT 7 sin@@LIBC
190:   FUNC GLOBAL DEFAULT 7 erf@@LIBC
191:   FUNC GLOBAL DEFAULT 7 sincosf@@LIBC
192:   FUNC GLOBAL DEFAULT 7 y0f@@LIBC
193:   FUNC GLOBAL DEFAULT 7 fma@@LIBC
194:   FUNC GLOBAL DEFAULT 7 cbrtl@@LIBC
195:   FUNC GLOBAL DEFAULT 7 ceilf@@LIBC
196:   FUNC GLOBAL DEFAULT 7 erfl@@LIBC
197:   FUNC GLOBAL DEFAULT 7 expf@@LIBC
198:   FUNC GLOBAL DEFAULT 7 expm1l@@LIBC
199:   FUNC GLOBAL DEFAULT 7 tanhl@@LIBC
200:   OBJECT GLOBAL DEFAULT 9 __fe_dfl_env@@LIBC
201:   FUNC GLOBAL DEFAULT 7 copysignf@@LIBC
202:   FUNC GLOBAL DEFAULT 7 fdim@@LIBC
203:   FUNC GLOBAL DEFAULT 7 fmod@@LIBC
204:   FUNC GLOBAL DEFAULT 7 lgamma_r@@LIBC
205:   FUNC GLOBAL DEFAULT 7 asin@@LIBC
206:   FUNC GLOBAL DEFAULT 7 cos@@LIBC
207:   FUNC GLOBAL DEFAULT 7 exp2@@LIBC
208:   FUNC GLOBAL DEFAULT 7 fesetround@@LIBC
209:   FUNC GLOBAL DEFAULT 7 feupdateenv@@LIBC
210:   FUNC GLOBAL DEFAULT 7 ilogbl@@LIBC
211:   FUNC GLOBAL DEFAULT 7 rint@@LIBC
212:   FUNC GLOBAL DEFAULT 7 significand@@LIBC
213:   FUNC GLOBAL DEFAULT 7 fegetexcept@@LIBC
214:   FUNC GLOBAL DEFAULT 7 feraiseexcept@@LIBC
215:   FUNC GLOBAL DEFAULT 7 floor@@LIBC
216:   FUNC GLOBAL DEFAULT 7 floorl@@LIBC
217:   FUNC GLOBAL DEFAULT 7 logbf@@LIBC
218:   FUNC GLOBAL DEFAULT 7 lround@@LIBC
219:   FUNC GLOBAL DEFAULT 7 lroundl@@LIBC
