 0x000000000000000e (SONAME)             Library soname: [android.hardware.fastboot@1.0.so]
  
Symbol   contains 246 entries:
Num:   Type Bind Vis Ndx Name
0:   NOTYPE LOCAL DEFAULT UND
1:   FUNC GLOBAL DEFAULT UND __cxa_finalize@LIBC (2)
2:   FUNC GLOBAL DEFAULT UND _ZN7android14sp_report_ra
3:   FUNC GLOBAL DEFAULT UND _ZN7android21report_syspr
4:   OBJECT GLOBAL DEFAULT UND _ZN7android4hidl4base4V1_
5:   FUNC GLOBAL DEFAULT UND _ZN7android4hidl4base4V1_
6:   FUNC GLOBAL DEFAULT UND _ZN7android4hidl4base4V1_
7:   FUNC GLOBAL DEFAULT UND _ZN7android4hidl4base4V1_
8:   FUNC GLOBAL DEFAULT UND _ZN7android4hidl4base4V1_
9:   FUNC GLOBAL DEFAULT UND _ZN7android4hidl4base4V1_
10:   FUNC GLOBAL DEFAULT UND _ZN7android4hidl4base4V1_
11:   FUNC GLOBAL DEFAULT UND _ZN7android4hidl4base4V1_
12:   FUNC GLOBAL DEFAULT UND _ZN7android4hidl4base4V1_
13:   FUNC GLOBAL DEFAULT UND _ZN7android4hidl4base4V1_
14:   FUNC GLOBAL DEFAULT UND _ZN7android4hidl4base4V1_
15:   FUNC GLOBAL DEFAULT UND _ZN7android4hidl4base4V1_
16:   FUNC GLOBAL DEFAULT UND _ZN7android4hidl4base4V1_
17:   FUNC GLOBAL DEFAULT UND _ZN7android4hidl4base4V1_
18:   FUNC GLOBAL DEFAULT UND _ZN7android4hidl4base4V1_
19:   FUNC GLOBAL DEFAULT UND _ZN7android4hidl4base4V1_
20:   FUNC GLOBAL DEFAULT UND _ZN7android4hidl4base4V1_
21:   FUNC GLOBAL DEFAULT UND _ZN7android4hidl4base4V1_
22:   FUNC GLOBAL DEFAULT UND _ZN7android4hidl4base4V1_
23:   FUNC GLOBAL DEFAULT UND _ZN7android4hidl4base4V1_
24:   FUNC GLOBAL DEFAULT UND _ZN7android4hidl4base4V1_
25:   FUNC GLOBAL DEFAULT UND _ZN7android4hidl4base4V1_
26:   FUNC GLOBAL DEFAULT UND _ZN7android4hidl4base4V1_
27:   FUNC GLOBAL DEFAULT UND _ZN7android4hidl4base4V1_
28:   FUNC GLOBAL DEFAULT UND _ZN7android7RefBase10onFi
29:   FUNC GLOBAL DEFAULT UND _ZN7android7RefBase12weak
30:   FUNC GLOBAL DEFAULT UND _ZN7android7RefBase13onLa
31:   FUNC GLOBAL DEFAULT UND _ZN7android7RefBase15onLa
32:   FUNC GLOBAL DEFAULT UND _ZN7android7RefBase20onIn
33:   FUNC GLOBAL DEFAULT UND _ZN7android7RefBaseC2Ev
34:   FUNC GLOBAL DEFAULT UND _ZN7android7RefBaseD2Ev
35:   FUNC GLOBAL DEFAULT UND _ZN7android8hardware10IIn
36:   FUNC GLOBAL DEFAULT UND _ZN7android8hardware10IIn
37:   FUNC GLOBAL DEFAULT UND _ZN7android8hardware10IIn
38:   FUNC GLOBAL DEFAULT UND _ZN7android8hardware10IIn
39:   FUNC GLOBAL DEFAULT UND _ZN7android8hardware10IIn
40:   FUNC GLOBAL DEFAULT UND _ZN7android8hardware11BpH
41:   FUNC GLOBAL DEFAULT UND _ZN7android8hardware11BpH
42:   FUNC GLOBAL DEFAULT UND _ZN7android8hardware11BpH
43:   FUNC GLOBAL DEFAULT UND _ZN7android8hardware11BpH
44:   FUNC GLOBAL DEFAULT UND _ZN7android8hardware11BpH
45:   FUNC GLOBAL DEFAULT UND _ZN7android8hardware11BpH
46:   FUNC GLOBAL DEFAULT UND _ZN7android8hardware11BpH
47:   FUNC GLOBAL DEFAULT UND _ZN7android8hardware11hid
48:   FUNC GLOBAL DEFAULT UND _ZN7android8hardware11hid
49:   FUNC GLOBAL DEFAULT UND _ZN7android8hardware11hid
50:   FUNC GLOBAL DEFAULT UND _ZN7android8hardware11hid
51:   FUNC GLOBAL DEFAULT UND _ZN7android8hardware11hid
52:   FUNC GLOBAL DEFAULT UND _ZN7android8hardware12Pro
53:   FUNC GLOBAL DEFAULT UND _ZN7android8hardware12Pro
54:   FUNC GLOBAL DEFAULT UND _ZN7android8hardware13wri
55:   FUNC GLOBAL DEFAULT UND _ZN7android8hardware14rea
56:   FUNC GLOBAL DEFAULT UND _ZN7android8hardware21def
57:   FUNC GLOBAL DEFAULT UND _ZN7android8hardware21wri
58:   FUNC GLOBAL DEFAULT UND _ZN7android8hardware22rea
59:   FUNC GLOBAL DEFAULT UND _ZN7android8hardware23get
60:   FUNC GLOBAL DEFAULT UND _ZN7android8hardware27hid
61:   FUNC GLOBAL DEFAULT UND _ZN7android8hardware27hid
62:   FUNC GLOBAL DEFAULT UND _ZN7android8hardware6Parc
63:   FUNC GLOBAL DEFAULT UND _ZN7android8hardware6Parc
64:   FUNC GLOBAL DEFAULT UND _ZN7android8hardware6Parc
65:   FUNC GLOBAL DEFAULT UND _ZN7android8hardware6Parc
66:   FUNC GLOBAL DEFAULT UND _ZN7android8hardware6Parc
67:   FUNC GLOBAL DEFAULT UND _ZN7android8hardware6Parc
68:   FUNC GLOBAL DEFAULT UND _ZN7android8hardware6Parc
69:   FUNC GLOBAL DEFAULT UND _ZN7android8hardware6Stat
70:   FUNC GLOBAL DEFAULT UND _ZN7android8hardware6Stat
71:   FUNC GLOBAL DEFAULT UND _ZN7android8hardware6Stat
72:   FUNC GLOBAL DEFAULT UND _ZN7android8hardware6Stat
73:   FUNC GLOBAL DEFAULT UND _ZN7android8hardware7IBin
74:   FUNC GLOBAL DEFAULT UND _ZN7android8hardware7IBin
75:   FUNC GLOBAL DEFAULT UND _ZN7android8hardware7IBin
76:   FUNC GLOBAL DEFAULT UND _ZN7android8hardware7IBin
77:   FUNC GLOBAL DEFAULT UND _ZN7android8hardware7deta
78:   FUNC GLOBAL DEFAULT UND _ZN7android8hardware7deta
79:   FUNC GLOBAL DEFAULT UND _ZN7android8hardware7deta
80:   FUNC GLOBAL DEFAULT UND _ZN7android8hardware7deta
81:   FUNC GLOBAL DEFAULT UND _ZN7android8hardware7deta
82:   FUNC GLOBAL DEFAULT UND _ZN7android8hardware7deta
83:   FUNC GLOBAL DEFAULT UND _ZN7android8hardware7deta
84:   OBJECT GLOBAL DEFAULT UND _ZN7android8hardware7deta
85:   FUNC GLOBAL DEFAULT UND _ZN7android8hardware7deta
86:   OBJECT GLOBAL DEFAULT UND _ZN7android8hardware7deta
87:   FUNC GLOBAL DEFAULT UND _ZN7android8hardware7deta
88:   FUNC GLOBAL DEFAULT UND _ZN7android8hardware7deta
89:   FUNC GLOBAL DEFAULT UND _ZN7android8hardware7deta
90:   FUNC GLOBAL DEFAULT UND _ZN7android8hardware7deta
91:   FUNC GLOBAL DEFAULT UND _ZN7android8hardware7deta
92:   FUNC GLOBAL DEFAULT UND _ZN7android8hardware7deta
93:   FUNC GLOBAL DEFAULT UND _ZN7android8hardware7deta
94:   FUNC GLOBAL DEFAULT UND _ZN7android8hardware7deta
95:   FUNC GLOBAL DEFAULT UND _ZN7android8hardware7deta
96:   OBJECT GLOBAL DEFAULT UND _ZN7android8hardware7deta
97:   FUNC GLOBAL DEFAULT UND _ZN7android8hardware9BHwB
98:   FUNC GLOBAL DEFAULT UND _ZN7android8hardware9BHwB
99:   FUNC GLOBAL DEFAULT UND _ZN7android8hardware9BHwB
100:   FUNC GLOBAL DEFAULT UND _ZN7android8hardware9BHwB
101:   FUNC GLOBAL DEFAULT UND _ZN7android8hardware9BHwB
102:   FUNC GLOBAL DEFAULT UND _ZN7android8hardware9BHwB
103:   FUNC GLOBAL DEFAULT UND _ZN7android8hardware9BHwB
104:   FUNC GLOBAL DEFAULT UND _ZN7android8hardware9BHwB
105:   FUNC GLOBAL DEFAULT UND _ZN7android8hardware9BHwB
106:   FUNC GLOBAL DEFAULT UND _ZN7android8hardware9BHwB
107:   FUNC GLOBAL DEFAULT UND _ZNK7android7RefBase10cre
108:   FUNC GLOBAL DEFAULT UND _ZNK7android7RefBase11get
109:   FUNC GLOBAL DEFAULT UND _ZNK7android7RefBase9decS
110:   FUNC GLOBAL DEFAULT UND _ZNK7android7RefBase9incS
111:   FUNC GLOBAL DEFAULT UND _ZNK7android8hardware6Par
112:   FUNC GLOBAL DEFAULT UND _ZNK7android8hardware6Par
113:   FUNC GLOBAL DEFAULT UND _ZNK7android8hardware6Par
114:   FUNC GLOBAL DEFAULT UND _ZNK7android8hardware6Par
115:   FUNC GLOBAL DEFAULT UND _ZNK7android8hardware6Par
116:   FUNC GLOBAL DEFAULT UND _ZNK7android8hardware7IBi
117:   FUNC GLOBAL DEFAULT UND _ZNK7android8hardware7det
118:   FUNC GLOBAL DEFAULT UND _ZNK7android8hardware9BHw
119:   FUNC GLOBAL DEFAULT UND _ZNKSt3__120__vector_base
120:   FUNC GLOBAL DEFAULT UND _ZNKSt3__121__basic_strin
121:   FUNC GLOBAL DEFAULT UND _ZNSt3__112basic_stringIc
122:   FUNC GLOBAL DEFAULT UND _ZNSt3__15mutex4lockEv
123:   FUNC GLOBAL DEFAULT UND _ZNSt3__15mutex6unlockEv
124:   FUNC GLOBAL DEFAULT UND _ZNSt3__15mutexD1Ev
125:   FUNC GLOBAL DEFAULT UND _ZTv0_n24_N7android4hidl4
126:   FUNC GLOBAL DEFAULT UND _ZTv0_n24_N7android4hidl4
127:   FUNC GLOBAL DEFAULT UND _ZTv0_n24_N7android8hardw
128:   FUNC GLOBAL DEFAULT UND _ZTv0_n24_N7android8hardw
129:   FUNC GLOBAL DEFAULT UND _ZTv0_n24_N7android8hardw
130:   FUNC GLOBAL DEFAULT UND _ZTv0_n24_N7android8hardw
131:   FUNC GLOBAL DEFAULT UND _ZTv0_n24_N7android8hardw
132:   FUNC GLOBAL DEFAULT UND _ZTv0_n24_N7android8hardw
133:   FUNC GLOBAL DEFAULT UND _ZTv0_n24_N7android8hardw
134:   FUNC GLOBAL DEFAULT UND _ZTv0_n24_N7android8hardw
135:   FUNC GLOBAL DEFAULT UND _ZTv0_n32_N7android8hardw
136:   FUNC GLOBAL DEFAULT UND _ZTv0_n40_N7android8hardw
137:   FUNC GLOBAL DEFAULT UND _ZTv0_n48_N7android8hardw
138:   FUNC GLOBAL DEFAULT UND _ZdaPv
139:   FUNC GLOBAL DEFAULT UND _ZdlPv
140:   FUNC GLOBAL DEFAULT UND _Znam
141:   FUNC GLOBAL DEFAULT UND _Znwm
142:   FUNC GLOBAL DEFAULT UND __android_log_assert@LIBLOG (3)
143:   FUNC GLOBAL DEFAULT UND __cxa_pure_virtual
144:   FUNC GLOBAL DEFAULT UND __stack_chk_fail@LIBC (2)
145:   FUNC GLOBAL DEFAULT UND abort@LIBC (2)
146:   FUNC GLOBAL DEFAULT UND atrace_begin_body
147:   OBJECT GLOBAL DEFAULT UND atrace_enabled_tags
148:   FUNC GLOBAL DEFAULT UND atrace_end_body
149:   OBJECT GLOBAL DEFAULT UND atrace_is_ready
150:   FUNC GLOBAL DEFAULT UND atrace_setup
151:   FUNC GLOBAL DEFAULT UND memcmp@LIBC (2)
152:   FUNC GLOBAL DEFAULT UND memcpy@LIBC (2)
153:   FUNC GLOBAL DEFAULT UND memset@LIBC (2)
154:   FUNC GLOBAL DEFAULT UND strlen@LIBC (2)
155:   OBJECT GLOBAL DEFAULT 18 _ZTCN7android8hardware8fa
156:   FUNC GLOBAL DEFAULT 14 _ZN7android8hardware8fast
157:   FUNC GLOBAL DEFAULT 14 _ZN7android8hardware8fast
158:   FUNC GLOBAL DEFAULT 14 _ZN7android8hardware8fast
159:   FUNC GLOBAL DEFAULT 14 _ZThn32_N7android8hardwar
160:   FUNC GLOBAL DEFAULT 14 _ZN7android8hardware8fast
161:   FUNC GLOBAL DEFAULT 14 _ZN7android8hardware8fast
162:   OBJECT GLOBAL DEFAULT 18 _ZTCN7android8hardware8fa
163:   FUNC WEAK DEFAULT 14 _ZN7android8hardware7deta
164:   FUNC GLOBAL DEFAULT 14 _ZN7android8hardware8fast
165:   OBJECT GLOBAL DEFAULT 16 _ZN7android8hardware8fast
166:   FUNC GLOBAL DEFAULT 14 _ZN7android8hardware8fast
167:   FUNC WEAK DEFAULT 14 _ZNSt3__16vectorIN7androi
168:   FUNC GLOBAL DEFAULT 14 _ZN7android8hardware8fast
169:   FUNC GLOBAL DEFAULT 14 _ZN7android8hardware8fast
170:   FUNC GLOBAL DEFAULT 14 _ZN7android8hardware8fast
171:   OBJECT GLOBAL DEFAULT 18 _ZTCN7android8hardware8fa
172:   FUNC WEAK DEFAULT 14 _ZN7android8hardware7deta
173:   FUNC GLOBAL DEFAULT 14 _ZN7android8hardware8fast
174:   FUNC GLOBAL DEFAULT 14 _ZN7android8hardware8fast
175:   FUNC GLOBAL DEFAULT 14 _ZN7android8hardware8fast
176:   FUNC GLOBAL DEFAULT 14 _ZN7android8hardware8fast
177:   FUNC GLOBAL DEFAULT 14 _ZN7android8hardware8fast
178:   FUNC WEAK DEFAULT 14 _ZNSt3__16vectorIPvNS_9al
179:   OBJECT GLOBAL DEFAULT 18 _ZTTN7android8hardware8fa
180:   FUNC GLOBAL DEFAULT 14 _ZN7android8hardware8fast
181:   FUNC WEAK DEFAULT 14 _ZNSt3__16__treeINS_12__v
182:   FUNC GLOBAL DEFAULT 14 _ZN7android8hardware8fast
183:   FUNC GLOBAL DEFAULT 14 _ZN7android8hardware8fast
184:   FUNC GLOBAL DEFAULT 14 _ZN7android8hardware8fast
185:   FUNC WEAK DEFAULT 14 _ZNSt3__16__treeINS_12__v
186:   OBJECT GLOBAL DEFAULT 18 _ZTCN7android8hardware8fa
187:   OBJECT GLOBAL DEFAULT 18 _ZTVN7android8hardware8fa
188:   FUNC GLOBAL DEFAULT 14 _ZN7android8hardware8fast
189:   FUNC GLOBAL DEFAULT 14 _ZN7android8hardware8fast
190:   FUNC GLOBAL DEFAULT 14 _ZN7android8hardware8fast
191:   FUNC GLOBAL DEFAULT 14 _ZN7android8hardware8fast
192:   FUNC WEAK DEFAULT 14 _ZNSt3__16vectorINS_8func
193:   FUNC GLOBAL DEFAULT 14 _ZN7android8hardware8fast
194:   FUNC GLOBAL DEFAULT 14 _ZN7android8hardware8fast
195:   OBJECT GLOBAL DEFAULT 18 _ZTTN7android8hardware8fa
196:   FUNC GLOBAL DEFAULT 14 _ZTv0_n24_N7android8hardw
197:   FUNC GLOBAL DEFAULT 14 _ZN7android8hardware8fast
198:   OBJECT WEAK DEFAULT 18 _ZTCN7android8hardware8fa
199:   OBJECT GLOBAL DEFAULT 18 _ZTCN7android8hardware8fa
200:   FUNC GLOBAL DEFAULT 14 _ZN7android8hardware8fast
201:   FUNC GLOBAL DEFAULT 14 _ZN7android8hardware8fast
202:   FUNC WEAK DEFAULT 14 _ZNSt3__16__treeINS_12__v
203:   FUNC GLOBAL DEFAULT 14 _ZN7android8hardware8fast
204:   FUNC GLOBAL DEFAULT 14 _ZN7android8hardware8fast
205:   FUNC WEAK DEFAULT 14 _ZNSt3__16__treeINS_12__v
206:   FUNC WEAK DEFAULT 14 _ZNSt3__16__treeINS_12__v
207:   FUNC GLOBAL DEFAULT 14 _ZThn32_N7android8hardwar
208:   FUNC GLOBAL DEFAULT 14 _ZN7android8hardware8fast
209:   FUNC GLOBAL DEFAULT 14 _ZN7android8hardware8fast
210:   OBJECT GLOBAL DEFAULT 18 _ZTTN7android8hardware8fa
211:   FUNC GLOBAL DEFAULT 14 _ZN7android8hardware8fast
212:   FUNC GLOBAL DEFAULT 14 _ZN7android8hardware8fast
213:   FUNC GLOBAL DEFAULT 14 _ZN7android8hardware8fast
214:   FUNC GLOBAL DEFAULT 14 _ZN7android8hardware8fast
215:   FUNC GLOBAL DEFAULT 14 _ZN7android8hardware8fast
216:   FUNC GLOBAL DEFAULT 14 _ZN7android8hardware8fast
217:   FUNC GLOBAL DEFAULT 14 _ZN7android8hardware8fast
218:   FUNC GLOBAL DEFAULT 14 _ZN7android8hardware8fast
219:   FUNC GLOBAL DEFAULT 14 _ZN7android8hardware8fast
220:   OBJECT GLOBAL DEFAULT 18 _ZTCN7android8hardware8fa
221:   OBJECT WEAK DEFAULT 18 _ZTVN7android8hardware8fa
222:   OBJECT GLOBAL DEFAULT 18 _ZTVN7android8hardware8fa
223:   OBJECT GLOBAL DEFAULT 18 _ZTCN7android8hardware8fa
224:   FUNC GLOBAL DEFAULT 14 _ZN7android8hardware8fast
225:   FUNC GLOBAL DEFAULT 14 _ZN7android8hardware8fast
226:   FUNC GLOBAL DEFAULT 14 _ZN7android8hardware8fast
227:   FUNC WEAK DEFAULT 14 _ZNSt3__16__treeINS_12__v
228:   FUNC GLOBAL DEFAULT 14 _ZN7android8hardware8fast
229:   FUNC GLOBAL DEFAULT 14 _ZN7android8hardware8fast
230:   FUNC GLOBAL DEFAULT 14 _ZN7android8hardware8fast
231:   FUNC WEAK DEFAULT 14 _ZNSt3__127__tree_balance
232:   FUNC GLOBAL DEFAULT 14 _ZN7android8hardware8fast
233:   FUNC GLOBAL DEFAULT 14 _ZN7android8hardware8fast
234:   FUNC GLOBAL DEFAULT 14 _ZN7android8hardware8fast
235:   OBJECT GLOBAL DEFAULT 18 _ZTVN7android8hardware8fa
236:   FUNC GLOBAL DEFAULT 14 _ZN7android8hardware8fast
237:   FUNC GLOBAL DEFAULT 14 _ZN7android8hardware8fast
238:   FUNC GLOBAL DEFAULT 14 _ZN7android8hardware8fast
239:   FUNC WEAK DEFAULT 14 _ZNSt3__113__tree_removeI
240:   OBJECT GLOBAL DEFAULT 18 _ZTCN7android8hardware8fa
241:   FUNC GLOBAL DEFAULT 14 _ZTv0_n24_N7android8hardw
242:   FUNC GLOBAL DEFAULT 14 _ZN7android8hardware8fast
243:   FUNC GLOBAL DEFAULT 14 _ZN7android8hardware8fast
244:   FUNC GLOBAL DEFAULT 14 _ZN7android8hardware8fast
245:   OBJECT GLOBAL DEFAULT 18 _ZTCN7android8hardware8fa
